,Abra,Apayao,Benguet,Ifugao,Kalinga,MountainProvince,IlocosNorte,IlocosSur,LaUnion,Pangasinan,Cagayan,Isabela,NuevaVizcaya,Aurora,Bataan,Bulacan,NuevaEcija,Pampanga,Tarlac,Zambales,Batangas,Cavite,Laguna,Quezon,Marinduque,OccidentalMindoro,OrientalMindoro,Palawan,Romblon,Albay,CamarinesNorte,CamarinesSur,Masbate,Sorsogon,Aklan,Antique,Capiz,Guimaras,Iloilo,NegrosOccidental,Bohol,Cebu,NegrosOriental,Siquijor,Biliran,EasternSamar,Leyte,NorthernSamar,SouthernLeyte,ZamboangadelNorte,ZamboangadelSur,ZamboangaSibugay,Bukidnon,LanaodelNorte,MisamisOccidental,MisamisOriental,DavaodeOro,DavaodelNorte,DavaodelSur,DavaoOriental,CityofDavao,Cotabato,Sarangani,SultanKudarat,SouthCotabato,AgusandelNorte,AgusandelSur,SurigaodelNorte,Basilan,Maguindanao,Sulu,TawiTawi
1990 ,164.5,145.17,174.29,144.74,143.05,143.67,119.91,115.74,141.1,148.54,136.37,128.92,145.01,131.27,174.96,175.73,170.59,170.41,154.85,165.14,162.14,172.27,153.19,154.64,148.5,141.54,161.45,145.89,118.84,160.61,137.74,155.76,138.29,142.55,109.26,129.33,140.41,140.45,144.11,137.94,130.22,125.96,98.99,112.47,159.08,157.34,142.37,140.79,149.82,105.51,112.64,129.94,118.98,116.23,119.58,111.35,134.69,158.83,136.2,139.65,151.39,104.88,147.91,125.94,125.88,128.16,145.37,163.15,121.02,112.91,106.92,140.76
1991 ,164.5,145.17,83.88,68.61,63.71,72.2,78.4,55.08,73.61,79.77,65.08,74.66,68.65,131.27,89.95,110.05,83.1,95.18,154.85,83.92,79.19,80.69,80.29,77.6,64.98,63.58,88.89,70.76,48.47,160.61,67.15,80.73,71.57,74.21,51.03,63.7,69.38,140.45,71.13,71.04,53.71,56.71,45.3,112.47,159.08,47.08,70.79,43.0,149.82,49.46,50.01,61.58,62.95,50.57,60.0,58.49,63.62,158.83,75.54,60.0,151.39,55.52,147.91,125.94,70.08,78.62,77.26,69.72,51.75,67.69,64.81,140.76
1992 ,164.5,145.17,92.7,78.65,76.98,76.55,79.6,60.45,73.16,91.9,75.5,73.58,76.59,131.27,92.0,125.04,99.33,102.27,75.0,97.32,88.03,83.38,90.05,85.41,80.7,77.55,90.0,94.47,56.67,75.38,75.32,87.69,77.95,79.88,53.65,65.2,78.98,140.45,78.75,76.08,61.17,65.37,56.09,112.47,159.08,55.0,81.43,140.79,149.82,53.51,60.0,78.75,65.19,59.23,64.92,64.81,75.42,158.83,81.37,70.46,151.39,60.0,147.91,79.25,79.21,79.93,75.9,79.51,65.85,69.7,64.7,140.76
1993 ,84.06,145.17,101.97,78.82,83.08,69.0,77.82,70.0,73.56,84.27,71.8,70.25,78.35,131.27,83.33,132.07,123.33,106.0,154.85,100.0,88.44,86.67,89.5,89.98,89.79,90.83,88.35,84.08,65.83,160.61,79.38,90.41,80.0,83.47,61.49,65.07,93.81,140.45,81.03,76.73,60.0,66.49,55.22,112.47,159.08,61.67,80.94,140.79,149.82,51.25,59.3,82.14,71.55,60.5,69.91,66.71,71.0,158.83,83.15,70.0,151.39,55.0,147.91,71.82,78.25,74.83,78.41,80.58,54.87,61.64,62.71,140.76
1994 ,90.94,145.17,96.94,80.0,83.02,84.58,80.61,70.0,78.23,87.17,74.49,77.5,82.89,131.27,81.39,126.31,108.4,106.0,68.0,102.73,95.9,85.92,88.46,91.52,83.59,90.0,90.3,80.6,65.0,98.23,79.99,87.22,80.68,95.3,67.16,75.03,88.15,140.45,83.42,75.88,72.7,72.36,55.9,112.47,159.08,65.5,85.47,85.0,149.82,61.59,70.83,129.94,72.74,69.19,71.54,73.49,80.49,158.83,85.55,80.83,81.0,60.0,147.91,80.0,79.99,74.04,90.0,89.41,66.36,67.01,67.59,140.76
1995 ,100.0,145.17,104.2,80.0,80.0,90.0,81.87,71.19,84.17,86.92,78.93,72.32,85.58,131.27,103.33,120.92,115.75,106.17,65.38,100.45,99.19,99.02,93.71,94.94,92.34,90.0,93.47,82.66,71.76,97.36,80.0,90.16,85.23,90.0,73.18,76.44,90.91,140.45,89.65,82.98,82.49,75.02,56.45,112.47,159.08,76.45,88.65,83.65,149.82,69.86,73.67,77.68,70.73,72.61,75.0,76.43,81.65,158.83,88.34,80.0,151.39,65.0,147.91,80.0,79.76,75.07,90.0,90.0,70.83,69.94,69.57,140.76
1996 ,100.0,145.17,116.49,83.6,86.18,99.09,82.0,72.06,84.73,85.62,81.58,77.78,88.04,131.27,104.33,114.61,126.74,106.63,90.0,100.89,99.56,92.73,93.21,95.43,94.76,88.1,90.0,81.84,65.0,97.57,80.0,90.0,85.0,90.2,72.44,82.06,93.3,84.29,92.02,84.53,65.05,77.05,61.16,64.75,86.56,85.9,89.26,76.35,80.0,67.08,77.05,80.0,68.86,74.13,75.17,79.59,86.13,158.83,93.5,80.0,100.0,64.7,94.06,83.33,80.0,81.07,90.0,88.92,71.1,70.0,72.79,100.0
1997 ,100.0,109.32,119.46,88.47,90.0,100.48,82.0,72.01,85.67,86.87,80.76,80.6,89.14,69.82,102.13,111.51,110.5,170.41,100.0,105.42,104.27,94.05,98.56,86.37,90.26,83.01,90.0,88.65,65.0,103.94,84.16,90.0,85.0,90.0,72.87,90.0,95.0,90.0,95.03,85.02,70.57,76.68,66.67,64.7,90.0,97.42,89.12,70.83,80.0,71.39,79.99,80.0,73.16,74.27,80.0,79.52,89.93,158.83,93.04,80.0,100.0,65.09,86.56,90.0,81.36,80.94,90.0,89.32,72.3,70.0,80.23,98.4
1998 ,107.49,100.5,127.49,90.0,90.0,100.0,85.64,76.88,87.09,92.93,85.0,74.93,90.0,69.96,105.61,104.71,98.29,107.6,100.0,109.94,107.55,110.04,102.49,97.86,100.31,83.05,90.0,93.2,75.0,90.42,88.28,102.08,85.25,94.17,73.99,89.22,103.75,90.0,98.39,87.47,80.0,82.08,66.12,65.0,105.35,110.96,90.59,85.13,79.75,71.64,80.0,102.0,76.84,72.31,80.06,74.82,83.65,158.83,91.69,80.0,97.57,65.0,92.9,89.81,80.0,76.25,94.55,97.36,83.59,70.0,83.41,99.88
1999 ,110.0,99.58,129.08,90.08,90.0,100.0,89.72,79.24,88.0,97.54,88.87,82.77,90.0,70.03,102.78,112.29,100.66,170.41,100.0,110.03,106.06,117.73,104.4,100.0,100.0,86.99,94.74,92.95,75.0,90.0,90.0,120.0,85.0,99.99,87.41,88.95,110.0,97.41,106.83,92.06,80.1,86.43,65.44,67.79,101.67,114.66,94.21,90.0,84.76,71.81,80.0,129.94,77.98,69.57,80.0,70.72,82.32,158.83,90.51,87.95,96.86,68.7,97.5,81.3,80.67,80.75,100.0,99.83,84.58,70.0,82.72,99.79
2000 ,117.2,100.0,129.63,90.0,90.0,100.0,90.0,81.7,88.0,98.13,94.26,91.38,93.6,70.47,110.83,114.13,106.26,170.41,100.0,110.0,103.3,119.86,105.95,101.68,99.17,88.06,100.0,93.38,80.35,90.01,90.0,120.0,85.0,99.74,87.79,93.95,103.33,100.0,111.95,98.55,85.49,88.13,70.0,70.0,110.0,115.65,96.78,92.22,90.0,73.34,79.99,129.94,77.64,70.54,80.0,76.3,84.67,158.83,91.95,90.0,100.0,69.07,100.31,80.0,80.36,81.13,100.0,99.83,84.95,70.0,83.19,100.83
2001 ,120.0,100.0,135.2,96.67,99.55,100.0,91.42,80.0,93.41,106.37,95.92,93.43,99.95,76.69,121.25,122.1,109.33,118.9,105.37,118.06,115.39,129.32,111.13,102.0,101.5,97.67,100.0,96.16,86.58,95.93,94.68,120.69,88.1,100.0,87.43,107.13,102.66,100.0,115.85,99.38,98.14,96.17,70.0,72.35,110.1,119.01,97.38,90.0,101.59,72.97,86.21,106.68,79.76,72.44,80.0,83.42,86.9,158.83,94.39,90.0,100.0,79.49,110.0,80.0,86.05,82.16,100.0,110.0,89.81,70.5,83.58,100.56
2002 ,120.0,97.58,136.03,100.0,99.79,100.35,93.0,80.0,95.49,109.61,98.33,82.64,100.0,81.27,117.08,134.54,113.25,118.09,105.92,127.26,117.76,132.77,117.66,108.65,100.33,103.33,110.08,97.3,91.9,100.0,100.0,120.0,92.37,100.0,87.92,106.23,122.46,100.0,119.0,105.09,110.0,95.99,70.0,75.0,110.08,127.88,97.62,100.0,110.0,72.85,89.93,106.65,78.33,72.55,80.0,84.48,86.07,90.0,95.34,90.0,99.83,80.0,110.0,80.45,87.66,81.71,100.0,120.0,91.08,77.85,83.94,100.0
2003 ,127.53,94.17,135.98,105.37,100.0,100.0,93.0,80.44,98.47,112.2,104.06,86.41,111.9,80.07,122.5,136.0,114.17,121.21,109.94,135.28,120.91,133.11,122.14,113.1,118.33,110.19,129.66,107.96,99.21,113.05,106.94,120.14,99.17,108.11,88.14,106.96,127.63,107.5,118.71,108.55,110.0,96.65,79.13,75.0,110.09,128.15,99.23,100.0,108.56,72.63,90.0,104.43,76.84,72.49,80.3,86.11,91.72,90.18,101.54,90.56,100.25,80.12,110.0,90.0,95.28,83.11,108.49,120.03,94.85,79.01,85.44,100.0
2004 ,153.71,123.13,148.75,134.92,132.26,130.09,121.33,102.32,112.08,135.39,132.35,104.25,139.68,100.87,135.71,148.47,144.14,145.41,132.79,158.04,147.39,155.51,136.13,139.74,136.77,127.18,144.94,117.25,110.6,131.21,124.22,137.78,108.59,134.95,98.09,122.43,134.71,117.65,129.27,119.74,118.34,112.1,82.7,92.88,127.22,141.63,125.32,103.17,111.83,81.36,99.06,104.68,91.19,82.13,95.01,96.85,126.03,122.64,125.75,115.59,125.96,90.51,137.05,103.66,108.74,109.04,125.32,136.81,108.92,97.53,86.8,105.0
2005 ,157.1,140.0,165.82,150.0,139.84,142.67,140.0,119.38,125.94,145.99,137.74,116.98,160.0,118.9,159.82,176.0,153.81,163.53,149.2,172.28,153.99,160.0,147.17,153.91,155.85,130.0,157.4,127.52,130.0,145.62,130.0,142.22,130.0,144.51,112.67,120.09,128.99,128.74,141.16,133.46,120.49,127.23,91.82,100.0,128.98,143.54,129.75,119.94,130.0,83.11,99.88,110.0,96.05,92.19,100.0,103.86,139.6,135.86,135.96,131.68,139.68,105.65,140.11,128.38,132.12,117.93,130.58,153.77,116.05,110.58,87.88,117.99
2006 ,157.45,140.0,165.96,150.0,140.0,150.0,139.92,120.5,132.59,149.52,136.0,125.04,160.08,120.0,169.4,175.19,156.19,169.02,156.0,175.46,160.11,160.0,151.68,151.1,160.0,133.96,179.53,127.64,130.24,150.0,135.83,144.98,130.19,145.98,103.29,119.47,133.28,129.97,140.0,137.78,134.24,133.88,99.86,105.66,129.21,150.0,136.75,121.11,130.0,80.61,99.84,117.02,99.41,104.74,116.75,105.6,139.35,143.96,136.41,130.0,140.0,110.0,138.99,135.93,126.25,119.12,140.0,160.0,115.65,115.95,92.03,126.62
2007 ,175.85,140.0,176.81,150.0,140.0,150.0,121.71,120.0,139.75,154.33,132.33,120.97,158.38,120.16,168.64,177.06,155.97,178.4,156.27,176.54,166.26,177.53,156.01,154.94,160.0,129.0,175.25,143.32,130.0,156.21,140.41,150.63,144.33,147.03,100.53,124.73,145.03,130.0,146.18,144.4,149.96,135.97,100.0,110.0,129.87,155.15,147.53,129.92,135.89,93.6,120.0,123.62,99.27,105.11,120.0,113.69,145.06,144.29,140.04,130.89,140.02,109.87,140.05,140.0,129.55,125.18,152.5,170.91,119.19,115.74,96.03,130.41
2008 ,190.83,146.98,182.35,158.57,160.81,157.79,120.0,129.05,162.9,165.42,169.72,138.88,161.1,126.74,170.0,180.82,178.36,190.29,184.91,179.27,180.55,188.42,162.85,177.94,178.23,136.27,187.07,165.37,139.15,172.99,149.79,166.5,147.13,156.37,117.31,137.45,149.45,139.8,151.62,154.3,149.87,147.98,105.72,112.88,144.7,198.16,161.28,155.84,149.07,104.67,125.08,138.1,125.14,130.19,127.31,121.88,150.0,157.08,150.12,155.01,145.92,110.0,144.78,145.31,146.08,140.02,160.0,179.0,151.09,122.18,103.96,134.75
2009 ,198.26,160.0,200.0,176.9,176.73,160.0,139.95,141.02,189.12,176.55,183.12,159.13,167.58,139.78,193.41,196.88,198.29,190.93,186.62,193.06,195.47,214.21,167.94,180.4,192.62,175.53,198.29,182.13,140.0,180.0,152.64,171.32,160.28,159.89,145.46,146.11,154.78,155.39,168.65,164.99,156.25,155.36,114.23,120.0,155.4,200.0,160.95,168.27,151.3,113.82,127.43,142.86,139.74,143.44,130.91,123.87,152.98,162.09,152.98,156.88,164.82,117.57,148.1,149.28,150.0,151.59,160.13,181.42,166.22,127.63,106.22,157.9
2010 ,200.0,160.0,200.07,180.18,180.0,160.0,140.0,141.35,177.11,190.96,184.84,153.42,166.99,157.38,210.0,214.17,209.34,204.52,191.96,200.0,199.66,230.94,173.12,183.47,199.23,185.71,214.16,181.63,143.74,202.41,164.48,180.06,191.74,159.2,128.2,146.58,158.36,160.0,171.34,166.9,159.95,161.84,122.89,120.0,171.63,200.0,169.26,181.43,178.41,132.23,145.46,161.88,152.15,156.83,140.0,134.47,159.42,160.45,159.36,169.54,180.0,137.79,159.55,150.22,150.0,162.7,180.0,199.55,169.93,143.5,109.54,159.38
2011 ,205.24,160.0,200.0,180.0,180.0,160.0,140.0,144.47,175.32,191.51,186.32,154.08,164.0,156.57,234.04,215.71,231.65,179.92,188.04,200.45,205.2,232.03,181.02,186.05,190.08,196.03,216.43,185.78,145.03,204.08,171.84,185.79,180.0,156.23,126.0,154.06,165.02,160.0,178.0,174.01,160.0,168.47,125.73,126.15,185.42,200.0,170.0,198.55,180.0,143.27,147.49,167.54,165.27,158.42,145.4,138.67,160.11,162.37,166.88,170.0,208.71,140.45,162.92,151.98,151.57,172.69,180.0,209.46,161.29,153.96,109.37,158.7
2012 ,207.59,160.0,200.0,187.78,180.0,181.8,140.19,144.52,179.02,187.56,186.82,171.44,172.97,153.49,240.41,214.22,235.69,181.03,186.76,200.0,208.73,232.41,180.07,190.94,190.0,196.03,213.22,195.31,145.05,197.77,178.75,196.68,180.0,158.35,126.0,156.31,165.7,160.3,177.55,174.0,160.33,170.5,125.98,130.0,190.66,200.0,176.05,197.19,180.0,146.43,148.03,166.74,166.59,163.56,155.75,137.55,164.52,170.7,168.8,169.98,220.0,140.0,166.84,159.25,151.26,177.27,188.99,208.38,161.77,143.0,107.97,162.75
2013 ,208.18,160.0,206.12,200.0,193.22,200.0,148.56,151.03,182.39,190.8,187.98,179.01,179.97,158.1,253.46,215.63,240.49,192.2,188.23,200.0,208.6,243.12,181.88,193.64,190.08,200.03,219.88,198.12,149.69,199.96,192.92,207.58,180.0,187.94,137.71,176.31,178.66,169.67,181.9,175.71,165.83,171.27,128.26,134.81,193.21,199.58,181.42,200.0,182.0,146.89,148.14,150.4,168.39,162.76,157.97,137.22,179.51,169.74,170.19,220.0,170.47,140.0,171.88,159.62,157.57,178.86,190.0,215.62,161.22,143.0,113.63,166.56
2014 ,213.89,168.36,232.01,200.2,200.0,200.0,150.0,156.79,187.46,198.3,185.66,178.24,178.56,150.03,257.76,218.03,239.59,207.23,192.68,212.53,215.05,245.12,189.25,199.52,191.75,208.23,216.62,197.07,152.29,200.0,185.63,211.54,180.0,180.0,152.85,179.76,184.78,170.0,191.44,184.77,170.0,175.2,140.02,140.0,195.51,233.63,217.98,200.0,196.06,148.01,150.0,151.06,169.66,182.34,159.55,138.64,178.54,169.25,170.0,220.0,174.28,140.0,172.99,160.11,153.1,180.39,197.01,230.0,163.1,143.0,132.23,169.49
2015 ,215.57,164.83,235.61,200.75,200.0,200.0,150.0,159.96,183.78,199.83,177.55,177.65,199.73,170.0,256.87,225.66,238.45,200.89,197.66,220.0,217.93,258.26,197.58,205.2,192.13,210.0,218.74,199.78,160.0,212.13,177.96,220.75,180.0,182.74,155.93,179.96,189.76,170.0,193.11,194.53,179.44,173.32,137.61,140.0,197.49,241.82,207.48,200.28,201.67,149.81,150.01,155.76,167.5,172.8,169.36,143.26,176.69,169.1,170.0,220.0,177.92,140.06,177.5,167.8,161.01,188.1,195.04,241.62,162.51,144.55,138.23,170.2
2016 ,219.3,177.53,236.0,203.88,200.0,200.0,150.0,157.58,186.29,202.86,182.64,172.68,200.26,180.0,245.42,241.92,236.49,208.88,202.16,217.49,227.95,254.73,214.35,220.04,197.88,200.73,218.29,199.99,160.0,227.87,191.42,225.59,187.18,180.0,155.99,180.0,191.94,168.89,192.93,194.11,185.03,174.9,141.04,144.81,201.62,247.74,204.8,200.0,210.0,149.89,150.62,166.65,167.72,180.76,178.26,152.95,185.9,172.03,170.28,220.77,185.86,141.64,179.61,164.52,166.44,187.56,203.02,241.48,162.03,159.61,168.6,171.69
2017 ,223.66,180.4,259.36,211.76,208.35,200.0,155.0,166.11,215.31,209.25,185.39,187.17,201.34,180.0,258.26,247.93,241.95,232.6,220.55,237.04,243.48,229.65,231.99,248.36,199.72,206.38,230.49,212.35,167.57,237.6,203.15,225.96,210.68,208.62,154.12,180.92,194.21,183.67,199.86,195.82,190.07,184.82,141.92,150.0,219.35,250.0,207.85,200.0,216.24,157.27,151.61,178.52,179.3,182.14,190.35,162.06,188.65,177.89,190.71,224.76,205.27,150.0,191.56,182.14,180.8,184.79,217.1,255.27,168.95,172.03,155.77,173.18
2018 ,223.42,192.94,286.68,222.55,226.95,227.43,175.45,182.88,237.46,218.11,195.5,213.38,235.15,196.24,283.2,266.04,259.87,261.67,238.23,250.31,257.89,257.95,263.15,255.95,223.77,204.59,246.48,247.3,195.04,264.89,234.19,242.15,238.12,240.06,157.24,205.79,218.37,198.0,226.52,209.58,217.36,190.67,151.71,181.54,247.76,280.2,225.33,212.11,220.76,181.41,179.79,196.9,191.44,198.29,202.39,168.94,232.9,198.9,225.0,237.08,219.75,164.97,209.01,188.15,206.11,195.6,244.17,277.11,180.44,180.42,169.04,178.21
2019 ,232.51,200.43,292.29,241.2,243.65,240.19,180.0,191.78,256.08,246.2,196.92,228.45,262.29,200.31,314.84,289.9,288.49,293.23,264.1,274.73,262.31,275.59,274.25,262.37,240.0,225.58,271.92,272.28,204.32,271.57,245.51,267.77,250.0,257.83,159.91,220.0,220.0,200.0,231.34,232.55,230.0,182.91,170.62,170.0,255.61,229.11,235.81,218.18,219.02,189.59,175.73,200.0,217.0,198.33,206.51,186.99,249.47,206.97,240.0,233.51,229.25,170.07,218.16,189.87,219.85,214.67,250.0,298.83,187.04,194.0,219.84,196.82
2020 ,246.35,208.24,331.75,263.21,257.33,257.82,180.0,194.4,286.75,274.21,235.72,248.61,287.53,203.72,360.95,303.85,299.91,313.3,280.03,285.74,288.06,287.3,289.72,290.99,240.8,228.53,279.31,259.7,216.56,290.75,237.49,276.39,250.0,271.84,182.06,220.0,220.0,200.0,240.74,238.17,230.0,177.17,172.04,178.4,279.46,244.37,252.07,220.0,218.68,203.83,184.03,196.66,220.88,182.33,215.02,198.97,248.41,214.34,247.75,233.87,232.78,170.0,237.23,190.05,227.24,209.67,252.63,300.68,193.18,207.35,225.82,239.97
