,Abra,Apayao,Benguet,Ifugao,Kalinga,MountainProvince,IlocosNorte,IlocosSur,LaUnion,Pangasinan,Cagayan,Isabela,NuevaVizcaya,Quirino,Aurora,Bataan,Bulacan,NuevaEcija,Pampanga,Tarlac,Zambales,Batangas,Cavite,Laguna,Quezon,Marinduque,OccidentalMindoro,OrientalMindoro,Palawan,Romblon,Albay,CamarinesNorte,CamarinesSur,Catanduanes,Masbate,Sorsogon,Aklan,Antique,Capiz,Guimaras,Iloilo,NegrosOccidental,Bohol,Cebu,NegrosOriental,Siquijor,Biliran,EasternSamar,Leyte,NorthernSamar,Samar,SouthernLeyte,ZamboangadelNorte,ZamboangadelSur,ZamboangaSibugay,CityofZamboanga,Bukidnon,Camiguin,LanaodelNorte,MisamisOccidental,MisamisOriental,DavaodeOro,DavaodelNorte,DavaodelSur,DavaoOriental,CityofDavao,Cotabato,Sarangani,SultanKudarat,SouthCotabato,AgusandelNorte,AgusandelSur,SurigaodelNorte,SurigaodelSur,Basilan,LanaodelSur,Maguindanao,Sulu,TawiTawi
1990 ,31.79,33.21,17.51,11.58,14.64,9.13,20.32,20.03,20.13,19.22,19.06,15.21,12.76,11.06,42.46,19.09,23.87,19.9,22.03,6.01,20.48,23.7,20.71,24.36,28.84,29.21,36.51,32.76,31.73,33.57,22.44,28.13,25.74,52.12,31.8,25.69,28.99,27.24,23.01,58.89,24.62,25.35,17.68,17.29,20.41,51.75,45.61,29.07,19.74,20.05,21.55,44.07,13.45,15.96,50.61,16.37,11.18,43.38,12.91,15.68,14.36,40.67,9.29,10.54,36.08,13.73,11.13,31.41,34.69,14.22,17.57,14.32,16.56,15.66,19.86,22.68,13.18,26.77,70.59
1991 ,31.79,33.21,16.8,14.11,14.99,11.49,19.56,19.75,18.76,18.1,18.76,16.06,14.73,14.13,42.46,17.45,19.92,18.33,17.89,18.56,18.98,22.9,19.55,24.31,23.15,30.05,31.13,29.41,37.96,35.04,42.81,24.85,25.75,52.12,32.48,18.81,28.97,25.91,22.29,58.89,24.23,21.82,17.37,16.14,17.27,51.75,45.61,27.14,18.72,21.3,24.34,44.07,10.15,11.75,50.61,14.7,9.42,43.38,10.05,12.76,12.45,40.67,10.59,9.99,36.08,12.17,13.67,31.41,34.69,13.82,15.62,15.45,17.11,16.29,20.73,22.68,15.73,30.5,70.59
1992 ,31.79,33.21,15.5,13.76,15.75,12.13,18.66,17.08,18.44,17.23,21.28,16.28,14.93,14.81,42.46,15.3,18.98,18.13,17.46,14.41,18.58,20.37,19.45,18.36,19.8,28.4,31.91,29.05,33.9,31.04,24.01,24.56,24.15,52.12,30.59,26.42,25.03,24.36,20.66,58.89,23.84,18.86,16.52,16.92,17.52,51.75,45.61,28.82,18.5,20.57,25.48,44.07,15.1,14.63,50.61,15.91,14.76,43.38,12.52,16.57,14.22,40.67,14.6,12.13,36.08,15.98,33.11,31.41,17.3,20.45,16.16,18.01,19.13,20.11,21.64,4.26,16.99,27.5,70.59
1993 ,16.82,33.21,13.38,12.23,12.45,8.99,14.47,12.07,14.58,13.2,14.04,13.37,11.32,12.17,42.46,20.0,15.11,13.93,33.06,11.05,17.7,16.97,18.23,17.03,16.79,24.71,29.35,24.49,25.11,36.05,42.81,19.6,17.95,52.12,26.99,20.36,20.66,20.92,16.52,58.89,20.73,14.74,13.45,14.16,15.05,51.75,45.61,24.77,16.21,16.42,21.71,44.07,12.07,12.4,50.61,12.95,12.91,43.38,13.17,14.21,10.96,40.67,17.6,9.54,36.08,15.79,14.32,31.41,13.84,14.2,16.91,15.82,16.83,18.83,20.01,3.59,13.71,26.73,70.59
1994 ,15.86,33.21,16.58,14.46,15.32,9.55,15.69,12.59,18.01,14.35,14.07,14.71,14.03,15.27,42.46,19.29,17.25,15.95,16.59,15.17,19.61,20.8,19.97,21.68,19.24,27.51,32.17,27.79,31.8,34.56,27.31,23.19,21.5,52.12,35.44,24.58,24.72,24.28,18.77,58.89,21.85,15.45,18.25,16.64,17.32,51.75,45.61,27.84,18.78,20.27,23.56,44.07,15.08,14.83,50.61,15.72,11.87,43.38,15.47,16.57,13.73,40.67,14.0,10.15,36.08,16.24,13.07,31.41,14.44,15.3,15.17,16.98,18.4,20.65,21.0,3.92,16.0,29.34,70.59
1995 ,18.18,33.21,18.14,14.8,17.84,10.66,17.77,15.3,17.31,15.1,15.39,16.0,15.67,17.0,42.46,15.75,18.07,15.35,15.55,15.36,19.04,21.54,20.19,22.27,22.15,28.05,30.73,27.39,33.9,31.27,28.57,23.74,22.18,34.75,37.96,27.77,25.33,26.61,21.7,58.89,27.45,19.23,19.0,18.48,18.54,51.75,45.61,27.45,22.37,22.95,22.67,44.07,19.09,17.64,50.61,18.65,14.36,43.38,15.22,20.11,16.63,40.67,16.47,12.38,36.08,18.47,16.68,16.02,20.08,19.6,15.92,19.35,22.31,24.8,20.91,10.91,17.33,32.1,70.59
1996 ,19.95,33.21,20.02,18.17,20.19,9.7,21.06,19.1,20.33,18.53,18.62,17.75,15.73,18.18,42.46,16.85,19.58,17.34,18.95,14.21,21.56,26.19,27.7,24.31,25.15,29.34,42.94,31.15,32.71,38.39,27.87,30.34,28.83,36.52,34.79,32.91,27.18,28.82,24.74,29.17,27.45,20.0,20.18,18.51,22.18,26.68,31.8,32.83,21.08,23.96,28.31,25.93,20.9,18.35,50.61,21.82,11.98,22.22,15.54,19.93,14.73,40.67,15.22,10.92,17.75,16.51,17.82,16.51,17.64,16.24,17.32,20.43,20.11,25.11,23.71,12.86,15.07,30.46,45.18
1997 ,20.13,16.7,20.49,16.88,19.39,11.77,19.72,18.29,19.35,17.25,16.27,20.69,15.25,17.53,23.26,20.98,20.98,16.92,20.9,15.65,21.06,25.31,26.26,22.67,21.35,30.36,36.94,32.3,40.98,34.81,23.64,26.09,25.09,34.66,29.04,28.87,30.33,27.17,24.92,26.41,26.59,19.81,18.46,17.97,23.12,23.35,28.75,28.86,21.19,21.37,26.41,22.25,20.92,18.38,50.61,19.55,11.82,20.79,14.6,18.98,15.01,40.67,18.04,13.29,16.79,19.28,16.84,18.98,18.27,18.8,17.85,18.56,20.5,26.72,22.16,19.48,17.71,31.65,40.43
1998 ,31.23,25.73,32.49,21.8,27.31,15.62,32.36,27.38,27.73,26.91,28.47,29.94,24.71,27.24,44.45,32.16,31.32,26.21,29.71,22.77,29.63,36.42,38.89,38.09,32.84,43.96,48.47,42.64,38.75,48.21,35.59,37.87,36.4,43.66,39.97,40.81,34.17,35.19,34.28,35.81,37.74,28.28,26.97,28.77,28.58,32.58,39.67,38.83,37.76,32.22,38.81,33.88,31.33,29.29,50.61,30.01,19.54,29.88,23.91,29.62,24.26,40.67,26.76,24.43,25.56,30.27,27.92,27.79,27.25,27.13,24.7,30.38,32.48,38.88,35.55,27.51,26.09,33.53,51.92
1999 ,27.45,24.31,26.38,20.8,22.69,14.1,26.86,24.44,31.26,23.79,20.62,23.33,20.44,21.32,31.59,28.39,27.73,24.17,26.58,20.34,30.13,38.0,32.28,29.5,31.13,43.26,48.44,33.45,57.32,47.25,32.45,36.37,35.55,49.03,40.85,38.14,34.84,30.65,27.95,33.38,35.87,24.5,22.19,26.34,29.91,30.22,39.92,40.04,27.41,29.83,35.63,30.76,23.31,21.03,50.61,21.78,13.24,21.53,19.02,21.73,15.3,40.67,17.97,14.44,23.96,19.5,19.87,17.24,18.91,18.07,25.87,21.62,24.46,32.29,27.77,21.2,18.97,32.76,45.72
2000 ,25.73,21.62,24.38,19.47,21.05,15.71,24.76,23.32,26.42,22.48,18.42,23.68,18.1,21.0,30.1,28.62,27.31,22.38,26.38,18.95,25.26,33.02,30.37,29.12,28.53,36.26,43.02,29.79,29.78,40.7,29.47,31.13,31.53,46.47,37.28,34.03,31.34,28.18,30.82,31.81,32.89,23.55,22.93,22.59,26.83,29.56,35.42,32.07,25.95,27.68,35.42,27.13,26.0,21.79,50.61,25.26,15.08,20.58,18.74,22.73,17.04,40.67,19.65,15.87,24.05,22.84,19.13,19.49,24.53,22.31,23.05,23.12,26.16,32.25,27.1,21.18,20.33,34.77,45.75
2001 ,25.37,20.04,25.02,19.16,18.56,11.8,25.13,25.11,22.53,19.54,18.97,20.8,15.0,17.9,28.05,23.36,26.39,26.95,22.44,15.63,25.64,33.98,30.7,29.16,29.25,37.0,45.44,32.2,36.72,41.31,27.77,30.95,30.96,43.99,36.49,32.5,33.24,31.48,30.54,32.41,34.41,25.34,20.78,20.56,22.07,31.53,34.9,34.57,26.09,27.49,37.97,24.75,26.29,22.27,50.61,28.36,14.73,21.19,15.6,21.64,16.08,40.67,20.51,16.58,25.14,23.37,22.97,21.33,27.06,23.47,22.41,24.48,26.83,34.41,25.8,22.94,24.17,37.1,49.0
2002 ,29.57,21.26,28.82,21.27,19.65,13.25,27.51,23.61,21.69,24.39,20.89,25.33,19.55,21.91,29.61,26.88,26.68,28.44,27.48,20.32,27.97,35.37,32.93,34.07,32.21,37.16,41.84,31.7,47.13,40.34,32.55,35.02,32.87,44.8,36.41,35.74,35.22,34.85,33.23,38.66,35.97,26.39,24.19,21.54,23.6,33.55,35.07,34.83,28.02,31.1,37.99,26.14,29.53,24.47,50.61,27.58,16.78,24.87,20.62,24.53,19.37,22.77,23.64,17.36,24.42,24.95,23.32,23.95,29.81,26.09,23.06,25.35,28.8,37.62,25.93,20.73,19.72,37.43,52.34
2003 ,23.71,21.66,26.75,20.45,16.18,17.0,25.02,20.85,20.58,23.05,18.76,21.52,16.1,17.67,30.01,26.84,21.69,26.39,24.77,17.33,25.85,33.86,28.4,31.81,30.28,34.92,45.07,30.47,45.71,41.35,29.19,31.2,29.53,36.59,32.77,33.79,30.07,30.73,29.72,32.31,33.72,28.48,24.46,22.34,24.29,34.4,34.6,38.85,26.64,29.86,42.01,29.89,28.49,27.29,50.61,30.33,16.68,24.75,21.02,23.22,17.61,23.38,21.52,15.85,23.64,22.35,27.19,23.07,26.96,25.26,22.17,22.45,29.23,35.74,26.97,20.77,19.72,38.49,51.99
2004 ,26.98,21.57,26.5,21.3,19.58,15.89,23.19,22.43,21.44,22.66,17.83,21.92,17.21,20.73,28.72,28.68,24.46,26.09,27.77,19.03,27.24,33.01,28.95,31.63,29.83,34.96,50.1,31.11,46.24,42.58,29.62,31.6,31.22,38.2,38.33,36.24,32.31,32.21,31.61,36.8,36.77,29.4,27.94,24.38,27.28,41.08,40.78,41.24,29.61,33.08,36.97,31.77,30.47,30.71,30.95,30.23,19.58,27.96,23.63,24.73,17.76,26.46,27.54,18.33,26.88,25.97,28.71,24.22,26.94,25.87,31.07,25.03,34.67,37.63,27.77,25.3,21.31,38.62,60.3
2005 ,26.57,23.66,26.99,20.65,20.08,13.21,22.62,22.16,23.45,22.8,21.11,24.95,17.1,20.72,26.05,24.7,24.01,24.39,27.97,21.09,29.18,33.93,29.7,33.55,31.6,34.98,47.15,35.35,45.69,44.06,31.59,31.21,32.8,38.76,35.19,37.98,36.51,36.3,30.41,39.71,34.92,29.39,30.25,26.01,28.75,42.08,42.57,48.39,31.77,35.95,39.08,35.43,30.11,29.93,31.81,30.42,20.62,31.09,22.77,25.2,18.74,26.78,30.85,19.0,26.64,27.22,28.75,24.35,28.47,27.19,32.84,27.51,34.85,40.39,31.33,25.85,24.56,38.78,62.92
2006 ,35.9,31.12,33.14,28.52,26.08,15.72,31.55,30.72,24.27,28.14,27.73,31.32,23.82,25.65,31.62,34.73,32.94,30.33,33.39,27.34,33.88,44.04,37.79,41.08,41.18,46.45,50.77,52.73,55.96,55.91,38.89,39.98,40.4,47.84,41.04,46.28,38.34,39.43,32.8,43.53,40.68,29.52,33.8,26.22,30.2,46.66,38.9,47.83,34.03,45.76,41.43,38.58,30.4,30.28,35.21,32.64,19.49,37.16,22.22,24.45,16.54,27.9,32.63,20.64,28.81,28.09,29.87,23.91,30.29,31.98,31.79,26.94,37.22,40.22,34.53,23.44,26.64,48.59,44.7
2007 ,29.38,22.45,27.79,20.42,18.86,14.76,26.32,23.35,27.83,23.0,19.01,27.56,20.88,20.09,26.04,31.64,31.99,26.22,28.42,23.22,30.37,36.4,32.87,37.05,31.75,41.22,50.52,39.66,51.31,48.66,32.98,31.22,30.47,38.79,43.12,39.68,38.14,38.52,32.1,40.8,35.01,21.16,40.11,26.23,25.26,45.98,40.12,55.89,33.48,44.91,41.42,40.56,31.25,37.3,37.19,38.0,23.43,40.65,27.06,28.53,19.87,33.68,37.45,23.49,26.26,31.46,37.63,30.01,37.64,35.86,37.29,34.28,42.54,46.54,44.86,25.09,35.26,59.42,54.06
2008 ,30.61,30.6,29.44,26.6,23.12,16.57,28.48,28.07,35.47,31.48,23.53,29.08,28.36,24.01,28.56,33.66,36.16,28.4,32.69,26.46,34.7,41.48,36.76,42.46,37.82,47.08,51.79,40.46,58.44,53.87,38.71,42.23,38.65,45.18,48.97,42.49,44.48,47.74,34.64,52.45,45.64,32.85,48.04,28.08,32.52,58.44,33.17,56.78,33.81,41.89,52.11,43.75,37.27,38.88,43.1,37.3,23.39,43.32,29.68,32.48,20.14,29.51,35.9,19.46,28.78,27.2,33.84,24.18,33.27,32.58,37.2,32.44,42.03,44.81,43.49,28.07,29.01,63.74,63.8
2009 ,39.02,31.68,38.12,35.13,30.1,22.2,41.34,36.97,37.51,38.61,32.27,38.9,34.94,30.66,41.08,44.28,43.33,32.84,46.09,31.07,44.67,52.03,46.18,52.1,44.25,57.12,74.66,46.3,77.28,65.46,48.47,54.02,49.18,56.72,52.95,55.89,48.42,54.76,38.53,59.54,52.43,39.08,46.09,32.12,34.46,59.35,35.7,60.0,39.06,45.44,51.75,44.18,39.06,38.55,44.06,35.67,24.1,43.4,31.4,33.45,21.76,32.12,39.11,23.15,33.57,31.17,38.56,24.47,32.8,23.41,38.47,36.57,44.0,44.52,38.93,32.48,30.07,63.15,65.18
2010 ,25.37,23.36,33.4,26.15,18.07,13.67,23.63,24.25,24.29,29.39,18.65,23.22,21.05,18.33,35.04,36.56,30.42,26.69,32.92,22.56,34.31,39.94,33.43,39.82,30.12,45.46,55.13,38.76,54.78,56.94,35.86,35.22,38.37,41.01,51.03,42.54,40.13,43.37,36.84,50.38,45.67,31.39,42.49,34.59,32.63,56.12,38.09,57.67,38.37,44.86,44.56,45.25,38.16,39.82,42.89,35.1,22.23,42.16,29.58,32.93,21.48,34.89,40.56,24.97,35.22,33.9,35.69,30.96,39.3,28.82,44.4,40.28,45.15,47.22,51.3,32.48,31.05,63.19,52.89
2011 ,38.03,38.6,44.96,38.94,33.0,21.43,37.31,34.96,36.36,40.07,31.83,36.51,35.83,33.54,46.89,67.83,45.09,39.68,45.88,32.04,52.2,54.43,46.65,54.35,48.53,61.19,64.17,52.51,75.82,67.18,49.06,48.81,53.63,50.08,64.22,60.92,55.3,60.92,51.61,65.59,62.16,45.82,50.14,36.59,35.71,57.92,49.81,67.21,46.56,59.06,55.12,49.76,45.03,43.6,50.0,46.59,27.28,49.98,37.25,41.54,27.06,42.78,49.12,33.17,47.56,41.91,43.97,36.21,46.4,34.03,45.73,46.31,55.86,56.23,60.69,22.68,42.0,72.47,73.53
2012 ,37.59,36.23,45.84,43.45,29.35,20.62,30.23,32.49,40.63,39.44,29.62,36.94,30.7,27.92,42.28,75.22,42.95,35.7,42.95,24.04,52.39,55.1,41.66,53.07,47.1,62.62,55.01,54.78,76.14,78.22,48.84,54.76,53.41,51.22,60.64,59.33,56.06,60.63,50.64,73.03,60.67,45.63,46.45,30.95,30.97,57.84,46.48,71.09,46.61,60.34,57.79,45.59,45.86,49.75,48.26,45.76,25.38,54.37,37.39,40.8,24.79,40.76,51.59,30.9,45.45,38.69,44.6,34.64,39.67,31.53,39.24,46.95,57.12,57.18,76.76,22.68,38.85,72.83,97.47
2013 ,37.43,45.42,44.82,38.78,33.29,27.14,35.95,33.87,38.05,39.32,31.71,41.75,33.21,32.97,63.85,83.34,41.73,37.79,43.16,26.54,48.74,55.56,44.19,52.5,49.97,68.5,56.18,59.09,79.5,74.83,48.82,58.95,54.02,52.37,65.0,58.28,58.01,64.05,53.26,71.47,63.35,44.81,50.41,35.63,34.46,58.79,46.79,74.74,49.36,61.95,63.43,44.99,48.79,53.7,51.98,47.6,31.76,55.54,43.97,43.27,27.29,47.15,55.84,35.24,50.2,40.96,43.64,38.87,53.78,35.45,43.95,49.51,58.37,58.01,82.02,22.68,37.99,84.47,81.95
2014 ,39.29,35.98,47.85,33.3,33.96,27.29,36.09,36.56,34.06,44.13,32.29,43.2,32.56,33.97,46.07,69.47,50.9,41.09,44.2,30.99,49.1,54.49,44.3,54.37,57.08,72.89,70.8,65.33,85.54,79.58,55.13,58.06,56.46,58.93,72.01,59.08,63.75,72.29,57.58,82.04,71.73,43.42,54.62,37.98,37.18,63.04,52.32,84.41,51.9,75.53,72.16,49.26,49.27,53.34,55.4,49.43,35.37,56.85,47.08,44.77,30.25,46.88,58.41,37.25,49.97,44.9,42.11,41.84,45.88,43.31,46.75,50.64,60.5,57.88,77.99,27.73,39.06,91.55,84.61
2015 ,47.59,53.48,62.61,40.31,41.54,38.72,49.15,49.82,48.8,58.42,42.5,48.48,40.66,54.56,60.24,66.96,58.62,51.57,53.01,37.21,54.1,68.43,60.93,69.26,69.08,85.64,64.09,79.24,93.57,97.81,68.53,73.42,74.38,69.43,84.18,76.21,72.99,79.88,67.27,97.5,82.27,48.12,58.9,46.65,45.01,65.35,57.48,84.71,57.64,71.44,71.22,56.14,54.04,52.55,59.49,51.13,39.51,62.21,50.41,46.44,32.27,45.82,63.45,38.54,54.6,48.57,46.61,41.9,54.89,43.83,49.22,58.64,61.76,59.67,82.3,37.23,42.81,86.66,99.55
2016 ,43.15,47.06,58.85,49.71,40.66,37.33,42.55,45.51,46.61,51.17,38.42,42.17,36.83,45.91,59.88,71.33,60.3,49.27,45.41,32.95,50.91,63.48,51.62,59.35,66.06,79.85,69.58,77.82,85.61,90.78,65.87,73.69,65.65,76.69,75.86,71.81,70.46,76.25,69.83,95.52,77.87,45.04,63.14,50.03,49.19,71.9,50.32,85.49,54.15,80.29,76.81,58.35,62.31,55.03,66.68,66.78,39.13,73.44,53.67,52.09,37.72,55.57,73.48,45.65,56.23,57.99,54.85,48.75,59.59,55.42,55.88,71.92,66.84,70.81,101.46,37.6,53.36,82.7,104.95
2017 ,39.75,45.29,51.77,42.53,38.42,41.15,41.66,43.49,45.14,53.5,34.65,47.5,38.4,43.52,55.75,76.09,54.4,40.31,45.64,32.58,48.54,66.37,43.76,61.54,66.34,80.75,63.97,73.55,83.48,91.29,68.26,81.81,65.0,74.61,80.0,73.56,71.42,79.97,67.05,98.8,84.08,55.12,70.21,48.89,54.78,74.58,66.18,92.19,47.54,80.68,80.46,67.76,70.26,57.2,72.33,74.53,46.32,76.23,58.78,57.14,43.85,59.31,77.12,44.99,54.78,62.06,63.87,51.69,54.78,59.61,64.39,73.69,72.64,68.84,107.35,37.13,51.74,89.92,107.59
2018 ,56.65,62.37,80.3,57.19,57.26,54.0,58.31,63.26,61.59,75.54,52.4,61.82,49.41,63.17,75.5,106.84,75.47,55.44,64.0,52.04,72.29,86.67,67.36,88.98,89.85,104.45,79.04,97.69,97.57,97.78,91.85,102.13,84.87,95.42,89.44,96.11,85.8,90.25,77.95,101.67,90.66,55.59,66.02,49.61,52.42,74.15,68.47,92.37,49.81,90.28,89.82,73.58,70.55,55.6,61.01,69.64,44.51,67.32,50.49,53.66,41.59,57.0,79.43,42.44,51.63,60.45,55.57,50.17,52.08,58.74,68.58,71.92,71.67,68.46,111.68,22.68,52.62,91.43,99.27
2019 ,41.1,46.76,51.71,45.39,42.75,47.39,48.92,49.59,48.82,57.98,37.93,50.7,38.55,49.08,63.94,86.81,51.83,49.19,45.28,38.58,61.01,78.86,51.34,70.93,68.09,95.46,70.88,79.86,89.48,98.92,74.55,75.21,74.04,74.58,103.33,86.3,74.76,83.5,71.23,105.53,85.52,67.4,69.68,53.99,55.96,90.25,74.7,100.97,55.23,86.95,89.84,78.39,69.44,52.77,62.01,71.47,42.5,66.72,36.79,54.7,44.53,60.17,80.84,44.28,51.55,65.98,61.91,51.37,57.59,56.54,77.16,73.98,71.19,73.92,99.67,22.68,45.71,104.33,112.27
2020 ,41.66,50.16,44.73,47.71,44.97,37.73,46.63,46.03,47.49,62.63,39.42,52.17,38.79,50.84,70.51,86.69,52.46,51.14,46.4,38.94,56.28,74.29,56.59,75.11,72.5,97.38,68.59,83.48,97.14,91.68,73.6,64.64,73.55,74.78,112.09,92.05,78.09,87.85,66.5,97.91,94.28,72.16,68.67,51.94,56.21,88.26,78.2,98.88,72.48,88.67,89.92,77.64,70.43,59.94,68.0,68.22,45.7,70.17,45.64,56.61,47.8,59.81,75.51,47.78,52.48,64.04,59.15,54.87,56.68,55.44,68.46,75.97,76.63,73.38,107.57,22.68,62.58,115.81,117.33
