,Abra,Apayao,Benguet,Ifugao,Kalinga,MountainProvince,IlocosNorte,IlocosSur,LaUnion,Pangasinan,Cagayan,Isabela,NuevaVizcaya,Quirino,Aurora,Bataan,Bulacan,NuevaEcija,Pampanga,Tarlac,Zambales,Batangas,Cavite,Laguna,Quezon,Marinduque,OccidentalMindoro,OrientalMindoro,Palawan,Romblon,Albay,CamarinesNorte,CamarinesSur,Masbate,Sorsogon,Aklan,Antique,Capiz,Guimaras,Iloilo,NegrosOccidental,Bohol,Cebu,NegrosOriental,Siquijor,Biliran,EasternSamar,Leyte,NorthernSamar,Samar,SouthernLeyte,ZamboangadelNorte,ZamboangadelSur,CityofZamboanga,Bukidnon,LanaodelNorte,MisamisOccidental,MisamisOriental,DavaodeOro,DavaodelNorte,DavaodelSur,DavaoOriental,CityofDavao,Cotabato,Sarangani,SultanKudarat,SouthCotabato,AgusandelNorte,AgusandelSur,SurigaodelNorte,Basilan,Maguindanao,Sulu,TawiTawi
1990 ,119.71,128.15,47.21,59.81,61.97,64.84,54.3,57.43,53.93,48.11,51.26,56.14,53.78,61.23,132.82,53.69,53.36,49.82,48.53,45.11,55.62,53.29,54.36,51.21,52.13,57.54,57.87,57.88,62.82,59.57,57.03,55.82,52.39,63.64,111.44,52.43,47.38,50.92,122.35,47.38,51.68,53.43,46.87,54.09,122.45,117.18,59.43,54.15,113.92,63.96,114.33,58.05,52.68,49.74,57.34,50.0,47.36,50.39,125.54,50.48,55.81,110.93,48.49,54.21,105.25,112.06,66.28,55.24,56.25,57.1,44.94,54.64,108.0,110.26
1991 ,119.71,128.15,64.66,66.93,68.57,73.35,62.55,64.21,65.31,59.51,57.04,62.18,64.68,66.71,132.82,67.08,63.04,62.68,59.76,67.11,66.4,65.99,66.59,62.32,63.97,74.23,64.94,58.64,75.11,62.5,61.17,67.32,60.07,73.63,66.62,59.9,58.28,57.99,122.35,57.88,62.75,59.83,53.59,69.36,122.45,117.18,68.74,61.58,77.19,69.15,114.33,69.42,58.54,57.37,66.35,57.7,55.76,61.73,125.54,60.66,60.83,110.93,58.07,56.97,105.25,112.06,67.79,68.75,72.25,65.93,65.9,61.74,108.0,110.26
1992 ,119.71,128.15,66.91,74.4,79.04,86.26,69.39,80.47,72.19,67.92,64.84,70.47,70.51,80.35,132.82,70.41,69.25,65.87,62.69,69.97,73.44,78.75,74.25,66.39,70.77,90.17,78.25,66.58,67.83,134.34,59.54,78.91,67.8,87.94,73.6,61.55,65.55,59.76,122.35,61.62,69.28,65.88,54.31,69.26,122.45,117.18,73.86,67.18,68.77,68.44,114.33,80.0,68.99,66.25,69.82,62.23,62.18,64.5,125.54,63.82,67.24,110.93,60.89,59.08,105.25,75.99,69.18,72.38,68.25,67.15,73.88,75.0,108.0,110.26
1993 ,80.87,128.15,61.89,66.74,79.38,89.94,65.6,77.08,66.1,63.75,65.01,70.94,68.88,80.43,132.82,76.37,64.49,64.46,60.31,61.02,68.17,72.64,71.75,56.96,67.68,92.45,73.72,62.48,68.73,134.34,104.44,77.89,65.87,84.35,111.44,66.41,63.48,62.28,122.35,59.71,67.1,63.65,56.07,68.89,122.45,117.18,88.22,63.4,80.0,69.76,114.33,77.11,70.11,63.95,101.0,65.9,65.0,59.0,125.54,62.73,62.76,110.93,57.39,104.57,105.25,76.46,62.25,69.57,66.81,67.92,74.19,69.61,78.2,110.26
1994 ,80.3,128.15,65.87,73.64,81.11,94.24,69.84,77.1,72.6,65.54,67.09,70.23,73.38,79.66,132.82,76.98,67.4,64.79,63.45,66.78,72.35,77.01,74.23,65.73,69.43,92.39,77.54,67.37,73.18,134.34,77.07,76.13,71.03,87.68,76.28,67.77,63.58,63.27,122.35,62.28,67.11,69.19,63.71,68.44,122.45,117.18,89.85,69.76,80.0,74.48,114.33,80.13,71.59,66.51,101.0,65.65,63.37,64.66,125.54,67.22,64.69,110.93,65.0,68.32,105.25,83.49,64.85,69.36,69.11,66.89,71.1,74.24,75.0,110.26
1995 ,79.48,128.15,65.03,79.19,80.89,91.74,69.3,75.97,81.81,72.26,65.76,69.97,73.94,76.98,132.82,77.25,66.77,63.66,64.67,69.61,76.94,81.36,80.81,75.25,71.65,88.94,78.29,69.53,71.05,134.34,73.57,75.0,69.59,89.0,76.37,67.11,71.07,60.49,122.35,61.67,64.88,76.07,65.35,67.76,122.45,117.18,86.92,66.16,80.79,72.67,114.33,78.94,69.35,63.07,73.68,62.85,61.58,62.99,125.54,62.47,59.32,110.93,62.07,67.61,105.25,85.97,67.53,69.54,66.72,64.24,64.8,68.22,79.35,110.26
1996 ,77.56,128.15,62.79,79.1,80.78,91.71,70.0,75.85,79.53,70.28,65.71,71.6,74.62,78.2,132.82,75.89,64.29,69.69,60.67,65.01,74.19,80.56,74.55,68.66,69.4,90.69,83.21,70.32,74.45,134.34,74.16,75.0,68.87,87.91,76.6,66.51,77.94,57.24,64.25,61.29,63.45,87.63,64.94,66.88,122.45,79.88,75.64,62.62,80.83,67.08,68.57,66.98,60.87,59.89,72.12,64.15,62.54,60.57,125.54,56.7,57.7,77.13,61.29,67.08,62.68,69.57,67.85,60.58,64.25,59.48,62.63,66.34,71.34,110.26
1997 ,80.0,71.35,66.73,80.02,79.99,89.2,72.29,75.97,77.5,71.2,70.35,71.07,74.23,80.22,81.33,78.91,64.8,66.52,65.39,67.63,76.0,83.41,77.16,72.61,70.71,81.81,83.05,74.1,80.4,81.41,79.74,75.0,68.32,86.47,78.88,65.02,65.26,56.88,65.29,60.57,63.89,70.05,64.83,66.17,122.45,80.0,74.32,63.77,79.47,68.46,70.2,64.14,60.02,62.36,67.34,63.03,60.1,61.23,125.54,57.96,60.65,74.45,62.03,63.78,62.2,68.14,65.33,62.13,63.98,60.53,64.19,65.13,68.38,64.19
1998 ,87.19,89.77,80.3,76.39,87.41,100.7,84.52,85.46,88.22,82.37,86.9,79.89,80.75,86.01,96.4,90.99,74.09,78.6,77.06,78.95,85.15,90.88,87.54,81.68,82.59,91.32,83.08,83.26,81.22,134.34,82.0,84.92,79.19,86.06,91.53,74.22,75.79,68.6,74.5,73.36,73.07,74.03,69.77,72.88,95.0,86.15,81.39,73.07,78.31,74.04,75.63,72.2,67.96,71.13,72.61,68.15,68.03,69.9,125.54,69.04,71.31,72.68,69.8,69.44,70.19,73.5,68.04,67.75,72.54,68.92,75.34,71.41,75.68,73.09
1999 ,98.62,99.68,82.02,91.99,93.81,111.11,90.74,91.05,91.19,87.09,89.67,90.04,90.02,90.66,105.75,89.95,71.24,77.91,77.59,81.29,90.37,92.59,87.58,81.44,84.22,99.24,100.34,84.58,91.19,134.34,83.66,92.76,84.36,92.71,99.13,83.17,79.95,76.43,83.23,80.37,82.14,86.7,79.13,78.53,95.0,90.0,88.93,80.44,84.83,83.59,84.19,75.13,74.18,75.36,78.91,72.26,73.78,77.9,125.54,75.1,77.83,82.27,74.71,79.52,73.02,79.74,80.64,77.12,79.89,78.03,82.8,78.5,80.0,81.22
2000 ,97.22,96.77,83.43,89.78,90.55,113.14,90.46,90.11,88.33,86.45,80.89,89.0,86.73,90.16,99.82,90.83,72.77,77.33,78.07,78.0,89.52,91.5,85.14,80.48,80.8,99.1,86.29,86.55,95.19,94.5,80.83,88.04,81.06,90.0,88.85,73.89,72.44,68.38,78.94,69.67,76.33,85.0,76.46,85.31,94.13,90.06,94.55,76.38,82.41,80.32,83.7,75.26,70.3,71.63,77.32,67.87,70.14,71.99,125.54,73.48,75.79,75.46,73.08,74.74,70.65,84.06,82.8,70.51,78.21,75.09,79.33,77.9,79.67,78.18
2001 ,104.89,96.82,95.89,100.0,99.75,116.66,98.08,96.11,95.29,93.49,96.17,94.64,94.34,93.79,107.3,100.0,82.04,87.99,93.29,88.75,99.73,97.54,96.55,90.29,91.51,111.01,88.26,93.12,94.71,134.34,94.38,96.58,92.78,90.0,100.0,87.48,82.56,80.76,87.27,82.65,84.21,97.04,83.93,85.46,94.5,95.25,96.63,78.85,90.06,83.4,86.53,80.0,78.43,75.83,80.0,72.23,76.65,79.61,125.54,79.28,84.5,80.28,81.11,80.0,77.56,83.77,75.4,81.25,84.43,80.02,81.23,77.53,79.74,85.33
2002 ,101.77,98.43,94.94,100.0,99.61,111.88,100.0,100.43,97.97,91.85,89.69,92.1,88.78,90.53,106.84,98.33,74.4,81.22,84.5,81.02,98.37,92.52,90.21,85.5,87.58,108.02,100.0,99.74,98.9,134.34,83.85,96.26,87.36,94.61,100.04,84.71,80.35,78.1,89.92,78.65,78.14,96.82,81.14,85.0,95.0,94.79,96.89,77.94,89.76,81.97,86.73,80.0,78.9,72.35,79.88,73.71,78.0,77.68,84.55,75.27,83.36,80.54,78.01,80.0,76.82,84.02,74.84,81.93,82.74,82.41,84.02,77.05,81.54,82.61
2003 ,98.6,101.25,95.32,100.0,101.77,109.32,98.41,101.0,99.82,94.45,90.06,97.78,90.22,91.36,108.59,104.58,81.33,83.97,87.58,84.42,98.06,95.76,93.4,88.67,86.8,108.26,105.06,98.42,100.23,134.34,82.98,94.98,84.84,95.28,99.41,80.77,81.59,79.0,91.09,78.3,79.51,95.43,83.24,84.77,95.0,96.44,94.23,81.36,92.37,82.82,90.1,83.27,80.45,78.68,79.48,75.87,80.74,76.27,85.14,82.09,83.05,82.91,82.53,84.59,80.02,84.17,76.47,76.06,84.39,87.34,87.88,82.84,84.41,86.2
2004 ,118.89,120.27,108.31,122.12,119.47,124.06,115.45,111.89,108.62,105.17,103.58,106.78,102.3,108.34,119.93,116.81,90.06,97.9,96.05,94.01,111.06,112.11,105.79,102.26,95.21,120.94,117.4,104.83,113.39,134.34,101.94,113.26,97.84,119.02,107.18,97.76,93.91,92.27,111.98,90.4,94.62,120.46,95.18,100.75,106.35,121.54,108.56,93.47,109.37,90.97,109.29,99.23,92.21,89.18,91.72,92.13,99.76,87.05,99.57,96.57,98.53,97.93,99.13,104.52,92.67,102.06,99.5,95.11,100.65,104.07,92.76,103.22,97.81,91.47
2005 ,120.17,118.34,114.48,129.72,121.22,120.44,126.97,117.71,110.43,104.35,106.68,106.22,102.11,109.98,124.97,119.73,90.57,99.57,99.3,97.29,116.77,119.19,108.91,105.39,98.64,119.41,122.99,102.36,119.94,134.34,100.99,108.1,102.83,120.06,106.74,97.63,102.56,93.59,117.42,93.0,95.67,114.33,98.96,99.1,112.52,101.34,106.72,97.84,115.48,96.6,110.5,98.55,92.82,92.94,95.45,91.74,100.44,89.72,102.76,97.55,97.68,96.26,99.49,99.36,90.88,108.31,101.49,93.14,98.74,98.93,96.79,100.18,98.93,94.48
2006 ,120.99,121.69,110.97,130.0,122.78,123.82,128.83,120.0,108.46,106.1,105.63,106.49,103.99,111.76,122.11,113.19,94.44,102.88,101.95,100.4,115.01,119.38,111.29,108.0,101.08,120.64,128.4,106.59,119.61,115.09,103.57,103.69,102.29,130.13,109.06,99.11,110.35,98.56,120.0,99.45,102.09,118.89,102.19,111.3,111.72,106.27,113.02,103.75,120.27,103.39,112.73,113.29,102.49,93.78,98.43,97.66,96.5,94.04,108.16,98.48,98.05,97.77,102.87,100.4,93.46,120.68,101.84,97.23,103.33,105.41,98.16,101.7,121.54,96.53
2007 ,124.51,127.17,122.21,130.0,126.21,124.69,126.65,120.0,112.86,112.44,110.85,113.95,115.12,120.24,128.68,122.21,100.43,110.79,109.87,105.54,121.3,121.44,118.2,115.91,106.09,128.63,135.11,112.77,132.45,122.16,113.1,111.34,111.41,133.43,113.39,103.1,113.86,100.02,120.34,102.83,104.75,103.46,104.39,111.83,106.78,105.39,118.19,106.32,126.61,106.65,114.53,117.4,106.38,97.48,100.58,105.33,103.42,100.52,113.21,103.84,100.37,104.66,111.26,112.23,103.06,127.03,100.69,111.56,111.53,112.36,110.26,112.34,127.75,101.69
2008 ,128.71,136.21,137.3,137.36,139.31,135.35,134.71,131.13,120.42,118.81,125.73,119.29,121.77,125.67,136.99,130.0,103.52,118.35,121.46,116.13,133.62,129.34,126.25,124.25,117.89,146.28,159.82,121.77,138.84,132.66,123.12,121.36,119.24,134.24,120.84,118.35,126.29,109.48,134.05,114.87,117.49,120.0,117.46,117.99,117.7,133.81,121.53,113.81,136.71,111.97,121.09,121.04,114.0,102.68,108.94,113.86,114.01,107.31,120.26,111.16,109.33,111.03,114.76,125.45,114.07,126.84,116.09,118.92,121.45,118.68,114.22,117.29,138.49,115.15
2009 ,136.34,143.68,151.79,140.67,142.38,144.13,142.27,139.23,129.09,126.57,132.57,129.06,129.1,122.6,144.33,138.18,115.86,126.97,138.08,126.25,141.54,137.82,133.79,132.16,122.6,150.19,161.83,129.15,145.67,141.84,131.41,124.03,120.24,142.14,125.79,125.85,128.8,118.44,140.64,121.37,121.43,103.46,120.51,122.72,126.55,130.68,125.05,119.26,140.16,115.49,120.36,126.08,121.45,110.47,120.81,116.71,117.24,111.87,122.84,120.45,113.49,120.56,121.62,128.97,121.7,129.85,121.24,121.53,125.82,123.56,119.22,123.18,135.25,116.6
2010 ,141.43,143.76,153.17,150.0,147.58,142.45,139.21,151.72,122.63,128.85,128.77,125.7,134.54,132.83,157.78,140.44,106.85,124.29,132.8,122.4,137.36,144.66,134.4,131.99,121.05,154.59,169.34,134.08,149.5,151.53,124.35,119.81,114.55,152.26,123.16,123.04,124.01,112.25,135.64,119.97,120.46,124.68,120.41,115.15,127.61,121.41,123.73,118.46,140.89,110.93,117.63,132.28,125.78,110.51,118.79,122.78,127.48,115.66,135.74,122.11,126.56,129.68,125.85,131.88,126.45,137.8,132.82,127.56,130.58,135.86,122.61,133.61,139.28,128.8
2011 ,140.39,141.49,156.73,141.62,146.25,139.85,139.86,151.51,131.85,130.96,129.8,126.12,127.85,122.48,149.47,140.46,109.29,122.46,129.84,124.12,139.42,142.19,136.91,128.5,120.88,153.38,156.56,138.74,146.03,146.86,120.78,118.86,116.51,149.42,121.22,119.77,125.29,116.44,140.0,119.22,117.98,117.3,117.24,116.84,128.56,121.07,118.19,115.39,128.52,109.81,116.7,130.0,118.3,113.92,113.89,120.23,123.94,112.01,131.29,117.85,125.63,126.56,124.11,131.58,121.06,130.0,139.16,119.38,121.92,127.92,125.98,124.53,131.3,125.51
2012 ,140.08,149.13,155.93,139.31,141.87,141.61,139.55,151.0,129.37,128.84,129.33,127.03,128.01,127.61,147.68,140.2,110.1,124.0,128.7,124.07,139.49,141.52,136.66,128.28,120.01,149.95,151.76,138.82,144.25,150.0,124.15,122.77,118.45,149.83,125.78,117.31,121.74,119.14,140.69,118.43,119.09,114.97,117.2,117.12,132.29,117.78,123.8,120.79,131.57,118.96,122.29,130.26,119.26,115.76,119.87,121.81,125.24,113.57,128.16,116.4,125.93,122.24,126.08,131.48,120.32,130.0,140.0,118.29,129.7,126.31,130.22,128.0,128.52,128.65
2013 ,140.0,147.15,146.39,148.7,150.0,145.31,139.99,153.08,131.11,130.56,133.45,127.93,129.69,127.37,156.57,140.16,106.78,121.77,130.39,121.95,139.96,144.85,137.96,127.75,121.21,149.04,159.84,139.69,143.61,154.72,127.51,125.73,120.04,150.26,130.26,124.94,125.64,123.04,144.8,126.11,121.54,116.23,119.72,120.32,127.3,123.92,131.58,128.16,134.53,123.01,126.57,136.58,121.49,116.51,120.16,121.94,130.11,114.39,132.5,116.83,126.66,122.64,124.38,131.13,120.73,135.74,136.6,118.99,126.24,125.5,133.34,131.87,134.73,128.49
2014 ,142.69,147.9,142.53,146.86,152.54,151.71,141.95,154.01,136.36,138.93,138.68,131.69,135.39,129.27,154.1,148.81,122.74,131.88,139.62,131.42,141.77,152.63,146.24,134.68,130.2,153.69,156.07,142.66,159.11,152.68,135.43,135.18,136.41,153.86,138.18,136.75,144.31,138.94,160.0,140.91,133.23,126.09,134.88,132.85,142.32,148.98,150.5,142.23,150.36,138.8,143.63,139.56,128.53,127.34,123.29,128.24,133.27,121.12,139.99,128.06,129.08,133.97,127.59,137.25,124.76,135.9,137.81,131.92,132.84,131.95,146.83,133.27,136.81,126.55
2015 ,140.43,143.34,159.82,155.68,151.26,150.3,139.91,153.97,133.98,136.2,135.64,126.86,136.11,127.72,149.14,152.65,113.6,126.77,134.49,128.67,139.15,149.59,141.47,129.75,129.47,159.32,161.29,143.66,154.54,159.84,129.55,126.07,136.61,147.54,132.71,136.38,138.73,130.52,160.0,140.42,132.28,128.84,134.0,128.15,143.82,136.76,137.66,135.3,142.63,128.94,136.72,145.34,134.3,128.53,131.95,134.55,138.87,125.77,139.2,130.78,130.95,140.0,132.53,140.0,129.83,146.29,132.49,135.87,135.67,131.03,144.12,135.83,140.86,127.24
2016 ,140.0,144.77,166.33,150.29,151.95,146.38,140.0,154.33,144.1,138.53,137.35,130.76,133.38,130.0,150.01,142.38,114.27,134.41,139.08,132.05,139.93,153.15,142.72,135.78,135.01,157.54,163.57,146.12,151.01,160.0,130.74,130.28,135.89,145.28,135.44,138.36,140.07,131.94,158.95,138.83,134.02,132.58,139.11,133.15,144.22,136.69,138.72,139.2,145.8,135.68,145.17,151.14,139.09,132.52,131.68,137.15,142.12,127.38,140.51,135.35,132.27,143.43,135.19,140.27,134.51,145.05,139.49,138.97,139.77,133.75,148.08,136.94,108.0,133.53
2017 ,146.86,153.31,174.82,155.35,154.42,154.23,143.24,159.26,139.92,141.83,145.81,140.32,140.13,131.35,153.64,149.65,119.41,129.56,142.79,132.47,139.31,154.93,156.82,141.3,141.01,159.02,161.5,156.19,150.73,160.0,142.75,138.49,147.97,141.19,147.62,141.21,145.61,133.89,160.0,141.81,137.32,136.12,142.92,137.11,151.03,146.37,140.31,142.31,150.36,139.99,144.16,160.31,137.73,136.7,134.24,141.98,147.27,129.41,141.24,137.69,140.05,142.0,140.37,140.4,136.3,148.63,140.23,143.72,140.03,140.5,155.54,142.59,108.0,134.41
2018 ,151.51,159.62,190.0,159.88,159.15,157.9,156.53,160.09,143.52,150.21,156.97,146.24,148.79,140.0,154.88,158.95,129.31,140.65,155.43,136.33,150.11,161.12,169.75,146.2,152.62,170.0,164.44,168.87,153.13,168.97,145.76,149.28,157.88,158.94,153.71,148.28,150.07,143.5,160.0,147.09,145.75,146.82,148.06,142.84,161.6,155.76,148.01,147.99,160.05,146.21,154.18,169.81,155.28,147.88,144.66,149.63,156.98,141.65,154.05,143.78,147.94,155.26,152.06,152.07,143.3,157.21,144.63,153.5,151.15,151.61,171.5,155.99,108.0,137.92
2019 ,161.88,160.35,194.03,166.47,161.65,170.33,162.44,167.84,155.31,153.45,156.9,151.27,153.26,150.0,164.15,160.79,137.46,154.03,161.02,140.36,157.05,170.04,181.92,155.94,161.89,171.03,161.68,171.36,156.35,170.53,143.01,143.88,156.01,156.18,154.82,148.41,150.0,146.21,159.86,146.97,147.8,149.3,142.34,136.76,150.26,154.39,146.9,147.78,158.22,148.48,155.65,167.15,153.82,140.63,149.55,151.73,161.27,141.56,151.49,149.87,147.5,155.96,152.52,154.88,144.97,159.6,145.7,153.24,146.87,154.11,161.02,155.97,148.28,155.16
2020 ,170.6,163.26,190.0,168.49,167.2,173.65,164.63,182.79,147.12,163.35,157.26,148.04,155.13,142.41,167.13,155.64,126.12,138.38,152.13,131.79,155.76,171.64,176.07,155.3,163.75,167.5,158.93,176.77,158.58,167.53,145.15,145.12,169.54,151.25,158.69,148.85,150.1,138.39,160.01,143.04,145.91,152.87,145.54,139.72,157.1,154.85,153.02,144.4,161.3,150.3,161.35,168.04,155.77,138.61,150.02,153.97,168.88,143.84,154.65,145.96,143.37,147.64,154.18,170.0,140.01,160.0,151.42,161.46,148.13,154.86,153.31,178.75,167.08,153.25
