,Abra,Apayao,Benguet,Ifugao,Kalinga,MountainProvince,IlocosNorte,IlocosSur,LaUnion,Pangasinan,Cagayan,Isabela,NuevaVizcaya,Quirino,Aurora,Bataan,Bulacan,NuevaEcija,Pampanga,Tarlac,Zambales,Batangas,Cavite,Laguna,Quezon,Marinduque,OccidentalMindoro,OrientalMindoro,Palawan,Romblon,Albay,CamarinesNorte,CamarinesSur,Catanduanes,Masbate,Sorsogon,Aklan,Antique,Capiz,Guimaras,Iloilo,NegrosOccidental,Bohol,Cebu,NegrosOriental,Siquijor,Biliran,EasternSamar,Leyte,NorthernSamar,Samar,SouthernLeyte,ZamboangadelNorte,ZamboangadelSur,ZamboangaSibugay,CityofZamboanga,Bukidnon,Camiguin,LanaodelNorte,MisamisOccidental,MisamisOriental,DavaodeOro,DavaodelNorte,DavaodelSur,DavaoOriental,CityofDavao,Cotabato,Sarangani,SultanKudarat,SouthCotabato,AgusandelNorte,AgusandelSur,SurigaodelNorte,SurigaodelSur,Basilan,LanaodelSur,Maguindanao,Sulu,TawiTawi
1990 ,36.87,30.78,18.67,15.11,13.26,14.94,14.02,14.75,14.28,13.44,10.16,10.32,10.25,9.11,34.54,10.8,13.57,11.71,15.21,7.03,13.41,11.98,11.22,12.73,12.75,11.83,16.95,9.25,15.93,11.93,10.31,10.99,10.68,38.39,16.33,11.31,9.99,7.68,10.24,44.29,9.9,8.71,9.38,12.42,11.18,38.39,29.89,10.07,9.9,9.88,9.18,34.45,8.52,5.67,29.88,9.79,6.36,38.67,7.54,7.08,9.86,28.72,7.14,4.84,25.96,8.56,7.67,23.5,19.5,6.05,8.46,7.6,10.13,10.55,11.54,25.35,8.62,11.21,25.23
1991 ,36.87,30.78,19.38,15.35,10.99,17.37,13.98,14.0,14.71,13.75,9.83,11.38,10.36,10.66,34.54,11.41,14.16,12.4,14.99,13.79,14.59,12.76,13.69,14.58,14.37,11.03,18.74,13.17,14.14,11.76,32.5,11.05,11.06,38.39,19.57,10.55,12.31,10.15,8.46,44.29,10.86,9.6,10.3,12.19,11.09,38.39,29.89,13.89,10.83,14.11,12.84,34.45,9.29,7.03,29.88,10.35,9.66,38.67,8.82,8.39,10.86,28.72,9.52,6.07,25.96,10.51,9.11,23.5,19.5,6.56,9.41,10.05,11.42,12.56,13.8,25.35,8.92,12.4,25.23
1992 ,36.87,30.78,19.35,15.31,11.53,17.71,16.26,16.53,15.47,13.48,9.79,10.1,11.42,9.72,34.54,11.07,14.65,10.38,12.79,10.62,14.93,11.98,11.82,12.96,12.44,12.88,17.78,8.31,15.06,11.19,11.11,11.23,11.05,38.39,19.55,11.3,11.95,10.47,8.18,44.29,10.69,9.59,10.01,12.22,10.94,38.39,29.89,11.13,9.16,13.45,11.12,34.45,9.43,6.93,29.88,11.73,11.65,38.67,7.69,8.97,11.67,28.72,7.65,6.01,25.96,9.3,9.19,23.5,8.66,7.32,8.65,7.86,10.27,9.28,12.85,8.06,9.7,12.2,25.23
1993 ,13.31,30.78,16.63,19.02,15.68,17.24,13.69,12.96,15.38,17.0,11.15,15.93,15.18,15.43,34.54,11.83,15.55,32.56,32.99,12.72,18.23,13.31,13.31,11.65,16.21,11.48,21.15,10.8,13.49,14.4,32.5,12.69,11.39,38.39,18.58,11.19,12.94,12.13,11.58,44.29,13.88,11.11,10.65,12.26,10.68,38.39,29.89,12.04,8.05,12.09,11.0,34.45,8.08,7.04,29.88,10.68,11.94,38.67,8.56,9.52,11.42,28.72,7.79,5.84,25.96,11.09,7.93,23.5,8.49,6.23,9.56,8.61,11.79,9.43,11.34,8.76,9.08,12.33,25.23
1994 ,15.19,30.78,18.48,21.05,12.51,14.52,19.73,16.46,16.91,14.61,11.43,12.04,13.76,12.52,34.54,13.83,18.21,14.51,18.25,13.32,19.06,16.48,17.34,13.1,15.44,17.05,23.51,14.0,16.56,16.48,14.28,14.71,13.54,38.39,20.79,17.32,15.94,15.13,11.57,44.29,21.04,14.7,13.62,15.39,13.19,38.39,29.89,17.46,14.14,15.42,16.95,34.45,10.7,9.14,29.88,15.39,11.89,38.67,12.12,13.07,13.65,28.72,10.75,7.87,25.96,13.52,10.09,23.5,10.07,5.3,13.42,11.43,14.69,12.03,13.84,12.08,10.97,13.08,25.23
1995 ,12.47,30.78,23.31,20.2,14.5,20.11,17.17,16.64,16.88,15.08,11.17,16.11,17.15,15.62,34.54,15.18,18.96,17.56,19.58,16.22,22.43,20.49,21.93,20.49,18.18,19.84,18.24,14.44,12.65,19.12,18.93,19.75,17.99,18.26,25.07,25.27,15.6,19.28,13.5,44.29,19.41,20.11,12.11,14.48,15.42,38.39,29.89,18.54,14.68,15.62,15.57,34.45,11.62,8.81,29.88,14.02,11.04,38.67,11.94,12.68,13.71,28.72,11.76,9.03,25.96,13.21,10.28,10.83,10.53,6.36,9.2,8.96,15.06,14.92,14.41,12.93,11.91,13.69,25.23
1996 ,18.87,30.78,29.35,22.25,18.32,20.88,22.98,20.91,21.85,17.5,17.9,18.29,18.21,18.5,34.54,18.62,19.71,16.09,18.62,15.11,23.46,21.36,23.68,18.58,18.27,26.28,23.96,18.67,17.35,17.99,24.06,18.98,15.56,23.92,26.67,23.14,26.11,23.71,21.32,19.86,25.93,27.24,15.54,16.48,20.71,20.87,20.83,26.94,19.76,21.37,20.98,15.85,18.2,13.81,29.88,16.58,13.13,19.27,15.33,16.39,15.26,28.72,12.86,10.83,16.44,15.17,13.66,15.29,10.89,5.15,16.79,12.77,19.05,17.08,16.2,17.03,16.79,18.27,25.94
1997 ,15.66,11.58,28.55,23.27,17.24,20.99,20.37,17.18,18.47,16.68,12.54,19.2,15.91,14.96,17.38,18.67,20.2,17.07,20.73,16.25,23.36,20.39,24.29,17.21,16.7,15.41,27.18,15.33,19.75,21.52,12.28,13.83,14.98,20.6,24.04,20.61,20.41,23.27,21.84,21.03,25.87,23.43,14.48,14.59,18.9,20.75,18.19,18.25,15.31,15.14,17.42,16.85,15.94,11.55,29.88,14.65,13.54,20.65,12.19,14.53,16.15,28.72,13.5,10.72,18.12,15.07,10.78,15.88,12.5,5.01,16.48,12.18,17.96,16.44,15.01,23.43,14.48,25.52,26.57
1998 ,19.69,27.19,36.01,22.88,20.84,21.88,24.05,20.37,23.6,19.65,19.04,24.45,16.66,15.49,23.41,17.73,22.54,20.09,21.35,19.59,26.19,20.2,29.99,18.84,20.59,21.9,16.72,17.29,24.4,21.89,17.99,19.22,17.83,25.33,22.5,22.7,19.3,15.89,18.28,20.42,26.87,23.54,13.99,16.63,19.48,20.17,18.08,16.09,15.03,16.0,19.17,16.03,16.16,13.03,29.88,14.59,13.64,21.49,13.27,14.22,17.09,28.72,12.26,12.82,16.93,17.1,14.52,17.72,14.06,6.37,15.35,9.95,16.99,16.85,18.42,24.41,15.62,24.36,22.48
1999 ,27.16,23.77,34.32,28.12,24.92,30.48,26.57,26.28,28.29,24.72,20.08,21.83,24.93,20.06,23.28,26.3,29.02,24.63,28.91,25.7,33.9,22.25,34.6,23.74,25.92,25.29,17.74,21.33,25.05,31.84,19.49,23.88,20.89,29.86,21.76,27.58,25.36,22.22,27.08,25.71,36.83,25.07,15.22,18.6,15.96,20.03,22.92,25.2,25.42,24.17,24.69,18.2,17.05,14.15,29.88,17.22,13.01,20.75,14.01,15.77,16.79,28.72,15.03,11.14,17.26,17.84,12.85,16.68,10.96,9.62,18.84,16.26,21.91,21.14,19.75,21.0,14.07,21.66,27.61
2000 ,27.86,22.47,32.43,31.19,22.76,35.57,31.11,27.42,27.66,26.07,19.12,23.14,24.23,19.27,24.24,27.33,31.83,24.45,32.67,24.69,34.75,26.08,35.11,24.26,24.0,28.26,19.84,20.69,24.37,32.69,24.98,22.86,22.74,32.88,30.55,30.61,26.77,24.19,22.84,27.46,33.13,25.21,17.45,19.04,24.57,21.52,22.69,22.39,22.75,22.36,23.45,19.2,17.11,12.62,29.88,17.26,12.53,20.66,15.45,14.46,16.63,28.72,14.83,12.61,17.19,18.25,11.64,16.69,13.68,9.91,18.24,14.51,20.86,17.02,19.29,21.83,16.24,19.37,29.29
2001 ,30.13,28.66,28.19,28.45,23.44,36.74,33.71,30.8,28.89,26.2,20.59,22.3,23.66,19.98,19.97,24.78,30.49,26.72,30.8,22.29,32.56,26.54,32.5,25.97,26.64,26.82,22.12,25.62,25.17,34.23,24.64,23.46,22.68,29.94,33.24,28.84,30.54,32.76,26.93,30.51,42.28,29.14,18.52,20.42,20.12,24.28,26.26,21.92,22.59,22.45,26.88,22.42,18.78,14.46,29.88,18.03,13.72,22.07,13.78,15.22,17.82,28.72,12.09,11.69,17.73,16.9,11.88,16.16,13.71,9.88,15.81,14.13,22.5,19.91,19.18,22.95,15.57,18.23,28.76
2002 ,18.36,15.26,24.41,26.23,20.7,34.12,23.36,21.53,23.24,21.21,15.33,21.65,19.93,16.4,19.21,20.72,27.4,25.98,24.69,22.87,30.04,25.31,27.42,24.19,23.29,21.3,24.62,15.2,27.28,28.11,20.18,21.18,20.36,26.47,33.78,24.25,30.1,27.44,24.93,28.52,37.37,25.49,16.61,21.08,22.25,22.81,24.27,21.31,18.94,20.71,20.97,21.16,18.91,14.74,29.88,18.52,15.61,23.21,14.28,14.9,18.45,12.03,15.19,13.19,17.87,18.6,14.85,18.01,18.53,9.93,18.37,14.28,23.39,21.24,18.49,21.57,12.7,27.09,29.01
2003 ,22.57,20.01,32.07,28.69,21.46,34.13,24.44,18.83,22.56,23.11,18.3,25.23,21.96,22.22,18.97,24.55,25.0,30.75,26.58,21.53,30.96,27.33,27.73,24.83,25.01,23.65,28.46,18.95,28.35,28.54,20.08,18.44,18.91,27.25,31.06,23.74,27.35,27.65,23.3,27.75,34.04,24.28,16.88,23.36,23.1,23.09,22.73,23.74,22.0,23.37,22.83,22.07,19.16,18.43,29.88,19.05,17.44,22.57,17.04,16.15,18.09,17.45,17.4,12.81,16.84,20.25,13.47,17.73,15.58,9.99,16.78,15.06,23.56,20.82,19.27,19.19,16.87,22.68,16.71
2004 ,33.54,25.94,38.36,30.37,25.24,34.4,28.06,23.88,26.53,23.81,20.09,24.97,24.94,23.01,21.29,26.83,28.89,30.59,29.77,24.3,31.42,29.98,31.3,28.41,25.63,24.63,26.56,22.74,31.84,29.61,23.24,19.31,22.24,31.17,32.93,28.58,32.12,28.88,26.74,31.54,33.81,27.02,25.13,24.44,25.54,24.85,22.66,34.7,22.57,27.77,23.35,24.05,21.41,21.31,17.92,19.95,17.26,24.83,21.66,17.99,18.7,21.47,28.22,15.39,19.81,23.47,19.56,20.04,16.06,10.14,21.47,18.61,27.45,24.43,19.51,24.03,18.72,20.13,19.64
2005 ,28.62,22.79,36.28,28.38,24.85,32.01,27.6,21.13,22.99,23.24,20.32,24.51,21.88,19.47,22.67,22.45,24.05,29.4,26.63,22.67,31.65,28.83,29.74,27.92,25.17,25.71,31.47,21.03,32.48,28.24,23.13,21.62,20.58,29.23,32.59,29.76,29.34,25.25,25.54,28.3,30.27,23.11,24.85,23.43,23.32,25.12,12.76,26.63,20.92,24.31,21.35,19.41,19.45,19.03,18.29,19.01,17.81,27.14,18.18,16.82,18.82,19.17,24.36,14.41,18.01,22.17,15.52,19.91,17.43,10.76,21.38,15.56,25.93,24.14,22.94,30.33,17.94,18.89,24.48
2006 ,38.63,26.82,41.49,32.71,31.33,30.56,32.41,26.88,30.85,30.62,23.53,31.74,30.91,25.04,33.98,33.39,34.79,39.35,36.12,31.31,39.66,36.18,35.9,36.29,35.08,32.32,34.34,29.69,37.54,38.7,35.29,25.04,27.01,42.11,40.91,45.36,36.81,31.67,33.97,37.33,40.35,30.68,36.91,26.25,27.18,28.55,13.27,35.86,28.15,38.62,32.17,30.39,22.04,21.14,21.16,22.34,19.94,37.03,22.47,19.06,20.71,24.68,31.63,18.79,20.9,25.57,19.21,20.47,18.83,11.78,27.26,23.32,32.02,32.47,25.25,34.83,20.16,20.85,22.75
2007 ,35.63,23.06,30.45,30.44,27.69,29.42,28.9,27.51,28.39,26.38,19.53,25.46,29.86,18.19,22.46,31.36,28.38,31.73,26.11,24.85,34.87,30.16,29.14,29.05,27.21,26.5,33.71,20.84,43.51,32.76,30.87,17.83,21.96,29.3,41.25,32.65,35.27,27.58,34.12,35.05,36.14,24.48,37.64,27.93,27.64,33.75,13.64,34.52,24.03,32.54,26.53,27.79,24.55,23.65,22.69,23.28,22.16,39.7,22.18,19.62,22.69,24.37,32.87,17.75,24.52,25.52,24.29,22.36,20.2,10.3,24.8,21.89,34.06,31.32,28.62,31.41,25.22,41.91,25.73
2008 ,45.79,34.13,29.97,33.85,33.13,32.66,36.17,31.44,34.15,34.21,26.01,30.35,42.7,25.5,30.48,39.77,33.55,35.97,29.24,30.69,43.09,35.23,33.0,37.72,31.81,33.88,39.53,32.5,51.36,48.94,37.92,29.19,29.89,40.9,51.11,42.66,55.38,51.73,51.19,54.84,55.7,41.18,49.01,34.18,36.49,36.85,23.52,54.97,37.04,47.84,43.47,38.57,29.74,28.0,24.99,33.22,23.97,41.5,31.22,26.65,26.51,24.43,36.73,21.37,26.86,29.14,28.05,25.48,22.13,15.89,33.95,26.78,39.57,36.2,35.85,33.08,27.81,31.88,24.01
2009 ,55.29,32.31,31.75,31.71,30.82,35.43,37.68,34.13,39.22,38.87,25.71,26.75,42.88,23.67,29.59,34.76,34.72,37.5,38.24,31.84,45.12,38.58,35.0,39.25,32.52,30.15,52.26,30.16,49.42,51.65,35.7,26.48,33.29,51.89,52.86,39.95,39.25,34.59,33.32,41.37,42.39,33.69,43.47,30.36,32.84,40.97,24.82,47.91,32.54,36.19,38.54,34.38,26.41,25.56,23.52,27.46,23.85,41.55,27.33,24.37,27.18,27.23,38.78,20.12,26.47,27.12,27.6,21.68,22.95,14.59,35.56,29.18,42.98,34.31,34.95,37.22,23.87,33.28,26.33
2010 ,40.63,27.49,28.04,38.52,25.46,32.35,25.93,26.2,25.29,27.82,18.08,21.4,25.85,17.14,24.73,28.23,22.2,28.44,24.5,22.77,38.82,31.13,27.86,28.53,23.92,31.07,34.62,21.02,43.9,38.1,23.41,19.07,22.59,27.98,45.29,28.25,32.03,24.75,33.01,32.67,35.66,23.87,36.04,29.9,30.41,39.06,23.78,38.24,30.43,32.2,31.2,28.78,26.41,24.04,22.9,26.76,22.91,39.8,25.35,22.86,24.36,25.67,36.9,20.02,24.21,25.32,30.39,21.48,18.7,15.0,34.83,25.15,37.13,35.8,38.29,34.43,22.78,32.31,24.68
2011 ,51.26,41.76,56.87,49.25,40.08,40.8,41.3,36.11,45.54,46.15,31.05,43.34,51.63,39.21,39.55,62.43,46.16,48.62,47.19,39.12,57.06,45.2,44.99,49.59,43.41,35.19,56.15,38.21,54.65,42.23,44.27,41.26,43.48,58.18,60.45,52.64,49.18,39.01,46.73,53.01,54.45,37.76,45.13,33.85,37.81,43.17,31.54,64.59,39.77,49.4,46.79,41.16,34.42,28.12,31.11,35.56,27.15,47.28,36.5,32.76,28.43,37.45,43.35,30.12,38.82,32.57,33.37,27.28,24.13,18.06,46.73,38.99,50.73,45.72,49.69,25.35,28.96,35.85,30.52
2012 ,50.16,35.33,50.3,37.35,38.07,40.39,33.19,33.3,40.75,38.12,26.31,32.45,43.42,28.6,36.09,56.52,42.87,42.21,41.11,29.96,53.1,45.76,39.91,47.01,41.37,38.66,50.81,43.52,55.41,41.59,38.42,45.8,37.9,44.43,56.6,48.59,41.78,31.2,38.0,45.5,42.26,29.97,39.7,28.18,35.09,41.29,35.65,47.09,36.84,46.11,36.74,38.5,34.68,29.37,26.86,32.2,24.69,47.24,33.52,30.34,25.51,31.4,37.5,22.68,33.53,28.25,28.88,25.39,22.9,23.93,33.83,34.27,46.08,41.34,50.08,25.35,27.51,29.31,27.12
2013 ,42.59,33.88,44.46,35.92,37.13,37.98,33.83,31.8,38.57,35.98,22.82,34.56,42.74,31.49,43.36,50.35,38.93,42.62,46.07,27.63,49.01,41.72,36.07,43.77,40.37,41.49,46.1,49.64,55.73,44.38,38.04,37.84,35.62,40.83,61.58,49.54,46.49,38.7,41.36,50.69,45.51,33.75,40.34,31.44,36.15,42.42,37.99,52.82,41.01,46.55,39.04,40.5,34.3,29.27,28.14,35.22,29.36,48.21,40.56,30.42,27.48,33.12,40.91,22.36,34.36,28.57,36.16,28.01,22.43,21.33,38.02,34.16,47.43,40.96,49.06,25.35,31.39,28.34,22.12
2014 ,48.14,33.43,45.39,37.1,39.65,41.63,36.85,38.77,39.24,41.0,28.69,33.24,40.98,36.17,41.33,55.28,44.93,46.83,44.33,32.49,47.29,44.53,43.03,43.28,45.8,43.39,58.22,48.76,51.52,47.97,47.14,40.98,47.29,43.01,68.24,58.73,50.05,49.09,45.28,53.36,53.55,33.8,41.38,33.04,37.91,47.67,51.28,59.63,43.46,54.19,47.13,44.51,39.02,38.39,30.79,34.5,33.13,50.62,47.63,33.02,33.1,29.92,44.26,23.82,32.95,31.25,35.19,29.78,22.64,22.33,41.32,32.31,48.61,39.6,48.76,32.84,30.33,28.73,25.98
2015 ,46.27,38.95,56.86,37.01,42.4,55.45,41.61,41.57,51.31,47.69,31.78,33.63,42.6,37.56,47.87,46.06,46.48,52.58,50.28,32.54,53.05,44.59,40.3,41.8,43.37,47.24,39.93,49.8,57.52,51.13,44.68,46.67,48.58,43.25,63.45,53.3,51.32,46.11,47.71,57.16,55.42,38.16,49.7,39.74,42.14,50.87,45.85,50.97,44.39,49.91,43.45,45.86,40.06,38.99,38.63,34.12,35.72,56.85,48.28,31.77,32.69,42.1,31.77,34.54,33.45,26.52,37.71,29.89,24.02,27.98,44.31,36.46,48.31,43.98,47.68,42.56,30.85,43.34,28.55
2016 ,61.15,41.42,64.32,49.11,47.33,68.96,46.28,46.0,51.14,46.48,39.45,38.14,44.36,47.2,52.24,55.45,50.64,50.84,45.03,37.98,43.76,48.93,43.57,47.98,49.56,52.04,30.57,54.83,65.96,53.25,47.19,45.81,50.63,40.92,56.21,50.84,49.52,47.34,47.99,56.35,57.68,39.39,47.18,37.07,44.93,50.52,32.24,52.75,36.34,54.67,45.83,45.69,42.73,32.0,31.44,39.01,33.49,56.22,46.18,32.74,35.85,29.94,40.04,28.97,29.8,39.44,38.22,29.32,25.85,28.28,40.88,32.07,45.15,37.45,46.77,38.29,28.78,83.61,24.57
2017 ,56.05,36.08,55.58,50.8,46.4,61.51,44.55,47.27,46.59,45.08,36.42,38.92,45.08,46.86,52.79,60.44,60.0,45.07,48.98,38.31,48.87,54.47,43.53,52.99,57.39,58.18,37.98,56.43,62.87,65.44,54.39,52.98,51.11,45.66,78.89,56.88,59.31,57.96,57.04,69.07,65.83,48.13,61.11,40.21,49.62,51.62,42.64,66.26,47.49,57.94,52.61,57.94,48.77,38.7,35.28,39.79,36.75,63.6,49.44,39.12,40.86,38.21,52.24,30.47,35.96,42.56,40.12,32.55,29.92,37.24,49.43,47.62,60.09,46.33,46.91,30.85,28.64,49.08,21.46
2018 ,60.65,47.62,74.01,57.37,53.55,70.6,59.02,53.93,52.67,61.74,53.76,50.7,58.29,51.3,63.33,69.5,60.7,56.13,62.16,47.77,64.96,72.1,49.83,61.77,61.54,66.26,47.45,66.19,83.77,70.39,64.64,57.59,58.28,65.04,76.78,71.4,76.53,78.86,65.09,85.48,86.11,58.47,60.25,45.72,56.31,69.62,48.42,74.39,51.3,58.29,59.17,65.45,51.68,35.91,39.12,39.89,37.87,55.74,39.78,41.81,41.12,34.75,51.59,31.88,34.84,46.72,43.4,36.27,34.11,37.61,55.23,42.68,63.37,46.02,49.06,25.35,37.3,40.97,22.53
2019 ,59.7,42.84,53.75,52.22,46.52,72.75,54.33,48.2,45.87,49.91,45.76,49.44,66.2,49.34,56.15,65.44,54.7,55.81,57.65,43.18,60.03,68.13,51.23,57.82,58.39,66.26,43.38,56.83,81.97,74.44,67.37,58.58,58.55,62.13,78.5,74.67,82.83,92.29,85.49,103.34,101.43,84.1,68.16,60.95,64.89,79.53,49.71,63.75,49.98,60.62,61.65,65.82,56.95,40.05,47.51,48.77,45.11,61.19,35.75,49.94,51.57,40.34,66.13,36.99,40.74,57.94,52.37,43.4,41.15,45.63,71.61,52.72,71.85,55.12,63.04,25.35,44.53,40.85,27.14
2020 ,57.08,45.86,51.41,51.52,51.17,73.49,49.11,48.15,46.75,54.3,43.97,44.08,52.79,49.18,64.5,61.29,64.06,50.72,51.26,41.83,54.64,68.41,55.01,62.2,62.37,75.81,58.09,63.7,79.96,66.7,68.6,53.61,66.58,67.48,89.27,78.09,90.06,86.03,79.59,71.02,99.11,77.1,63.39,66.81,61.18,80.42,61.55,60.82,58.51,73.19,57.97,60.57,56.91,45.15,47.69,46.9,39.8,57.65,36.72,44.82,49.49,32.04,50.23,29.13,35.41,45.88,39.32,32.7,34.47,40.03,61.33,43.49,59.89,50.25,61.56,25.35,49.42,41.33,26.7
