,Abra,Apayao,Benguet,Ifugao,Kalinga,MountainProvince,IlocosNorte,IlocosSur,LaUnion,Pangasinan,Cagayan,Isabela,NuevaVizcaya,Quirino,Aurora,Bataan,Bulacan,NuevaEcija,Pampanga,Tarlac,Zambales,Batangas,Cavite,Laguna,Quezon,Marinduque,OccidentalMindoro,OrientalMindoro,Palawan,Romblon,Albay,CamarinesNorte,CamarinesSur,Catanduanes,Masbate,Sorsogon,Aklan,Antique,Capiz,Guimaras,Iloilo,NegrosOccidental,Bohol,Cebu,NegrosOriental,Siquijor,Biliran,EasternSamar,Leyte,NorthernSamar,Samar,SouthernLeyte,ZamboangadelNorte,ZamboangadelSur,ZamboangaSibugay,Bukidnon,Camiguin,LanaodelNorte,MisamisOccidental,MisamisOriental,DavaodeOro,DavaodelNorte,DavaodelSur,DavaoOriental,CityofDavao,Cotabato,Sarangani,SultanKudarat,SouthCotabato,AgusandelNorte,AgusandelSur,SurigaodelNorte,SurigaodelSur,Basilan,Maguindanao,Sulu
1990 ,140.08,131.25,55.32,51.12,50.31,50.62,47.88,43.21,55.46,50.29,50.0,55.88,50.52,51.98,130.85,57.98,51.31,46.84,45.21,125.38,52.3,54.47,45.65,53.46,49.56,49.46,48.25,54.08,45.21,40.0,136.57,46.08,50.78,133.54,45.0,44.46,32.3,45.69,41.01,139.09,42.99,47.62,46.97,49.58,37.45,120.15,133.53,48.81,43.15,42.33,51.35,146.72,39.98,40.15,44.74,38.46,124.06,41.18,40.22,49.06,42.23,135.13,44.06,40.0,123.63,29.99,127.63,111.87,40.11,40.87,35.02,47.89,39.75,40.14,34.38,75.64
1991 ,140.08,131.25,70.37,61.87,59.58,63.67,60.6,50.0,72.47,65.58,56.45,66.32,61.78,58.45,130.85,73.37,67.67,67.03,57.19,65.92,69.53,70.19,53.11,67.13,65.5,50.31,50.0,69.48,50.5,40.86,136.57,55.87,59.13,133.54,53.58,52.1,40.17,56.35,49.73,139.09,50.96,54.7,53.15,56.93,40.01,120.15,133.53,55.42,49.85,45.04,60.62,146.72,45.2,47.02,47.98,45.07,124.06,47.12,47.76,55.07,49.03,135.13,52.41,47.27,123.63,35.72,127.63,111.87,45.08,52.39,40.48,51.23,45.0,42.38,40.87,75.64
1992 ,140.08,131.25,78.33,67.81,65.83,66.06,67.59,50.0,75.0,73.02,64.22,59.88,61.67,59.97,130.85,80.83,72.79,72.6,63.99,70.54,79.35,77.53,72.14,75.63,69.13,63.42,57.01,75.09,63.25,51.96,62.97,62.03,67.69,133.54,62.5,58.31,52.75,60.0,59.79,139.09,58.68,56.8,56.32,65.25,48.51,120.15,133.53,60.0,58.06,47.62,61.75,146.72,49.82,50.0,55.0,55.91,124.06,52.57,55.0,60.36,52.37,135.13,58.85,51.47,123.63,40.0,127.63,47.11,51.65,54.74,44.79,57.19,50.0,49.06,48.33,45.8
1993 ,48.25,131.25,77.94,65.39,70.0,66.0,65.46,55.0,74.44,71.16,63.03,64.05,59.0,60.0,130.85,71.8,69.42,126.9,62.2,68.83,71.44,71.72,66.48,71.96,67.42,60.72,60.0,75.0,59.33,55.0,136.57,61.03,79.09,133.54,61.77,58.0,52.5,60.0,60.0,139.09,58.6,50.59,58.08,67.17,42.66,120.15,133.53,60.0,59.6,60.48,59.5,146.72,50.0,51.67,55.44,63.43,124.06,52.19,55.0,60.36,52.0,135.13,57.1,52.66,123.63,40.0,127.63,48.83,50.22,56.05,44.56,59.96,50.21,48.67,51.87,47.16
1994 ,56.43,131.25,82.94,77.28,76.26,77.19,69.63,59.17,82.11,76.33,70.09,65.56,76.08,66.75,130.85,79.97,79.51,79.52,67.05,68.09,78.32,83.69,73.13,76.25,78.29,66.91,60.0,78.46,58.93,55.26,62.91,64.42,73.33,133.54,65.73,66.92,56.86,67.17,64.58,139.09,67.99,68.06,72.08,70.54,48.0,120.15,133.53,62.24,68.55,60.42,66.47,146.72,61.74,60.19,68.17,65.2,124.06,64.44,64.58,69.1,59.38,135.13,65.66,61.63,123.63,46.96,127.63,53.24,51.84,65.64,46.94,65.52,52.6,48.58,54.46,47.41
1995 ,72.59,131.25,83.06,80.0,79.81,80.0,75.1,62.37,85.0,77.52,71.67,63.18,79.04,70.0,130.85,85.56,80.4,63.06,64.73,61.12,79.83,84.15,74.36,68.47,77.02,74.65,66.53,84.45,56.64,52.18,71.87,70.0,75.0,69.95,79.55,75.16,64.39,70.0,70.83,139.09,68.91,74.92,81.3,84.44,33.59,120.15,133.53,69.44,69.99,67.71,79.5,146.72,70.0,64.65,70.0,66.83,124.06,65.63,70.0,75.78,69.01,135.13,67.59,64.55,123.63,49.17,127.63,62.12,58.0,67.94,65.0,73.18,57.66,51.72,60.0,56.7
1996 ,85.0,131.25,88.85,85.42,79.96,80.0,80.07,66.15,141.99,81.12,74.21,74.58,80.28,73.47,130.85,89.6,89.18,85.7,69.94,80.19,81.86,93.51,82.13,75.09,88.03,75.6,77.12,89.78,63.39,49.17,74.48,76.34,82.61,71.72,82.01,80.45,72.19,76.09,75.68,80.41,74.07,77.78,76.74,87.19,75.61,65.0,75.0,77.9,77.15,70.98,77.52,80.0,71.18,67.35,71.47,70.17,55.29,66.85,73.75,78.91,75.18,135.13,72.86,65.0,74.23,52.38,75.2,66.58,64.44,79.72,67.08,77.53,65.82,61.26,60.5,65.31
1997 ,85.0,73.05,93.72,87.29,80.0,85.46,82.0,66.81,141.99,84.05,80.1,80.82,82.78,74.89,74.53,88.56,92.84,78.88,75.71,85.9,87.25,98.39,101.68,96.28,83.16,82.35,80.0,95.0,77.29,53.33,77.03,77.17,87.66,82.51,81.28,88.33,76.47,80.0,80.0,85.0,78.95,78.45,83.79,93.25,80.0,65.0,75.0,84.57,84.01,66.7,79.31,80.0,74.84,69.98,76.64,74.01,69.94,68.79,80.0,81.32,80.03,135.13,79.39,65.0,69.94,55.0,75.16,70.0,70.14,82.56,70.0,83.16,70.0,64.94,62.31,68.04
1998 ,91.78,77.58,98.07,89.92,80.0,90.0,85.71,72.23,94.01,89.1,82.83,84.87,81.9,75.0,74.82,96.99,93.46,93.29,78.07,88.33,93.37,100.42,105.52,99.08,92.31,89.57,80.14,99.79,81.31,60.0,85.0,84.88,90.0,84.99,80.0,89.86,75.6,79.03,85.94,85.0,80.35,84.05,84.94,95.11,80.28,69.17,80.9,81.42,87.23,69.41,79.94,79.96,76.94,69.98,80.0,73.27,74.66,64.68,80.0,78.66,80.02,135.13,82.51,65.0,70.0,55.0,75.05,70.38,70.03,85.07,70.0,88.19,70.05,71.19,65.0,68.65
1999 ,95.0,74.6,105.65,95.92,88.97,93.27,89.61,72.96,141.99,93.33,89.17,90.76,91.44,85.29,71.19,93.5,97.57,91.5,78.9,93.99,98.43,104.55,110.8,104.27,95.09,90.0,82.0,106.38,81.31,62.5,84.6,84.88,93.73,84.99,82.86,90.0,83.02,83.68,90.0,87.85,86.72,89.14,85.42,98.9,85.21,72.81,78.75,82.96,88.94,75.64,79.02,84.74,80.04,72.92,82.63,70.51,70.21,62.7,83.3,71.66,80.0,135.13,86.93,72.95,73.35,61.96,78.33,76.36,71.17,91.11,74.4,90.86,80.54,75.01,65.04,68.13
2000 ,102.12,80.0,107.18,99.58,90.0,100.0,90.0,72.97,141.99,93.98,97.08,94.87,99.06,90.0,73.43,90.83,96.5,93.44,78.64,92.4,100.83,102.13,110.0,103.07,95.05,98.33,83.16,108.78,88.68,64.31,85.02,88.22,95.0,84.89,88.3,90.0,84.36,88.74,90.0,85.42,88.84,96.92,89.17,99.82,94.92,75.0,78.75,81.34,91.1,75.67,78.66,90.0,84.2,75.57,85.06,68.05,62.5,63.57,80.56,76.01,80.04,135.13,87.25,75.0,75.15,62.94,80.19,80.0,72.56,92.58,80.0,92.56,80.0,76.12,65.75,67.56
2001 ,108.85,80.33,110.91,106.8,90.0,100.0,101.82,76.86,100.81,101.84,105.7,100.21,103.35,90.0,78.31,107.5,104.12,99.22,86.27,100.11,107.98,114.27,118.77,109.14,95.6,100.0,95.66,114.84,90.23,65.0,94.61,97.35,105.3,95.5,96.22,102.9,84.85,87.46,91.36,88.71,91.75,99.7,99.87,104.94,95.0,77.25,78.37,80.97,92.32,76.0,82.71,89.84,89.17,78.95,88.95,67.53,71.97,65.51,83.54,90.58,80.03,135.13,88.65,81.89,77.05,70.52,85.0,80.0,79.11,92.85,89.35,103.0,80.0,79.93,64.33,66.95
2002 ,110.0,80.06,106.8,110.0,90.0,100.0,116.0,78.31,105.62,103.04,99.49,100.0,100.0,90.0,81.0,107.5,102.38,95.76,83.53,99.83,110.0,110.5,120.0,107.59,96.0,100.0,100.0,117.27,92.59,65.0,98.84,100.0,109.45,100.0,100.0,93.4,83.5,86.79,97.2,90.06,90.34,102.08,110.0,105.94,95.0,80.0,83.39,83.59,92.7,75.99,81.71,100.0,90.0,79.77,88.32,75.98,77.32,63.4,85.0,89.86,80.53,83.04,88.43,85.0,80.0,75.0,85.0,80.0,83.76,94.95,90.0,109.59,80.0,79.98,82.0,67.18
2003 ,110.0,80.0,107.08,106.84,90.0,100.0,109.9,78.43,105.57,100.54,99.28,100.0,101.05,90.0,80.2,101.67,100.34,96.56,85.93,101.13,110.23,113.5,120.17,108.78,101.69,110.45,100.0,113.73,95.97,64.93,101.0,100.01,109.11,100.0,100.0,91.55,84.97,86.5,91.54,90.0,89.68,103.24,110.0,105.09,99.56,80.0,85.14,82.64,94.35,80.0,79.63,101.28,88.96,79.96,88.44,76.26,81.83,62.56,85.0,89.56,84.0,65.73,89.05,85.0,76.85,72.5,85.0,87.95,84.77,96.28,97.19,106.35,89.18,78.66,82.0,66.72
2004 ,143.07,115.42,137.33,137.98,127.77,133.57,135.12,99.09,135.41,126.25,129.99,135.97,135.86,129.07,100.63,131.4,124.63,113.31,108.28,126.31,133.92,135.35,125.1,129.19,124.52,129.44,115.04,132.88,111.71,80.43,125.79,123.4,110.0,116.43,114.68,124.65,99.97,110.77,108.1,116.49,113.66,116.3,118.4,129.71,116.49,102.79,96.62,103.27,113.23,90.95,89.37,114.57,107.62,95.79,111.56,87.7,95.84,71.66,102.64,97.05,94.32,91.04,104.44,106.05,113.37,88.9,102.97,111.7,99.26,118.14,118.57,126.38,102.32,85.62,95.39,67.27
2005 ,144.86,130.0,150.38,148.09,137.57,140.0,150.0,109.09,146.99,133.7,129.47,138.57,137.42,140.0,119.08,125.58,130.91,117.66,108.22,131.37,140.0,140.37,137.99,142.54,136.69,131.6,120.0,143.21,122.85,84.61,128.19,128.39,108.35,122.8,120.0,123.88,107.72,113.11,118.45,128.48,120.0,129.32,120.0,132.92,120.0,95.0,119.02,120.0,106.34,114.37,95.64,120.25,115.45,117.71,117.08,95.65,108.76,76.3,110.0,102.06,99.99,95.0,107.54,110.0,120.06,90.0,117.71,119.59,113.41,129.1,118.55,129.81,110.0,110.31,101.35,67.71
2006 ,137.67,129.5,149.17,128.16,130.0,140.0,148.94,112.91,141.16,131.59,120.66,134.6,126.86,138.43,120.0,128.81,125.78,116.9,110.66,129.2,140.0,135.46,139.86,139.94,135.03,120.0,121.9,140.37,119.66,84.98,127.98,130.0,104.0,123.69,120.0,115.57,87.17,110.85,120.41,130.0,120.0,134.38,131.47,131.73,121.83,97.83,119.34,120.0,114.74,119.9,98.17,120.0,126.5,118.41,118.94,97.79,99.54,78.46,118.37,106.18,99.66,95.0,107.9,110.0,120.0,90.0,119.87,117.87,113.66,128.98,125.65,130.0,111.74,118.23,104.09,76.03
2007 ,136.97,129.38,148.18,136.56,130.24,135.25,141.29,110.0,142.28,131.58,120.53,135.62,134.68,130.0,120.11,101.37,127.14,116.13,121.52,128.82,140.0,136.17,142.86,141.33,135.19,121.71,120.23,136.06,119.82,85.0,134.56,130.0,105.19,127.26,125.99,127.31,82.7,109.15,120.0,130.0,118.66,134.64,137.36,134.1,122.8,100.0,119.75,124.13,120.9,132.0,102.55,126.11,133.12,114.68,121.7,98.72,109.52,87.81,120.0,109.21,97.92,93.87,108.03,110.0,125.64,90.0,121.34,118.0,128.05,134.59,129.26,135.7,110.43,121.24,104.06,86.55
2008 ,161.71,131.48,165.07,161.14,140.31,155.36,156.21,119.41,164.33,144.17,154.97,153.15,153.09,145.17,127.71,136.0,144.25,145.44,131.8,150.1,163.78,157.51,152.93,153.62,153.27,163.29,127.13,163.49,147.83,92.67,157.67,154.29,137.85,146.77,146.18,126.19,114.74,137.99,139.06,138.05,135.35,142.75,143.18,143.5,135.45,106.06,134.66,134.97,141.03,134.42,104.01,145.84,144.89,120.89,137.49,122.66,121.89,102.59,127.31,121.61,114.56,111.41,124.54,115.4,138.74,97.98,136.57,123.59,133.25,127.5,135.53,156.65,131.38,156.0,113.11,93.4
2009 ,176.31,149.61,173.44,170.39,150.0,160.04,168.9,126.4,170.25,147.92,167.25,164.79,160.23,150.0,132.88,132.4,146.36,157.14,130.19,154.69,167.35,163.81,162.63,167.59,154.36,174.71,148.64,169.16,164.01,103.53,160.0,160.0,144.64,151.61,156.23,125.47,125.55,154.39,151.41,149.57,150.81,156.65,151.83,157.44,157.74,118.14,165.99,131.87,142.07,133.15,110.75,152.4,156.09,126.11,140.79,139.61,135.51,111.6,131.3,121.05,127.83,119.01,132.43,129.2,137.17,109.01,144.64,135.83,135.15,149.79,143.01,160.31,140.6,156.68,116.31,95.07
2010 ,175.38,157.56,184.2,171.85,150.0,160.0,168.84,129.65,155.86,164.53,167.2,161.27,156.68,150.09,159.93,140.0,163.37,177.28,139.71,170.92,175.22,174.39,167.27,175.13,165.77,176.58,157.68,175.87,165.6,109.08,163.16,161.28,143.29,140.29,169.54,118.31,115.88,152.51,152.94,150.0,156.69,158.08,160.53,170.97,177.13,120.0,173.5,148.42,151.29,157.77,125.72,173.81,177.14,155.7,160.71,145.38,150.02,135.15,158.38,131.59,139.51,140.67,138.9,142.53,141.7,127.23,159.95,154.62,142.15,154.35,160.0,172.34,150.0,169.27,136.32,95.68
2011 ,177.73,160.0,183.1,151.7,150.0,158.95,169.5,123.56,160.27,162.31,155.13,156.83,150.06,150.0,156.54,157.52,161.36,172.48,141.51,166.3,170.0,173.5,170.0,175.32,156.3,176.75,160.0,167.7,165.88,110.05,158.65,165.52,135.35,139.29,170.0,108.68,107.47,153.81,150.0,150.0,157.1,164.0,166.76,172.53,178.15,126.15,166.11,150.0,153.39,170.0,130.09,175.97,178.0,147.03,164.31,143.48,157.98,100.73,163.34,136.41,142.45,145.79,145.5,145.26,147.31,128.39,161.77,154.95,139.33,156.16,159.33,173.15,156.3,178.56,138.0,94.9
2012 ,176.68,160.0,183.99,152.54,150.0,156.27,169.46,123.71,160.39,158.46,154.24,149.6,150.13,150.0,158.19,184.38,157.55,173.22,140.85,166.78,170.0,167.6,171.12,170.07,151.37,176.84,160.0,156.88,173.97,110.73,165.81,169.48,136.2,141.4,170.0,119.31,100.11,150.55,150.25,150.27,156.58,164.0,170.0,173.93,176.3,130.0,153.67,150.0,153.28,170.0,130.0,173.46,177.49,151.06,165.74,136.39,159.67,162.8,162.75,137.34,140.09,140.83,145.21,150.46,146.51,130.13,161.18,145.81,138.11,161.04,159.56,171.13,159.54,180.0,138.0,94.11
2013 ,178.73,160.0,184.0,188.09,164.9,172.98,178.13,132.66,165.39,162.34,174.55,164.17,165.06,165.15,161.21,182.04,161.04,178.28,148.3,168.05,177.76,174.16,171.61,171.56,160.65,184.13,160.0,162.66,177.34,119.55,183.54,186.33,145.72,169.42,170.0,141.21,127.9,176.31,177.49,169.47,176.65,172.95,170.59,179.06,182.85,134.81,154.15,158.3,158.93,170.86,130.0,177.66,177.39,154.93,150.42,133.52,160.5,161.9,158.72,136.78,137.39,140.35,154.56,164.16,148.69,130.05,162.78,130.1,139.44,157.77,165.57,176.92,160.0,178.69,145.4,98.06
2014 ,188.43,163.91,188.04,195.21,172.75,187.57,188.56,145.69,185.02,180.83,186.55,176.43,177.33,179.02,171.71,190.39,177.72,189.47,159.18,183.75,188.73,195.27,178.59,181.75,181.81,192.59,174.36,179.67,176.94,122.51,187.16,173.79,160.93,175.63,170.0,149.0,137.23,183.03,188.78,178.95,183.75,183.26,186.27,190.27,190.53,145.77,164.03,176.75,178.53,171.32,146.39,197.55,179.87,159.96,154.21,135.09,163.05,174.83,166.83,138.63,153.6,166.16,161.5,164.93,154.84,136.27,167.45,139.15,141.08,164.63,173.3,192.88,160.0,178.45,148.13,108.4
2015 ,186.41,162.38,190.0,199.04,169.51,180.31,190.0,146.0,190.56,178.29,178.6,165.93,179.55,176.25,177.57,181.58,181.45,176.33,149.41,186.11,186.02,189.81,180.0,159.84,175.14,188.72,180.0,177.93,179.33,131.67,187.12,175.21,164.6,177.3,170.71,146.29,119.56,174.19,189.64,180.0,187.16,194.64,190.0,193.07,188.65,159.38,170.29,180.25,185.47,174.18,149.68,198.72,181.83,160.0,155.06,132.5,168.54,174.04,170.44,141.55,155.81,170.02,164.0,156.66,155.34,140.0,169.75,147.82,159.74,177.86,174.87,188.02,160.39,179.67,148.0,102.57
2016 ,180.03,162.5,186.93,183.15,166.3,180.0,190.0,144.5,190.0,177.99,160.38,155.88,175.02,180.0,168.46,193.03,180.41,174.89,162.82,125.38,177.14,182.19,179.35,154.03,170.21,181.78,162.46,170.17,184.05,135.0,183.65,183.01,165.32,176.81,172.19,148.78,106.86,158.17,175.98,178.82,186.13,193.95,190.0,180.17,184.29,194.81,170.0,180.0,175.59,174.69,150.14,200.0,179.91,161.3,156.71,137.93,170.0,168.79,165.46,141.75,156.15,165.96,164.75,145.58,154.23,140.0,153.59,145.35,160.0,174.55,165.37,158.68,160.0,179.88,148.0,75.64
2017 ,180.89,160.21,193.16,192.13,177.49,190.45,195.0,154.96,203.57,190.25,176.91,168.49,189.54,183.13,169.85,211.72,199.4,183.63,182.23,125.38,198.32,202.01,172.92,159.51,199.76,188.5,115.04,203.62,190.18,135.0,200.44,182.98,166.18,180.27,177.6,169.42,133.21,189.23,189.94,186.76,194.06,195.77,196.5,193.5,195.01,190.0,178.54,182.5,186.73,180.3,152.19,207.37,188.2,162.45,166.96,137.98,174.32,189.92,182.36,146.55,162.54,176.93,168.91,156.42,165.49,140.07,163.18,172.54,173.63,174.02,184.39,174.03,174.66,179.86,153.41,75.64
2018 ,199.52,172.4,201.75,218.58,191.94,212.62,215.47,170.57,199.88,198.65,190.72,184.57,205.95,200.14,180.17,223.13,199.26,174.99,185.17,198.0,198.52,212.74,188.98,174.44,199.95,206.79,107.01,209.47,194.93,161.32,228.72,204.26,191.38,220.32,217.68,178.02,147.35,214.76,218.99,215.37,223.02,209.58,224.78,216.06,211.5,198.56,196.61,196.36,211.82,180.73,193.41,218.75,208.32,184.77,180.0,164.25,183.45,190.38,194.28,151.87,184.68,191.4,180.13,172.14,175.85,147.74,170.2,178.49,189.66,201.07,193.1,184.1,199.66,184.87,170.86,75.64
2019 ,201.47,180.0,209.26,216.75,186.22,217.61,217.48,173.24,207.12,201.11,184.0,183.07,197.76,192.74,183.0,222.87,180.17,182.45,184.8,169.68,202.5,200.06,200.08,162.15,195.99,193.33,104.92,208.09,185.83,167.73,218.22,188.82,195.79,198.23,220.0,171.71,142.42,191.76,207.62,219.79,220.79,225.13,237.5,218.08,212.81,213.77,214.22,200.0,229.46,198.7,232.64,229.7,208.27,183.35,178.56,201.53,189.51,185.33,199.97,161.71,188.48,190.55,184.53,179.41,176.59,168.5,168.51,163.5,189.89,194.28,195.17,181.61,200.0,220.0,177.7,75.64
2020 ,211.26,180.0,258.44,224.57,197.35,220.15,216.7,175.8,264.78,223.88,206.36,190.76,202.76,207.73,199.94,245.48,213.41,193.92,229.92,204.05,224.18,231.18,226.86,200.0,213.25,180.74,143.7,211.35,188.73,167.03,214.98,191.46,197.08,190.05,206.24,162.85,133.99,187.74,192.76,212.81,200.85,204.6,223.61,215.13,201.28,186.4,206.46,201.74,207.4,205.01,235.31,230.0,201.14,184.86,176.67,199.97,189.8,109.18,200.0,163.57,188.48,184.77,176.73,182.84,172.76,170.0,170.4,162.83,192.43,180.94,191.87,182.3,200.0,208.64,189.97,75.64
