,Benguet,IlocosNorte,IlocosSur,LaUnion,Pangasinan,Cagayan,Isabela,Bataan,Bulacan,NuevaEcija,Pampanga,Tarlac,Zambales,Batangas,Cavite,Laguna,Quezon,Marinduque,OccidentalMindoro,OrientalMindoro,Palawan,CamarinesNorte,Sorsogon,Aklan,Antique,Iloilo,NegrosOccidental,Bohol,Cebu,NegrosOriental,EasternSamar,Leyte,ZamboangadelNorte,ZamboangadelSur,CityofZamboanga,MisamisOccidental,MisamisOriental,DavaodelNorte,CityofDavao,SultanKudarat,AgusandelNorte,SurigaodelNorte
1990 ,139.27,196.65,194.88,155.38,226.64,179.33,198.68,149.92,137.25,129.24,134.6,123.33,161.6,158.62,184.0,169.2,155.14,157.83,132.9,146.45,186.66,116.65,97.32,190.8,133.49,116.49,75.64,114.92,194.05,156.62,357.73,158.48,127.27,66.85,137.87,62.02,109.14,144.72,168.94,284.33,96.59,111.37
1991 ,169.47,225.42,253.69,209.27,283.55,195.16,222.65,187.29,169.47,158.22,142.7,171.13,225.9,183.05,192.5,185.43,168.99,188.7,154.29,182.37,202.78,168.31,392.54,227.18,147.15,155.93,82.18,170.66,293.74,168.06,357.73,198.79,136.26,83.22,145.6,68.25,120.34,149.79,183.89,284.33,94.48,140.04
1992 ,183.14,207.3,269.45,225.08,246.72,203.42,201.15,172.85,183.61,160.11,126.2,163.58,196.09,171.9,213.27,182.28,180.52,206.65,151.99,191.05,206.27,171.75,184.31,152.67,168.48,155.59,108.05,432.02,274.92,171.57,357.73,165.9,135.11,91.55,160.35,74.42,114.69,208.36,168.88,284.33,105.63,136.39
1993 ,211.93,229.25,271.34,256.93,285.0,207.94,207.45,165.31,204.7,191.74,329.03,211.78,191.9,185.69,220.0,200.52,201.95,222.97,166.79,220.94,221.31,171.14,170.52,161.72,173.85,143.01,134.69,432.02,267.26,189.66,357.73,193.06,161.83,111.46,170.65,88.56,167.31,193.59,166.32,154.07,323.72,141.49
1994 ,233.67,245.0,319.72,274.91,351.75,222.25,215.32,192.26,195.28,206.74,210.46,220.41,217.4,217.94,249.37,210.98,218.36,237.87,156.13,237.97,248.31,179.04,210.32,189.86,183.17,173.27,132.32,432.02,233.66,212.4,357.73,226.4,151.3,123.73,176.86,116.56,163.25,201.13,157.59,162.18,118.21,146.73
1995 ,302.15,328.69,327.43,346.3,373.53,239.06,280.48,231.09,212.28,273.31,240.22,249.5,237.94,240.78,300.15,236.76,278.18,249.97,211.2,284.3,218.08,188.46,263.26,212.47,210.04,210.81,166.67,206.43,207.03,210.12,191.68,216.83,185.38,140.07,190.77,145.66,162.44,241.95,183.45,180.75,130.0,165.95
1996 ,332.57,346.14,359.8,350.47,378.54,262.93,321.67,291.1,245.77,285.91,221.7,268.21,282.97,264.71,289.33,309.26,279.88,254.01,252.9,264.48,260.44,212.23,267.8,245.19,236.94,252.42,222.78,200.77,205.92,227.64,219.34,197.92,187.82,139.14,192.32,139.09,174.74,274.86,215.34,180.24,228.74,178.8
1997 ,336.19,357.75,362.34,339.95,380.81,341.78,350.0,301.04,296.92,325.16,247.77,278.97,298.55,320.42,310.45,316.82,297.56,326.86,255.22,287.15,307.61,255.89,283.03,252.49,285.22,314.38,285.81,250.0,262.75,268.74,228.93,199.05,198.99,169.29,199.37,156.26,205.89,275.57,207.16,188.82,233.09,181.73
1998 ,420.11,416.58,409.46,359.26,422.17,443.28,500.0,279.56,311.13,360.42,292.05,285.64,357.75,432.56,359.61,370.81,406.0,342.75,288.58,411.35,322.9,302.26,286.8,337.42,336.02,390.76,334.28,432.02,271.41,299.17,243.8,211.97,257.12,202.3,211.06,177.63,217.07,294.28,210.18,232.25,225.25,202.68
1999 ,437.08,417.31,436.85,352.16,408.52,422.97,455.0,317.53,326.88,337.55,294.14,294.71,381.85,401.2,418.16,375.17,375.43,333.3,284.45,343.93,322.5,303.89,308.96,331.5,337.57,386.91,307.73,432.02,301.93,312.27,232.4,207.29,279.27,197.41,243.12,216.68,232.73,297.98,234.6,211.7,234.35,224.95
2000 ,437.71,444.84,424.55,362.41,432.33,430.42,477.39,365.9,336.39,367.67,292.22,327.0,386.99,406.94,457.34,390.82,391.64,333.53,288.21,319.54,326.09,306.79,338.88,318.21,334.02,385.45,302.39,432.02,319.41,352.77,229.71,214.69,263.02,187.05,247.43,220.07,258.63,308.32,230.66,247.3,239.45,265.51
2001 ,477.07,484.67,475.66,386.34,487.39,377.84,477.39,357.5,367.97,389.71,302.04,376.39,387.68,449.29,527.42,415.32,391.84,346.99,315.95,378.03,385.61,349.09,445.02,344.01,319.28,397.13,300.6,432.02,385.23,366.91,228.29,275.27,294.38,190.7,249.07,205.0,279.9,347.41,278.98,251.75,254.92,297.61
2002 ,497.27,482.81,501.32,373.2,503.37,441.6,477.39,362.08,349.7,371.87,301.34,359.08,387.66,445.76,534.95,398.72,407.91,354.87,339.58,428.45,382.13,359.6,440.32,356.65,325.18,384.62,337.7,432.02,393.67,370.13,246.67,288.23,288.48,199.75,251.01,207.5,263.49,364.71,290.63,283.77,249.13,292.0
2003 ,489.79,530.89,531.0,371.97,420.0,485.15,500.0,367.9,360.83,358.69,304.83,353.47,388.6,440.88,518.4,405.97,404.92,364.75,358.26,464.61,418.71,363.78,438.62,353.04,347.52,429.81,355.41,432.02,387.26,469.31,379.65,291.73,279.63,208.23,251.8,215.24,269.49,362.3,286.17,275.18,261.48,312.01
2004 ,496.62,536.81,564.29,371.95,423.96,512.53,500.0,413.38,364.49,349.49,313.39,391.98,399.32,425.38,544.41,441.33,422.97,393.81,381.81,467.27,439.68,385.96,445.03,424.24,398.59,441.52,380.95,394.02,358.96,382.78,408.73,326.16,287.6,211.37,261.38,269.47,286.18,375.34,288.27,304.24,296.7,313.74
2005 ,525.94,523.27,628.35,370.8,443.28,525.66,500.0,372.13,371.25,340.63,338.69,395.69,423.16,418.55,551.91,405.9,408.74,405.67,445.35,453.73,459.19,364.4,428.88,433.73,416.3,451.03,345.6,394.37,373.17,382.13,359.16,326.15,282.91,273.4,269.82,282.26,299.11,376.55,299.9,314.61,330.35,327.18
2006 ,536.55,518.77,629.56,317.84,472.21,495.1,477.39,368.57,372.23,348.71,336.2,402.62,451.71,435.59,533.82,414.98,398.35,437.2,524.22,397.5,458.41,383.62,415.56,386.68,426.21,429.71,371.41,389.86,402.61,375.08,350.0,341.09,295.64,292.44,313.0,335.25,305.27,416.04,307.56,336.23,365.74,363.89
2007 ,547.35,555.94,610.5,446.58,499.28,525.59,500.0,389.97,437.7,342.17,357.37,415.08,462.27,459.69,562.16,424.71,384.32,425.1,506.86,421.28,491.76,390.64,396.51,424.38,440.06,483.62,369.17,391.36,400.0,407.56,350.0,339.8,306.38,309.55,318.78,361.52,328.92,378.42,312.94,347.78,350.52,397.26
2008 ,536.17,559.16,564.75,499.34,492.57,601.71,539.35,427.54,453.24,370.59,353.07,409.83,464.39,445.86,548.06,417.42,411.98,441.1,536.43,434.71,506.7,398.43,452.83,425.97,453.36,488.09,388.78,394.42,407.88,406.44,350.0,315.97,319.73,365.83,346.06,337.67,320.14,428.63,300.37,352.99,345.9,416.45
2009 ,535.09,520.23,550.98,530.28,460.96,563.54,485.0,439.16,423.77,394.04,354.29,391.26,485.53,475.92,543.06,411.0,418.2,441.73,534.34,468.85,501.47,381.42,458.67,382.03,470.34,460.0,450.63,424.9,423.88,447.24,353.15,321.81,324.57,341.89,320.51,319.38,325.47,439.21,306.21,363.28,352.07,434.0
2010 ,528.49,493.33,573.53,355.78,499.94,569.23,473.99,430.55,444.09,436.68,361.15,417.31,506.11,497.71,583.71,438.69,386.51,459.44,503.85,521.06,529.51,360.95,485.56,321.2,482.95,459.29,445.32,454.55,425.89,469.26,346.56,314.34,364.59,310.37,371.18,324.38,327.96,440.74,309.33,368.27,324.62,383.7
2011 ,540.16,560.0,587.87,460.06,490.54,597.0,515.47,451.28,484.62,475.09,318.48,480.73,504.85,518.47,548.75,490.02,397.08,467.98,471.01,526.02,572.39,378.19,486.21,363.41,510.32,492.52,469.81,450.0,441.95,461.64,350.0,326.7,373.55,317.27,384.35,347.47,355.03,469.29,323.09,430.64,408.67,454.74
2012 ,544.61,551.65,563.68,521.4,514.44,616.04,508.63,489.73,489.7,447.44,307.55,442.42,510.0,519.24,590.38,501.29,408.69,477.8,464.17,497.15,589.87,446.03,464.27,374.83,471.26,481.72,470.0,434.7,429.11,490.0,379.47,333.48,367.9,353.27,369.53,362.01,347.06,449.07,345.28,500.48,400.05,450.52
2013 ,549.18,551.03,605.76,552.25,517.26,629.73,509.35,309.4,432.17,556.9,310.12,461.75,495.35,520.62,581.51,505.78,436.17,485.51,521.87,485.02,594.27,427.91,432.17,382.5,488.56,501.97,465.47,433.86,444.82,397.67,474.24,330.0,394.69,403.3,367.72,351.99,366.69,490.05,372.12,284.33,406.6,455.16
2014 ,561.99,559.37,633.94,555.06,535.67,648.19,576.74,423.59,477.95,515.04,365.07,485.55,575.31,582.86,726.39,530.18,540.28,468.51,560.08,554.29,663.85,413.96,487.39,385.93,566.95,508.42,456.71,462.08,480.9,545.74,418.71,354.6,471.76,395.91,417.14,366.39,384.54,591.03,386.85,284.33,450.15,486.53
2015 ,624.76,578.4,649.55,582.55,606.47,694.61,540.1,497.02,480.17,560.32,401.67,426.89,588.44,622.94,722.03,515.11,514.04,478.45,619.92,568.0,598.34,460.07,396.68,385.51,617.17,485.94,458.97,465.68,485.68,542.4,387.55,347.27,474.79,453.16,450.14,375.21,370.87,609.67,393.13,284.33,446.97,456.47
2016 ,565.56,656.4,656.85,596.1,604.87,735.92,581.88,556.92,406.29,492.23,412.11,448.46,702.76,592.71,713.05,521.98,513.55,507.69,657.34,592.21,598.42,440.43,402.24,390.59,613.0,534.31,455.6,497.98,493.55,522.58,404.29,389.27,481.09,343.74,446.39,351.51,378.55,509.92,434.79,284.33,415.04,464.66
2017 ,716.3,637.5,753.87,599.13,592.82,678.78,756.72,592.39,445.99,565.94,475.31,554.0,719.68,602.95,504.82,593.4,534.94,527.78,643.16,629.92,635.28,479.92,484.13,452.59,621.48,548.18,485.18,571.43,503.13,565.96,445.0,349.88,528.21,377.6,555.12,484.27,412.74,573.2,547.93,284.33,485.46,450.77
2018 ,812.94,700.0,683.06,640.21,578.0,721.63,805.08,582.05,530.73,586.03,495.8,567.27,710.18,641.73,593.38,615.38,575.67,566.67,572.4,632.98,665.4,472.98,563.79,448.92,620.61,645.97,507.03,658.95,544.15,634.8,540.04,395.63,596.44,404.99,649.57,513.68,415.75,601.59,517.26,284.33,549.52,503.19
2019 ,843.9,462.59,847.07,655.08,580.79,736.05,794.91,607.53,585.93,686.97,655.93,514.82,746.1,694.59,744.42,545.49,593.19,616.67,557.95,562.99,739.29,527.69,630.67,462.12,609.29,700.0,599.76,958.33,780.68,742.81,585.12,397.46,660.89,400.22,663.4,515.74,404.26,614.51,527.32,284.33,654.38,749.07
2020 ,793.25,462.59,782.65,627.49,604.93,795.93,850.0,566.6,632.24,688.38,604.42,550.49,776.58,724.22,719.38,614.29,560.22,550.0,550.31,652.04,636.42,583.0,610.47,443.22,590.84,757.14,342.22,785.19,389.0,778.33,598.47,302.54,623.98,424.14,674.42,527.46,390.33,635.03,493.89,284.33,657.54,666.53
