,Abra,Apayao,Benguet,Ifugao,Kalinga,MountainProvince,IlocosNorte,IlocosSur,LaUnion,Pangasinan,Cagayan,Isabela,NuevaVizcaya,Quirino,Aurora,Bataan,Bulacan,NuevaEcija,Pampanga,Tarlac,Zambales,Batangas,Cavite,Laguna,Quezon,Marinduque,OccidentalMindoro,OrientalMindoro,Palawan,Romblon,Albay,CamarinesNorte,CamarinesSur,Catanduanes,Masbate,Sorsogon,Aklan,Antique,Capiz,Guimaras,Iloilo,NegrosOccidental,Bohol,Cebu,NegrosOriental,Siquijor,Biliran,EasternSamar,Leyte,NorthernSamar,Samar,SouthernLeyte,ZamboangadelNorte,ZamboangadelSur,ZamboangaSibugay,CityofZamboanga,Bukidnon,Camiguin,LanaodelNorte,MisamisOccidental,MisamisOriental,DavaodeOro,DavaodelNorte,DavaodelSur,DavaoOriental,CityofDavao,Cotabato,Sarangani,SultanKudarat,AgusandelNorte,AgusandelSur,SurigaodelNorte,SurigaodelSur,Basilan,LanaodelSur,Maguindanao,Sulu,TawiTawi
2014 January,36.31,24.0,45.92,21.2,14.12,31.38,49.77,30.22,43.93,35.38,37.69,11.7,44.23,22.33,42.31,40.0,41.62,41.43,39.38,37.62,31.72,29.63,21.77,39.0,32.71,23.07,45.07,39.14,23.29,16.87,37.5,33.5,37.1,29.76,18.0,41.22,41.74,42.86,47.0,45.38,28.46,18.1,31.85,28.51,20.91,35.0,23.46,20.23,44.29,21.69,22.82,15.73,24.12,23.7,15.86,18.21,16.12,11.19,20.46,14.29,24.31,19.1,20.92,19.45,11.8,19.39,15.4,28.64,22.79,25.0,22.21,30.65,28.28,14.1,23.33,12.8,14.3,17.51
2014 February,37.42,24.22,46.17,19.6,14.04,30.0,54.58,30.35,44.2,37.13,35.58,26.58,43.08,20.25,38.58,36.67,39.0,41.3,41.82,37.42,32.17,38.79,22.58,38.63,35.5,26.5,46.0,39.0,28.0,41.83,38.0,32.53,35.4,29.2,17.67,35.5,49.8,49.83,50.0,50.0,31.9,18.06,35.34,30.21,23.26,34.25,29.17,59.0,49.3,22.25,22.82,18.25,26.4,23.25,16.17,17.49,16.57,11.5,19.5,14.85,25.04,13.5,27.7,20.98,16.86,24.23,15.33,28.43,22.75,24.91,22.0,30.55,26.64,14.43,22.0,12.5,13.18,17.5
2014 March,42.08,30.0,46.0,22.6,13.92,29.41,56.69,30.91,46.15,37.59,33.08,26.62,42.69,20.25,41.77,35.0,40.85,44.14,45.15,40.77,35.25,48.55,23.69,39.0,34.23,27.92,41.54,41.46,29.54,48.77,41.89,37.7,34.85,29.2,21.23,32.13,48.14,54.0,49.54,50.0,33.97,17.95,36.1,27.91,23.5,32.0,28.91,61.85,51.23,21.54,21.9,18.43,28.92,24.08,19.74,17.03,17.08,11.88,19.72,17.84,26.15,15.05,27.5,22.54,16.12,24.56,15.35,28.51,22.17,24.84,22.92,30.38,24.31,14.93,22.22,12.2,22.06,17.5
2014 April,44.55,33.67,46.0,19.5,14.0,29.06,52.83,36.91,46.26,37.99,36.69,27.33,42.75,22.67,41.46,40.0,41.5,43.89,42.08,42.0,38.62,47.51,24.0,39.0,35.0,27.0,43.92,46.17,31.23,47.62,44.33,40.88,35.0,30.08,23.0,31.25,47.76,52.85,56.92,50.0,34.22,22.85,37.08,28.32,23.5,35.0,28.73,64.0,40.18,22.2,19.33,18.54,29.37,23.08,19.97,16.9,20.1,13.03,20.06,18.98,26.75,15.8,30.95,19.96,16.09,25.15,15.56,28.82,21.59,25.26,22.28,30.0,31.0,15.27,22.63,12.3,22.06,17.4
2014 May,38.67,25.0,46.0,18.8,13.96,33.24,47.54,39.48,46.23,36.3,35.38,27.23,43.0,21.63,40.54,40.0,42.0,41.77,43.46,41.54,39.23,43.26,23.0,40.67,34.77,27.23,44.0,44.31,32.0,47.15,46.0,45.4,34.97,30.63,23.0,41.89,44.58,50.54,55.08,50.0,33.65,22.93,36.71,29.78,25.28,35.0,28.75,56.31,59.62,25.77,22.26,18.65,29.21,22.08,18.78,16.87,22.37,14.38,20.68,17.81,28.46,17.89,30.11,22.08,16.3,26.54,15.6,28.78,22.56,25.31,21.92,30.0,30.31,15.0,22.7,12.0,26.12,17.35
2014 June,37.69,28.75,46.0,18.38,14.0,36.36,47.92,36.95,46.35,36.81,27.69,24.54,37.83,20.38,39.77,41.15,42.08,42.82,43.23,38.77,37.92,47.38,30.69,42.31,33.1,31.77,46.0,43.67,32.15,45.08,45.63,47.43,35.0,44.67,26.38,43.75,56.0,45.77,51.0,50.0,52.13,23.03,31.91,30.58,25.48,36.0,28.88,56.38,54.28,26.77,20.76,30.28,29.63,21.62,18.95,16.7,19.65,13.75,19.08,16.78,26.73,15.38,29.12,18.98,16.06,26.14,15.09,28.05,21.69,25.31,20.0,30.0,32.54,14.95,22.77,11.8,25.75,17.35
2014 July,38.23,29.4,54.0,20.63,13.96,35.88,44.0,37.41,46.33,32.67,31.38,26.31,27.71,20.8,32.08,40.36,42.31,42.57,39.38,40.15,43.77,46.97,36.58,40.65,31.17,32.38,51.54,42.62,32.0,45.15,44.67,42.43,35.23,47.0,27.0,44.0,56.0,51.54,48.46,50.0,48.45,23.74,32.0,30.38,24.2,37.0,29.0,62.0,51.51,26.98,22.0,26.62,29.2,21.85,19.91,16.63,21.69,13.4,19.97,16.27,24.42,14.68,27.64,19.57,16.29,25.71,15.0,28.52,23.15,25.89,17.28,30.0,32.31,15.12,24.0,13.26,28.02,17.3
2014 August,38.0,27.25,55.23,29.75,14.0,37.5,38.46,36.86,46.85,32.64,35.77,23.78,26.69,21.75,34.38,37.92,42.46,42.82,40.77,40.23,44.31,42.16,38.75,41.41,49.08,33.23,56.92,43.77,32.0,47.62,48.0,46.03,53.98,47.89,27.0,37.11,53.23,56.15,47.31,50.0,48.7,24.92,32.15,31.07,23.81,37.0,29.0,45.85,51.99,26.08,27.56,25.15,28.82,22.93,19.94,17.08,21.46,11.5,19.66,15.9,23.27,15.14,28.14,19.23,16.1,25.55,15.05,28.58,22.38,25.0,17.38,30.0,32.69,15.0,24.62,13.25,28.02,17.3
2014 September,37.23,27.25,58.0,30.75,14.17,34.21,40.92,40.1,46.53,32.96,32.54,25.81,27.85,22.89,33.08,38.85,41.85,42.73,44.54,40.92,44.0,44.16,39.3,42.89,42.31,35.38,56.0,47.38,32.15,48.0,48.0,37.32,55.8,50.0,30.17,40.0,47.38,53.08,43.92,49.77,48.8,25.14,35.69,31.17,24.28,37.0,29.0,48.0,43.44,27.62,29.71,30.92,29.38,22.92,19.92,17.91,22.25,11.89,19.82,16.7,23.54,14.68,27.44,20.72,16.1,25.23,15.0,28.57,22.62,25.31,17.15,30.0,31.83,15.02,24.0,12.62,25.75,17.4
2014 October,36.54,27.2,59.0,32.5,14.0,36.05,42.43,36.17,46.79,34.14,33.43,24.56,29.77,23.81,33.0,46.43,42.57,42.22,39.07,38.14,43.91,39.36,40.18,41.8,43.57,38.07,49.71,50.0,33.0,47.79,48.0,48.16,55.8,50.0,31.8,35.44,46.0,54.0,45.93,50.0,48.56,24.93,35.86,31.14,23.72,37.0,28.68,48.23,43.53,28.31,30.27,31.71,30.0,24.43,20.0,17.94,21.5,13.39,19.54,16.51,24.96,14.7,26.82,20.63,16.15,26.34,15.0,28.9,23.07,25.0,19.29,30.07,32.6,16.66,24.64,13.07,27.61,17.4
2014 November,38.0,27.0,59.0,32.33,14.04,35.56,47.67,37.1,47.25,35.25,29.17,25.24,32.54,25.87,33.0,50.0,42.92,42.35,39.5,38.0,43.5,38.65,38.61,38.63,49.5,38.25,45.83,50.0,33.33,47.5,48.0,52.25,55.5,50.0,31.8,35.38,40.46,52.0,44.25,49.92,48.91,24.55,36.08,31.95,23.5,36.0,28.5,40.75,42.36,29.25,30.63,32.0,30.0,23.31,20.0,17.78,22.18,16.2,19.6,16.87,26.75,15.9,26.63,18.93,16.15,26.25,17.09,29.07,23.25,25.5,18.75,29.75,32.53,15.69,24.0,13.8,28.42,17.46
2014 December,39.09,28.8,59.0,32.0,14.0,36.94,48.0,38.5,47.36,36.19,33.5,25.79,37.25,25.64,32.21,42.31,42.94,40.7,40.25,38.0,39.43,39.65,38.31,40.83,44.86,36.89,46.43,46.38,33.71,42.9,47.78,52.8,55.2,50.22,31.8,36.89,37.71,50.0,46.57,49.92,49.0,24.94,37.14,30.62,23.72,36.0,28.5,43.1,43.07,31.6,31.42,32.0,29.93,25.0,20.36,18.31,23.25,16.05,19.97,16.94,26.64,14.36,28.6,20.14,16.26,26.04,16.71,28.79,23.21,25.07,20.21,30.0,32.59,15.0,22.0,13.24,31.53,17.4
2015 January,42.75,27.5,55.17,32.0,28.0,33.5,48.33,38.89,47.62,31.88,37.0,25.28,40.0,21.28,32.77,40.3,45.08,42.86,40.31,38.0,40.0,39.32,42.86,41.25,47.23,37.08,48.62,45.23,33.0,40.85,44.67,54.35,55.2,49.0,31.8,47.11,38.29,52.0,42.15,50.0,45.9,25.51,36.29,29.79,24.21,37.5,28.5,38.0,45.36,31.5,31.92,32.0,30.0,25.77,20.0,22.35,23.39,13.44,19.94,17.28,26.65,14.31,27.26,20.55,16.35,26.51,16.55,28.05,23.15,25.0,18.0,30.34,32.23,15.0,24.85,13.58,26.83,15.57
2015 February,45.55,26.25,53.75,32.75,28.0,32.25,48.67,36.85,51.17,33.87,34.42,24.3,39.83,20.95,32.83,38.36,42.83,42.85,39.67,38.0,40.0,36.94,40.29,40.64,43.22,37.5,48.83,45.5,33.17,41.33,44.0,53.23,53.67,48.5,31.8,45.75,44.0,52.67,41.5,50.0,46.19,25.58,34.8,30.14,24.6,37.0,28.5,38.0,39.73,32.36,32.43,30.83,29.73,24.58,20.25,20.17,23.56,16.05,19.96,17.94,24.96,13.93,29.45,22.05,16.4,25.51,16.3,28.45,23.08,24.42,20.33,30.17,31.92,14.78,22.92,13.0,28.92,17.3
2015 March,43.08,26.25,54.69,32.5,29.38,32.05,50.08,42.32,51.15,35.37,31.31,21.96,39.69,22.82,32.54,40.0,43.91,42.95,40.82,41.23,41.08,37.87,40.27,40.69,45.62,38.0,46.62,44.92,33.0,41.54,46.0,48.71,47.09,48.0,31.8,47.89,34.15,54.0,37.54,49.69,46.06,25.23,34.92,31.75,24.8,36.96,28.5,36.69,42.39,32.08,31.91,32.46,30.0,25.0,20.38,20.95,23.24,15.53,20.0,18.33,25.92,14.05,28.74,20.86,16.29,25.84,16.22,28.52,23.15,25.23,21.14,30.0,32.18,14.72,22.82,12.65,29.86,17.32
2015 April,43.33,28.2,54.33,32.67,29.5,37.5,46.92,44.18,51.15,41.58,30.92,26.0,39.46,22.38,32.62,41.27,43.17,42.74,38.62,42.0,40.54,38.2,40.21,40.58,50.0,37.92,47.69,48.5,33.15,43.0,46.0,47.6,48.46,48.0,35.0,48.0,30.0,53.38,36.69,49.67,46.12,25.08,33.92,32.5,25.0,37.0,28.5,33.85,41.62,35.09,35.47,30.15,30.0,25.0,23.15,21.0,22.98,16.8,22.02,18.57,25.25,14.97,30.34,22.2,18.52,26.96,16.98,28.02,24.15,24.83,21.92,30.17,32.92,21.52,27.23,13.22,33.95,17.39
2015 May,39.92,29.75,52.83,32.4,29.62,37.2,48.0,34.05,51.46,31.49,30.28,24.38,37.31,22.5,32.77,39.67,42.08,42.64,40.23,42.0,40.62,45.03,39.64,39.93,36.15,37.85,49.54,48.92,34.85,42.62,46.0,45.42,47.14,53.33,35.0,47.0,34.15,54.0,37.0,50.0,45.71,25.08,31.64,32.41,24.85,37.75,28.5,33.77,44.08,34.67,35.42,34.77,29.83,25.0,24.0,22.78,22.38,16.8,24.52,18.63,25.96,15.17,28.57,19.78,17.7,26.16,17.51,28.06,24.0,24.15,20.85,30.15,32.47,24.12,23.51,13.08,32.69,17.36
2015 June,38.0,24.75,52.33,32.75,29.27,35.5,46.85,37.52,53.92,31.63,27.85,23.08,26.31,17.98,29.69,38.2,42.0,42.59,39.46,40.15,41.0,42.64,36.16,38.75,39.46,37.54,49.85,49.92,35.38,42.85,45.78,42.8,45.0,51.25,35.0,47.44,36.0,54.0,37.0,49.69,45.0,25.0,29.5,33.73,24.8,38.0,28.5,33.46,45.17,34.45,34.77,32.0,30.33,24.85,24.79,21.05,23.11,15.93,22.97,16.48,25.5,15.08,28.84,19.28,17.76,25.51,16.88,28.05,23.92,22.85,21.15,30.0,32.54,23.54,24.33,12.88,37.42,17.37
2015 July,32.77,21.0,52.33,36.17,26.57,32.5,43.71,36.04,53.93,34.19,31.64,21.2,25.0,19.75,29.07,37.41,46.15,42.04,40.77,36.07,41.0,43.76,37.14,35.97,30.08,37.57,44.79,49.23,35.57,43.0,46.0,45.36,45.89,51.33,39.78,46.33,36.0,56.46,35.7,50.0,45.0,24.77,28.75,34.53,24.8,38.0,28.5,33.57,45.38,34.92,34.0,32.0,30.42,20.57,23.29,17.14,22.67,15.6,20.43,16.03,25.82,14.94,27.31,19.17,17.57,25.42,16.39,28.07,23.74,22.86,17.86,30.0,32.33,22.98,24.43,12.81,36.65,17.38
2015 August,37.09,20.25,51.64,32.4,25.85,35.4,46.46,36.05,53.62,32.94,30.72,23.93,25.0,24.41,27.08,37.44,42.11,42.05,41.23,35.0,41.0,44.71,39.31,36.88,39.23,37.25,44.93,48.0,36.0,43.0,45.56,39.95,45.78,50.67,40.41,47.25,37.43,54.31,35.25,49.67,46.75,25.67,29.25,34.08,24.95,38.0,27.78,32.62,42.28,35.9,33.69,30.0,29.92,24.23,24.0,16.8,22.59,16.13,20.0,16.84,25.38,15.08,26.46,19.2,17.49,24.82,16.33,28.12,23.72,22.77,19.29,30.0,32.31,21.29,23.08,12.28,26.83,17.41
2015 September,42.0,21.2,52.0,31.0,26.5,38.08,44.69,31.68,54.15,32.76,31.92,24.58,25.0,25.0,29.31,37.38,42.09,40.0,40.77,35.77,40.77,37.67,39.36,35.14,35.31,37.92,37.15,47.17,35.69,44.85,46.0,35.51,45.0,49.0,41.31,47.22,38.0,56.62,35.33,49.69,45.38,25.08,32.9,33.93,27.22,38.4,27.5,32.0,37.95,37.03,34.4,31.69,30.0,25.0,24.31,17.57,22.86,16.53,20.0,14.69,25.58,15.37,27.64,19.13,17.36,24.14,16.11,28.09,22.08,23.0,20.22,30.0,32.38,25.21,23.77,12.28,27.11,17.4
2015 October,35.15,22.0,52.0,31.2,27.58,36.94,44.46,31.64,56.0,31.28,34.54,25.06,25.07,24.24,31.23,38.78,41.92,49.4749,41.33,39.52,40.0,40.75,37.91,35.0,38.31,41.23,39.0,48.0,36.0,47.0,45.56,32.8,43.85,51.88,39.92,45.89,38.0,56.46,35.78,50.0,45.34,25.04,32.82,33.36,26.98,42.0,26.88,32.15,35.3,36.48,36.05,32.0,30.17,24.92,24.54,17.58,22.69,16.67,20.0,14.86,26.08,15.14,27.25,19.23,17.54,24.09,16.29,28.17,21.85,23.0,20.92,29.77,32.85,22.5,23.69,12.28,29.07,17.4
2015 November,39.31,20.75,52.0,31.5,27.19,37.4,46.92,32.1,56.38,31.65,33.77,25.46,26.0,23.75,34.69,39.22,42.62,44.76,40.72,38.25,40.0,45.5,36.17,35.08,38.54,40.15,36.38,47.08,36.0,43.0,46.0,37.6,45.25,56.44,39.77,45.0,41.62,48.0,35.0,49.77,45.0,24.15,32.18,34.13,27.23,44.0,27.5,32.0,44.35,36.53,35.87,32.0,29.75,25.0,22.92,17.37,23.12,15.9,20.0,14.85,25.54,14.72,26.41,19.4,17.72,24.74,15.77,28.14,22.92,23.0,22.0,30.0,29.62,21.98,24.15,12.39,29.19,17.4
2015 December,39.17,24.0,52.0,32.5,28.31,37.5,47.5,32.23,56.97,34.74,34.92,26.32,28.0,24.4,39.82,38.82,42.0,49.0,37.39,38.97,38.77,40.9,38.0,34.94,35.25,39.56,35.77,48.31,36.0,42.0,47.11,46.12,45.09,54.0,38.38,44.89,36.64,46.0,35.0,50.0,44.77,24.0,32.44,35.02,27.64,42.8,35.75,32.0,37.05,36.6,36.58,31.54,29.82,18.45,24.62,17.91,23.52,16.32,20.0,16.45,25.0,15.05,26.1,19.89,19.93,25.82,15.4,27.58,23.54,23.38,20.38,30.0,27.38,22.44,27.33,12.7,29.0,17.4
2016 January,40.33,24.0,52.0,34.67,33.92,37.0,47.08,31.95,53.92,34.53,36.54,26.88,30.31,25.88,46.16,44.72,42.75,51.91,37.19,39.17,37.08,40.32,34.9,35.3,39.25,38.06,36.23,49.23,37.0,42.0,48.0,42.13,45.45,56.22,36.92,45.11,33.0,48.0,36.5,49.17,45.0,25.85,30.95,34.58,28.38,44.0,32.0,32.0,40.0,36.78,37.17,32.0,29.58,25.0,24.08,20.02,24.32,16.73,20.0,16.27,26.63,14.72,21.8,19.53,18.45,25.82,15.55,27.22,22.31,24.54,19.75,27.86,29.0,22.56,25.0,12.55,29.84,17.41
2016 February,41.92,22.78,51.92,32.0,34.67,37.0,45.77,30.76,51.0,35.31,35.92,26.05,33.83,25.95,43.39,48.75,49.47,49.73,40.08,38.38,36.92,41.77,33.09,35.0,36.38,46.77,37.62,48.62,39.23,41.23,47.25,45.14,44.77,50.75,37.08,44.75,33.0,51.69,34.5,49.83,45.0,24.54,31.69,33.49,28.78,44.0,32.85,28.62,37.14,36.95,37.02,32.0,29.58,25.5,24.62,22.57,23.03,16.35,20.0,16.27,26.15,14.58,20.39,20.78,17.92,25.64,16.69,21.23,22.46,24.92,19.69,26.04,26.92,24.17,25.0,12.79,30.73,27.27
2016 March,44.0,23.2,52.08,32.2,37.42,37.5,45.25,31.14,51.4,41.17,36.58,25.48,37.21,26.43,41.03,47.48,47.62,46.58,39.69,38.15,37.46,43.51,36.63,34.94,38.85,50.0,39.0,49.67,45.58,40.0,46.0,45.22,45.54,54.0,37.0,44.33,33.0,54.0,34.8,49.75,45.0,24.46,32.08,34.29,28.4,44.0,32.54,28.31,32.81,37.37,35.89,32.0,30.08,25.67,24.17,25.82,23.62,16.5,20.77,16.25,26.46,14.58,19.65,23.18,18.4,27.06,16.8,20.38,22.77,25.0,19.33,27.46,23.42,26.25,24.67,13.28,30.88,41.11
2016 April,42.69,23.75,51.92,33.6,36.77,37.25,48.15,31.36,51.18,35.43,36.92,24.77,37.62,22.89,42.77,47.49,47.69,46.18,41.02,37.15,38.77,39.1,35.89,34.33,37.31,51.85,38.0,48.15,44.77,42.31,47.11,47.58,46.0,52.5,35.62,43.89,33.0,54.15,36.5,50.0,45.0,24.19,32.15,34.23,27.58,44.0,30.88,28.0,28.86,43.2592,36.23,31.54,30.0,33.75,22.31,27.92,24.36,17.16,25.46,19.54,26.65,14.54,19.46,19.29,20.6,27.96,19.13,23.43,23.0,24.92,18.38,27.77,26.77,26.25,24.46,13.51,32.89,41.22
2016 May,42.69,22.5,54.31,33.0,34.62,37.4,48.75,31.71,51.0,36.56,41.0,25.27,34.23,22.56,43.39,46.74,46.67,47.18,41.95,36.83,40.0,42.9,33.08,33.75,39.69,56.31,38.0,49.08,43.38,48.0,45.78,45.02,46.72,50.0,37.54,44.44,33.0,53.23,36.67,49.46,45.0,24.38,34.08,35.96,29.4,44.0,29.6,28.0,30.15,37.73,37.1,32.0,30.82,17.92,23.46,28.05,24.62,18.58,23.15,19.23,27.15,15.0,20.09,21.67,21.85,27.1,23.25,24.08,22.38,24.85,20.54,28.58,27.62,28.96,24.33,12.63,34.03,41.2
2016 June,39.31,20.0,50.23,35.25,32.23,37.75,46.85,30.55,51.38,36.72,32.69,25.69,28.38,23.33,45.49,48.31,46.67,46.95,36.72,37.0,40.0,41.66,37.33,37.68,41.15,52.46,39.54,48.92,44.0,48.0,45.5,45.0,54.46,50.0,37.0,45.88,34.85,54.0,36.33,49.85,46.45,25.0,32.31,34.99,27.96,44.0,30.6,28.0,28.71,37.54,37.23,31.23,31.67,18.0,25.23,28.0,24.08,19.64,19.65,19.92,27.31,15.63,19.15,21.09,21.71,27.76,24.92,24.23,24.46,25.0,20.62,27.85,27.31,29.02,27.08,13.09,36.78,41.09
2016 July,38.75,21.75,47.08,30.4,33.86,37.4,42.62,32.86,52.08,34.84,31.23,25.65,31.38,24.5,37.81,46.38,46.67,46.36,38.43,36.85,39.0,40.03,39.0,40.15,40.0,46.77,41.15,48.46,45.0,48.0,45.78,40.88,46.0,50.0,37.0,43.78,36.08,55.38,36.75,49.77,47.15,24.84,32.09,36.92,28.7,44.0,30.6,28.0,28.8,37.58,34.72,28.62,35.82,17.33,22.69,28.0,22.22,19.76,20.0,20.0,28.04,15.92,19.26,25.91,20.34,27.38,23.42,24.23,28.31,24.3,20.54,28.62,27.46,28.08,23.22,12.92,35.3,40.32
2016 August,41.14,20.0,47.07,33.5,33.31,37.25,41.86,32.13,52.0,34.4,36.43,25.54,32.46,27.78,35.57,42.92,41.9,46.45,40.64,36.36,36.77,40.44,40.68,40.0,37.0,48.43,40.08,49.23,44.86,48.0,45.56,37.14,46.57,50.0,35.54,43.67,34.29,56.46,37.0,46.36,47.15,24.77,32.23,37.42,26.2,43.8,29.4,28.0,25.92,38.17,34.25,28.0,31.54,16.2,23.29,27.93,21.24,21.77,20.07,19.94,27.82,17.66,24.75,25.46,21.73,27.98,23.62,23.5,28.21,23.36,18.33,29.79,27.0,31.57,23.0,13.3,37.08,39.1
2016 September,38.79,25.0,47.0,34.25,32.92,37.0,42.62,31.59,52.0,35.61,36.46,22.92,30.85,26.78,36.0,48.5,43.85,50.18,41.82,34.23,40.0,40.34,39.0,40.0,37.23,43.38,41.13,49.08,43.62,46.38,46.0,38.46,45.69,50.0,39.85,45.0,37.62,56.0,36.44,49.5,48.17,25.33,33.17,34.92,28.58,44.25,30.0,27.75,25.04,38.15,34.15,28.0,30.0,18.65,22.15,28.0,20.31,19.67,20.0,19.18,27.88,17.02,23.74,26.83,22.4,26.95,24.0,23.92,28.15,23.0,17.48,30.0,27.0,32.31,23.11,12.88,58.4,40.11
2016 October,46.0,22.75,47.0,31.83,32.85,37.2,48.0,31.48,52.0,34.6,35.62,24.22,31.62,26.38,33.31,44.0,46.67,55.45,39.34,34.54,38.0,41.16,39.74,40.0,42.23,45.77,42.0,48.46,38.62,47.0,45.25,42.0,45.69,50.0,40.62,41.63,35.54,56.33,37.0,48.54,49.33,24.17,33.0,35.48,29.43,45.0,30.0,27.62,24.76,38.15,33.58,25.54,29.45,16.34,21.54,27.77,20.05,19.28,20.0,18.0,27.54,15.08,23.53,24.33,19.85,26.57,22.0,22.08,27.92,23.46,17.8,30.0,27.0,31.15,23.1,12.7,57.47,39.89
2016 November,42.08,28.0,47.0,32.25,34.54,37.5,47.23,35.23,54.95,35.58,35.31,28.35,33.54,27.22,38.31,42.08,46.67,56.57,41.16,36.31,35.37,40.57,41.46,37.5,38.85,44.85,41.92,48.15,35.23,48.0,46.0,42.58,46.0,50.07,39.92,42.56,33.0,56.0,37.0,49.51,46.42,24.0,32.1,34.76,28.0,45.0,30.0,29.31,24.85,37.08,32.97,24.0,29.0,16.62,21.77,23.92,18.59,18.07,20.0,17.74,27.58,14.77,22.83,20.0,19.2,26.66,19.43,20.31,25.31,22.92,18.2,30.08,27.0,31.08,23.0,12.74,45.2,40.11
2016 December,44.08,30.5,47.0,34.5,36.95,36.75,47.25,34.18,57.4,36.63,40.08,30.46,35.43,26.56,39.49,48.83,47.33,56.36,43.08,34.77,33.08,41.0,38.86,37.5,43.23,45.54,42.0,48.5,32.31,48.0,46.0,42.54,46.0,50.0,39.23,43.0,33.0,55.54,37.0,48.25,46.45,32.67,30.75,33.48,28.0,43.0,31.54,30.77,24.96,36.36,32.25,24.92,29.63,17.6,23.0,22.54,18.03,17.76,20.0,16.15,27.62,15.38,22.72,21.64,19.54,25.96,19.83,17.76,25.0,23.31,19.38,32.21,27.0,31.08,23.09,12.77,51.7,40.32
2017 January,44.77,29.75,47.0,34.67,39.07,37.6,46.62,39.81,57.43,36.68,40.08,34.21,38.0,27.67,38.93,48.08,49.44,54.9,42.31,34.38,60.0,40.21,43.62,37.43,39.31,46.46,39.07,48.15,32.85,46.0,45.78,40.92,45.85,54.0,39.31,43.0,34.62,54.0,35.0,48.62,45.71,31.69,32.92,33.72,28.0,39.2,30.0,27.89,23.27,36.36,31.78,25.54,29.07,17.17,21.92,27.38,17.91,16.69,20.0,15.78,27.62,16.54,22.92,20.52,18.88,25.7,19.74,19.92,25.0,23.77,20.25,29.54,27.0,31.69,23.56,13.25,40.0,40.53
2017 February,44.83,38.75,49.0,45.5,39.92,37.0,45.17,42.45,55.2,35.63,39.67,31.84,38.83,28.13,40.56,48.18,46.67,55.5,37.22,34.92,60.0,40.28,43.17,37.58,43.75,45.83,39.0,47.58,36.5,46.0,46.0,37.92,45.92,54.5,40.0,42.88,33.0,52.33,36.38,50.5,45.51,35.67,33.67,33.68,28.0,39.5,30.92,26.42,24.78,40.19,33.05,24.17,29.83,19.5,21.83,27.0,18.99,17.4,20.0,15.95,27.83,16.6,23.33,22.58,19.05,24.39,19.17,23.21,24.58,24.25,20.0,29.83,27.0,32.83,23.57,12.93,46.75,41.55
2017 March,44.29,40.77,48.86,43.5,39.69,37.5,46.5,44.54,45.62,35.28,42.57,35.73,40.31,27.78,43.33,51.17,48.81,55.35,37.28,37.14,60.0,39.95,40.09,37.5,39.64,48.29,37.0,52.57,37.29,48.0,46.0,34.21,44.71,54.5,40.0,43.0,35.14,53.86,36.22,50.0,46.17,35.08,31.07,35.57,28.0,40.0,29.21,24.71,26.81,43.43,34.24,18.91,30.0,19.27,21.64,28.93,19.17,16.54,20.0,14.75,27.79,16.01,22.64,22.5,20.4,25.01,19.32,22.64,23.0,23.86,19.07,29.5,27.0,30.5,23.52,12.26,51.31,40.53
2017 April,43.91,40.0,46.73,42.2,39.75,38.0,49.82,46.7,47.42,35.23,39.0,33.59,37.31,27.5,43.42,51.27,50.0,55.39,41.24,38.55,58.75,39.86,42.64,37.5,40.5,50.0,43.0,52.82,38.09,45.0,48.0,34.5,45.75,55.25,42.0,45.13,38.0,52.0,36.25,50.0,45.5,35.33,31.27,35.18,28.0,40.0,27.42,25.5,28.96,43.09,34.24,18.83,30.0,16.71,23.5,31.06,21.01,18.09,20.0,17.07,27.68,16.75,23.09,23.64,19.72,26.38,20.47,21.67,23.08,24.08,19.9,30.0,27.0,30.0,23.8649,12.3,51.58,41.67
2017 May,44.14,40.0,44.07,40.5,39.37,38.0,48.69,49.39,41.21,35.38,40.0,32.63,38.0,27.33,43.5,54.0,50.0,55.0,42.55,36.43,60.0,40.25,42.71,37.5,40.0,50.43,43.0,51.64,35.36,44.0,47.5,32.06,46.21,53.0,44.62,38.56,29.36,52.69,37.0,49.23,44.83,34.0,30.77,34.71,28.0,40.0,26.0,23.86,27.74,42.57,21.47,34.31,30.0,14.4,21.36,28.29,21.58,18.0,20.0,17.26,27.79,16.93,23.7,22.08,21.39,25.64,18.77,20.57,23.0,24.0,19.14,30.0,27.0,32.93,23.8649,12.69,46.64,40.53
2017 June,45.31,33.53,43.0,36.25,33.46,38.0,48.69,46.71,45.82,36.26,29.46,35.51,39.0,26.33,42.85,56.4,50.0,55.0,42.6,35.38,60.0,41.55,43.59,37.5,40.0,51.85,43.0,50.62,35.62,44.46,48.0,32.22,44.62,53.0,46.0,38.78,31.85,54.33,37.0,50.17,41.25,35.0,30.82,35.12,28.0,40.0,25.85,22.62,28.67,41.64,34.65,23.33,29.91,14.68,21.23,29.62,22.98,17.39,20.0,16.98,27.62,15.92,23.91,22.0,21.57,24.32,18.85,21.23,23.0,23.83,19.62,30.0,27.0,42.69,23.8649,13.54,60.73,41.31
2017 July,40.93,27.0,43.0,34.4,29.54,37.4,48.62,40.81,41.85,34.75,25.46,34.67,36.69,27.0,38.62,58.83,43.17,56.09,40.27,35.0,60.0,42.55,41.86,37.5,40.0,54.77,38.0,47.69,32.15,45.85,46.0,39.94,45.69,53.0,48.0,40.63,34.15,55.23,36.5,50.0,40.0,35.25,31.54,34.35,28.0,40.0,27.92,22.0,27.59,39.85,34.92,24.62,30.0,15.0,21.92,28.0,22.52,17.0,20.0,17.42,25.73,16.0,23.17,20.31,20.72,22.83,19.31,20.85,23.0,22.23,19.29,30.0,27.0,34.23,23.8649,13.78,58.56,41.55
2017 August,47.2,23.95,43.0,31.17,26.77,37.0,46.08,40.08,40.0,34.28,23.0,33.62,29.5,27.0,34.23,58.0,41.69,58.0,36.95,34.62,58.46,41.85,37.49,39.87,40.03,54.69,47.8804,48.38,32.0,45.23,46.22,49.69,47.92,53.0,48.15,40.22,29.92,54.31,35.0,50.0,40.0,34.15,30.82,32.13,28.06,39.2,28.08,21.69,28.59,37.45,34.06,23.38,30.1,15.0,21.62,28.0,18.9,16.96,20.0,17.17,25.27,16.0,24.14,20.64,20.8,24.85,20.0,21.69,23.0,22.31,19.2,30.0,26.46,36.62,23.8649,13.8,53.05,40.53
2017 September,50.31,25.0,43.0,30.83,25.0,37.75,46.67,39.64,38.62,33.98,18.0,30.54,29.62,27.0,32.0,54.5,42.28,58.0,37.41,33.92,60.08,42.56,37.19,40.15,40.0,50.46,43.0,48.08,33.77,45.62,46.0,45.05,46.15,53.0,48.0,38.67,33.54,53.23,34.0,50.0,40.0,34.62,30.62,32.31,28.15,38.5,28.0,21.77,29.48,39.21,35.51,23.08,30.0,15.0,20.92,28.0,18.98,16.11,20.0,15.58,25.54,16.62,23.58,22.36,19.42,24.61,19.77,20.0,23.85,24.69,19.2,30.0,26.31,31.0249,23.8649,13.8,46.5969,40.74
2017 October,50.43,21.0,37.0,28.33,24.69,38.2,47.38,38.1,36.38,33.89,18.0,25.42,28.15,27.0,29.31,57.08,42.62,57.77,37.43,34.54,58.0,42.05,39.46,42.5,40.0,51.08,38.0,47.69,31.69,44.0,45.5,38.0,48.0,53.0,47.77,39.33,38.0,48.31,34.89,50.0,39.62,27.77,28.91,31.15,27.91,39.0,28.0,22.0,28.35,40.64,35.28,21.0,29.91,15.0,22.31,27.23,21.0,16.87,19.87,14.08,25.27,15.77,22.5,21.73,20.97,23.93,20.54,20.0,23.85,23.88,19.11,30.92,26.0,31.0249,23.8649,13.07,52.32,40.64
2017 November,41.0,20.4,37.42,25.0,24.23,38.0,46.46,36.23,43.46,33.99,18.0,26.41,28.77,27.0,28.0,55.5,46.0,58.0,42.57,34.54,59.92,42.32,40.58,42.46,39.69,56.0,43.0,48.15,32.15,44.85,46.0,47.23,44.38,48.33,42.31,40.88,38.0,50.77,35.22,50.0,38.0,27.85,27.83,31.19,27.2,39.0,27.62,22.15,28.62,34.69,33.65,21.67,30.9742,15.0,23.31,30.9489,20.52,17.48,20.0,12.51,25.92,15.62,23.5,20.92,21.43,24.44,21.08,20.0,23.85,23.46,19.08,31.75,26.0,38.77,23.8649,13.22,52.14,40.53
2017 December,46.17,24.0,39.67,26.25,24.64,38.0,47.25,39.77,41.54,34.01,18.0,23.19,28.08,27.0,32.69,55.58,48.77,58.14,47.69,36.08,60.0,44.03,42.5,38.84,40.0,47.0,46.0,47.46,32.38,45.0,46.5,46.5,47.46,40.89,45.31,41.0,38.0,44.92,36.5,49.77,38.93,28.23,30.75,31.63,27.2,39.75,27.0,22.0,29.67,30.63,36.13,23.23,30.0,15.0,20.69,28.0,20.45,17.36,19.66,13.85,25.92,15.92,23.3,20.18,21.32,25.29,20.0,20.0,22.54,23.85,19.11,30.0,26.77,34.15,23.8649,13.75,56.64,41.55
2018 January,44.82,22.5,42.08,40.0,23.31,38.0,47.62,39.09,37.36,33.89,23.0,23.04,27.75,27.0,33.86,58.75,47.71,54.35,47.0,37.08,60.0,43.02,42.55,42.5,40.07,46.07,46.0,52.1,32.38,46.0,46.22,46.31,48.15,49.13,50.0,42.22,33.64,51.54,35.22,48.14,41.25,28.31,32.38,31.76,27.2,40.0,31.71,23.0,30.21,30.92,32.58,20.26,30.0,18.46,20.79,29.85,19.95,17.92,20.01,13.48,25.77,18.31,23.91,21.0,19.86,25.38,20.0,20.0,22.93,22.21,18.28,30.0,27.16,37.86,23.8649,13.59,55.25,41.55
2018 February,44.58,24.4,40.0,36.0,24.5,38.0,46.25,42.3,45.67,34.4,24.31,23.5,27.25,27.0,33.42,59.33,42.0,56.27,43.36,37.82,58.42,42.56,43.0,44.38,39.67,48.0,50.0,47.67,41.83,47.67,46.25,45.0,53.5,40.86,47.25,44.0,33.0,53.83,35.63,48.36,41.91,32.0,32.33,30.18,27.2,40.0,33.0,27.09,28.33,30.73,31.33,18.95,30.0,20.0,20.17,32.0,19.1,19.9893,27.25,13.65,25.88,19.42,23.55,21.18,18.7,25.28,20.08,20.0,24.33,23.42,18.83,30.73,26.82,31.0249,23.8649,13.6,58.03,34.3555
2018 March,51.69,23.5,40.0,40.0,25.33,37.25,46.33,43.18,45.85,32.1,22.0,28.76,28.07,27.0,34.92,55.67,44.0,58.55,43.85,37.33,60.0,43.06,42.94,44.42,40.0,49.83,48.0,45.83,41.17,48.0,47.0,40.15,52.31,40.71,49.38,44.67,33.92,53.32,35.11,50.15,42.66,31.69,32.33,33.09,27.2,40.0,33.0,27.15,31.77,32.67,30.25,19.8,30.0,20.0,20.0,28.92,19.27,17.75,25.77,14.8,25.83,19.43,24.43,22.08,21.11,24.54,20.0,20.0,25.0,24.17,19.17,31.75,22.54,34.5,23.8649,13.3,55.42,40.85
2018 April,50.38,20.83,40.0,38.5,26.46,37.0,47.15,40.0,43.23,33.94,22.0,27.5,28.0,27.0,32.85,59.83,46.46,57.95,39.92,37.38,60.0,45.6649,42.59,45.0,40.0,48.0,50.0,51.36,39.77,48.0,46.88,43.92,52.92,46.0,49.15,45.0,38.0,53.63,36.0,49.5,43.17,31.92,32.0,32.64,27.2,40.0,28.0,29.77,37.08,33.42,34.08,18.33,30.0,25.0,20.0,31.46,19.0,18.0,29.62,15.32,25.23,20.62,21.68,22.54,21.06,24.91,20.0,20.65,25.0,24.85,21.6,33.2,22.95,36.15,23.8649,13.2,55.78,41.67
2018 May,52.15,21.0,40.0,40.0,27.0,37.0,48.5,37.55,46.0,34.13,22.0,31.12,26.07,27.0,33.08,57.83,48.46,54.76,40.0,36.77,60.0,42.53,42.84,44.94,39.62,50.31,51.0,48.67,37.46,45.0,46.5,47.77,52.0,52.11,50.0,45.0,39.69,53.69,35.0,50.0,43.77,32.23,30.25,32.25,27.1,40.0,30.15,31.85,34.77,43.85,36.46,19.14,30.0,25.0,21.15,32.33,17.45,18.0,28.08,16.25,25.81,20.08,23.77,22.15,22.48,28.6504,20.0,20.31,23.77,25.0,20.69,32.77,24.54,38.0,23.8649,13.73,55.47,40.85
2018 June,44.0,20.5,40.0,35.2,25.38,37.2,48.0,31.77,45.23,34.4,22.0,30.88,26.67,27.0,31.08,56.17,50.0,52.73,38.45,36.92,60.0,42.09,40.93,45.0,38.23,47.08,48.0,54.38,39.3666,44.38,46.57,46.31,52.62,56.17,50.0,42.22,38.15,51.85,34.0,50.0,41.58,35.08,28.27,31.86,25.55,40.0,32.0,30.77,33.64,46.14,31.67,19.29,30.0,25.0,20.08,33.74,16.88,18.0,26.54,16.66,26.0,20.2,23.47,22.0,22.94,28.6504,20.0,20.92,24.15,25.0,20.09,31.85,20.54,38.15,23.8649,14.34,56.5,34.3555
2018 July,46.33,20.0,40.0,32.0,24.85,34.25,44.69,34.62,44.46,34.19,20.0,28.42,27.46,27.0,30.62,56.36,49.92,53.32,40.88,36.38,60.0,42.24,42.31,45.0,40.0,43.31,48.0,51.31,35.58,47.5473,47.5,42.03,52.31,44.63,50.0,42.22,40.607,51.69,34.25,48.15,40.77,34.51,29.12,35.89,24.93,40.0,32.0,32.38,33.44,46.15,32.733,21.08,29.92,25.0,20.0,33.0,16.93,18.0,22.3975,15.6,26.04,19.74,24.26,24.08,20.58,28.6504,19.92,20.31,24.08,25.0,19.91,35.0,19.95,38.62,23.8649,13.52,56.56,41.67
2018 August,48.63,22.8,38.64,33.5,24.57,33.0,45.36,38.92,45.43,33.53,20.0,29.26,33.46,27.0,30.64,56.42,59.91,55.91,48.55,36.21,60.0,42.0,41.71,46.25,40.0,39.71,49.0,47.08,36.54,42.71,47.0,40.62,48.71,44.0,50.0,46.0228,37.71,52.46,34.67,49.85,42.43,32.14,30.69,31.94,25.0,37.5,32.0,29.29,31.81,48.57,38.15,21.14,30.0,22.5,20.43,33.0,16.42,18.0,22.3975,15.9,26.36,19.79,23.29,25.7836,21.01,24.34,20.0,20.86,24.29,25.4,19.94,35.0,20.0,39.0,23.8649,13.79,55.6,34.3555
2018 September,50.0,24.44,35.0,37.8,26.21,33.0,48.92,41.2,45.67,35.83,20.0,28.4,36.69,27.0,33.17,54.0,62.42,54.53,42.17,37.18,60.0,42.92,42.42,45.86,38.58,38.5,52.0,46.23,40.5,42.27,46.0,40.0,47.0,45.38,50.0,47.25,38.0,52.5,35.5,49.83,45.9002,32.36,32.58,33.84,25.0,40.0,32.0,33.42,31.67,48.91,32.08,19.83,30.0,22.5,20.0,35.25,17.65,18.0,25.0,16.4,25.48,19.37,24.0,20.5,20.3,24.72,20.0,20.0,24.25,24.0,20.0,35.0,20.0,39.0,23.8649,13.8,55.54,41.67
2018 October,46.36,37.5,35.0,38.0,28.99,36.5,47.43,42.09,39.86,35.52,24.36,27.25,35.58,27.0,32.79,54.0,44.36,49.4749,48.25,37.14,60.0,41.9,42.15,46.11,40.0,36.71,47.57,49.0,38.15,42.77,46.0,39.0,45.64,42.0,50.0,48.56,37.93,51.55,36.0,50.0,44.45,27.77,34.31,32.32,25.0,40.0,32.0,33.29,31.33,48.29,36.86,20.75,30.19,22.12,20.86,37.0,20.78,17.14,25.0,16.8,25.96,19.79,24.29,22.86,20.84,28.6504,19.8,20.0,24.07,27.07,20.0,35.0,20.0,39.29,23.8649,13.66,58.67,40.74
2018 November,47.29,40.0,35.46,40.0,35.85,39.75,47.62,42.41,46.77,35.5,27.0,33.32,37.58,40.0,34.23,54.0,42.85,54.55,43.43,36.46,60.0,41.67,42.92,45.63,39.62,39.85,47.64,57.69,43.5,41.87,45.5,37.85,44.31,38.5,50.0,48.67,39.23,49.69,36.22,50.0,45.67,30.0,34.09,35.96,25.09,40.0,28.31,33.0,28.08,47.23,37.23,19.88,30.0,21.67,20.0,34.0,21.91,18.0,25.0,16.8,26.0,20.0,23.35,24.0,20.0,22.97,20.0,20.0,23.54,24.54,19.75,35.0,18.92,36.0,23.8649,14.18,58.17,40.74
2018 December,47.75,39.62,38.31,43.6,38.64,42.61,45.82,44.52,46.62,34.08,27.0,37.81,39.54,45.0,32.92,54.0,41.23,54.05,39.87,37.62,60.0,42.18,42.83,45.63,39.08,40.0,52.0,51.88,43.75,42.33,46.0,35.77,46.23,43.25,50.0,46.0,36.46,50.69,36.75,50.0,45.83,30.0,33.6,34.22,24.93,40.0,32.0,33.08,29.88,55.54,37.23,19.75,30.0,21.67,20.62,31.85,22.59,18.0,25.0,16.8,25.92,20.0,24.3,21.31,21.62,25.37,20.0,20.0,24.62,24.23,21.62,34.85,20.0,36.0,23.8649,14.3,58.36,34.3555
2019 January,48.31,43.33,43.15,46.5,47.25,44.67,47.85,52.0,45.08,40.58,33.15,41.3,50.38,50.0,37.0,54.0,45.71,54.05,40.2,39.15,60.08,42.05,42.46,45.71,40.0,40.0,34.67,50.26,46.54,43.15,47.71,40.38,45.31,48.89,50.0,46.22,37.69,50.0,36.0,50.0,45.15,30.0,33.5,38.11,25.0,40.0,32.15,33.0,29.44,53.69,32.733,19.78,29.87,22.11,20.08,32.85,22.02,18.0,25.0,17.42,26.12,19.54,25.5,25.7836,21.29,28.6504,20.0,20.38,24.46,24.92,23.0,32.23,22.46,32.46,23.8649,13.34,55.86,41.17
2019 February,48.42,47.25,55.42,49.5,46.52,48.82,49.5,50.75,48.0,47.92,37.0,40.0,47.92,50.0,40.67,54.0,46.25,50.42,37.03,39.17,60.0,43.4,42.0,45.86,40.0,40.0,36.0,50.0,45.17,42.75,47.5,50.0,45.0,49.75,50.0,46.0,41.17,50.0,36.25,50.0,45.0,30.0,34.75,36.31,25.0,40.0,28.38,33.17,27.5,55.0,22.58,19.87,30.0,22.5,20.0,32.0,21.69,18.0,25.0,18.0,26.0,22.25,24.09,26.25,21.37,28.58,22.67,25.0,24.42,25.0,22.67,34.0,22.0,38.0,23.8649,13.41,55.53,42.26
2019 March,55.23,46.5,61.08,49.0,48.0,48.4,46.46,48.64,54.0,49.85,38.54,30.8395,46.15,50.0,41.77,54.0,46.61,49.94,43.72,40.69,46.69,45.81,42.69,45.52,45.46,40.0,37.38,55.9,44.62,43.08,47.75,54.31,51.69,45.56,50.0,45.44,41.85,50.0,37.0,50.0,45.0,30.0,35.23,37.38,25.0,40.0,29.85,32.54,27.67,54.17,22.67,21.92,31.41,22.5,21.31,32.0,22.93,18.0,24.62,18.11,26.88,22.23,27.39,29.23,21.72,31.22,26.46,29.05,26.92,29.85,22.92,34.38,21.46,38.0,23.8649,14.22,55.49,41.15
2019 April,50.23,50.0,59.62,49.5,47.45,50.0,47.08,50.33,54.92,49.57,37.0,44.81,50.17,48.0,42.92,54.0,51.85,51.79,42.47,43.5,47.0,46.63,43.54,45.56,43.15,40.0,38.0,56.33,47.31,42.69,48.13,58.56,52.77,46.0,50.0,46.0,45.08,50.0,38.27,50.0,47.62,30.0,37.33,40.34,24.76,40.0,28.15,33.38,29.32,54.0,28.54,23.69,32.03,28.08,23.85,34.38,24.69,23.96,20.0,19.73,28.0,25.0,28.12,32.85,23.06,32.47,28.17,31.31,29.0,33.0,23.0,35.92,22.77,38.0,23.8649,14.75,54.92,41.46
2019 May,57.93,46.36,58.69,43.0,49.35,50.0,47.71,51.17,53.14,50.85,37.0,44.74,47.15,40.44,39.86,58.49,54.29,47.26,46.02,43.36,47.0,48.0,44.15,46.74,47.5,40.0,38.0,52.14,48.0,44.62,47.25,59.88,51.71,47.0,50.0,47.89,46.86,50.0,43.0,48.92,46.31,30.0,38.0,37.71,23.4,41.67,31.43,35.0,31.5,54.0,32.36,23.31,30.0,29.13,24.14,38.64,24.61,29.62,20.0,19.88,29.79,24.62,27.22,37.36,25.71,33.18,28.0,31.38,30.0,32.75,24.0,36.0,23.5,38.0,23.8649,15.31,59.23,42.45
2019 June,56.08,40.0,51.0,38.0,42.46,50.0,48.0,51.2,56.33,50.83,37.0,47.17,46.69,40.0,39.25,58.27,57.0,49.1,37.67,41.0,48.77,47.77,44.64,48.13,42.92,42.5,44.0,48.75,48.08,47.46,47.38,55.0,55.0,48.0,50.0,52.0,47.17,50.0,43.25,50.17,43.0,29.33,38.0,37.84,24.15,41.67,31.83,34.83,34.0,55.0,35.25,22.64,30.34,27.5,24.42,38.33,24.11,29.28,20.88,20.0,30.04,24.83,27.67,38.65,24.83,31.84,33.33,29.41,30.0,32.97,25.0,35.42,24.0,37.7,23.8649,13.65,56.73,43.75
2019 July,56.5,41.2,49.0,41.25,44.51,50.0,47.43,51.76,52.86,50.52,37.0,48.75,43.85,40.0,38.64,57.81,52.57,46.57,42.31,39.14,47.92,48.86,45.0,49.58,44.64,41.14,52.0,46.5,47.71,47.46,49.25,54.49,60.0,48.0,49.57,51.67,37.0,51.85,37.13,50.69,46.23,28.86,38.0,38.32,25.49,40.0,28.57,36.71,29.3,55.57,29.5,25.5694,29.84,27.5,23.07,41.64,24.29,29.67,20.46,20.0,31.59,25.38,27.54,39.5,24.5,33.36,31.77,31.67,29.57,32.86,23.64,36.0,24.36,34.0,23.8649,13.76,56.69,43.86
2019 August,55.54,39.75,48.92,42.25,41.62,50.0,47.85,51.55,50.62,50.69,37.0,45.77,45.73,38.11,40.0,56.8,49.23,45.95,43.54,40.0,48.0,49.77,44.54,50.0,50.31,41.38,52.2,53.33,46.85,47.77,49.13,62.71,57.23,56.25,50.0,50.89,43.54,58.23,37.22,51.23,48.14,30.0,38.0,37.06,25.4,40.0,28.0,35.23,31.84,55.0,28.0,22.62,30.0,27.5,20.54,44.15,23.53,30.0,19.51,20.0,31.92,24.31,28.16,38.23,23.0,28.6504,36.15,30.91,28.62,34.38,23.38,36.0,25.0,35.15,23.8649,13.43,56.5,42.45
2019 September,55.85,38.67,51.0,45.25,40.54,50.0,48.54,48.24,52.15,50.5,34.31,44.46,45.25,35.0,40.0,56.85,44.0,46.0,48.25,39.0,48.0,48.44,44.17,50.0,51.23,40.0,53.0,53.89,42.69,48.38,48.88,62.35,53.85,54.75,50.0,50.25,42.15,58.0,37.0,50.85,48.75,30.0,38.31,33.51,25.4,40.0,28.0,33.0,30.15,59.23,27.85,25.5694,29.6,27.5,20.0,40.68,24.0,30.0,20.91,20.0,27.8956,24.92,28.88,35.77,23.85,28.6504,33.5,31.17,29.85,35.0,22.77,38.22,24.08,33.62,23.8649,12.66,55.78,43.64
2019 October,55.69,33.6,50.15,45.0,39.33,49.0,47.54,48.95,52.0,50.56,32.0,39.85,47.0,33.0,39.58,59.15,47.54,46.19,48.77,40.77,48.0,52.88,44.0,50.0,50.46,40.0,65.0,51.67,44.92,48.15,48.88,59.34,55.46,60.56,50.0,49.0,40.38,51.85,36.6,49.31,47.0,30.0,40.0,36.0,25.4,40.0,32.0,33.0,30.67,59.84,28.08,25.5694,30.64,27.55,20.46,45.46,24.72,30.0,22.26,20.0,30.88,25.17,29.04,33.69,23.54,33.14,32.46,32.15,30.0,36.23,23.0,41.69,22.62,36.0,23.8649,12.11,55.08,43.75
2019 November,55.77,27.5,48.69,47.0,38.23,46.0,47.0,46.36,48.62,49.44,32.0,38.31,40.69,30.0,39.92,58.0,47.08,42.58,55.15,36.33,48.0,56.34,46.77,49.78,49.23,40.0,52.0,54.36,46.77,48.15,49.0,57.93,54.62,51.55,50.46,49.88,37.85,52.77,36.25,51.46,45.0,31.38,40.0,35.0,25.4,40.0,32.0,33.0,30.88,59.85,27.92,25.5694,30.42,27.93,20.0,44.15,24.88,30.0,21.8,20.0,29.96,28.83,28.65,34.54,22.92,33.83,35.83,32.08,30.0,39.91,25.69,41.83,23.31,38.0,23.8649,12.8,54.94,42.96
2019 December,56.0,30.0,46.77,44.5,37.67,46.0,52.16,52.76,46.92,49.44,32.0,36.13,42.0,28.67,41.76,57.7,48.0,41.02,54.77,38.75,48.0,50.79,44.69,50.0,48.31,40.0,53.0,53.08,45.15,47.08,49.14,59.91,54.92,53.07,53.38,50.0,48.92,54.0,36.78,51.31,44.43,33.0,40.0,35.0,25.42,40.0,32.0,32.62,32.67,58.3,29.54,24.08,30.45,27.36,22.92,43.75,24.38,30.0,24.11,20.0,29.47,29.58,27.72,34.91,24.62,34.6,33.08,30.08,30.0,41.18,26.54,42.67,23.0,38.92,23.8649,12.8,54.82,44.32
2020 January,56.21,28.0,51.57,47.0,39.54,49.0,46.15,44.67,47.94,49.32,32.0,33.04,39.46,27.11,40.57,58.0,53.54,39.9,53.79,39.5,48.0,52.59,51.31,50.0,58.0,40.0,46.0,53.08,46.0,47.62,49.0,59.51,52.43,56.22,55.0,51.22,41.57,59.85,45.44,53.62,45.66,33.0,40.15,35.0,25.27,40.0,28.71,33.0,32.88,59.83,30.36,24.26,31.79,27.0,25.0,42.69,24.41,30.0,20.0,18.86,28.5,29.57,27.7,35.0,25.07,33.97,33.67,29.64,30.0,38.85,27.86,42.42,23.0,38.0,23.8649,13.24,56.4,44.2
2020 February,57.33,30.0,54.17,47.25,40.33,44.25,46.0,48.2,52.14,50.0,32.0,35.88,37.38,26.0,40.92,57.18,48.33,39.44,54.52,49.08,48.0,54.42,52.41,58.13,60.83,52.0,56.0,58.33,45.92,47.17,51.14,61.67,56.17,61.0,55.0,53.5,50.0,66.17,53.25,52.64,48.75,33.0,41.0,34.0,25.4,40.0,29.17,32.75,33.09,60.0,28.64,27.5,30.9742,24.5,24.25,43.0,24.17,30.0,20.0,19.38,30.32,29.42,27.61,35.0,24.92,32.84,30.67,29.83,30.0,33.36,28.0,42.58,22.83,38.0,23.8649,13.78,55.19,44.09
2020 March,68.62,24.09,51.56,45.75,40.81,50.0,61.8,52.47,65.64,52.96,33.85,34.4,37.38,26.5,41.0,62.15,68.0,44.75,56.27,54.7,49.08,53.05,52.11,52.29,70.25,62.5,62.62,70.66,49.0,47.15,57.0,66.33,59.54,72.11,57.77,56.67,53.54,60.46,64.89,51.77,55.18,33.0,43.36,43.1,28.22,40.0,42.92,36.46,35.67,65.74,31.38,25.24,37.0,22.0,27.62,44.85,25.44,30.0,28.08,23.48,35.35,35.23,32.04,37.38,24.77,40.97,34.23,36.63,30.0,35.09,29.08,44.67,24.23,39.54,23.8649,14.3,62.21,44.74
2020 April,79.54,44.55,70.48,51.0,41.8,50.0,64.5,67.27,69.15,52.92,41.69,40.64,36.31,25.0,42.31,84.31,59.85,55.0,63.33,51.82,58.0,60.76,65.34,64.67,80.0,62.77,70.0,87.22,49.3,61.38,58.83,71.15,57.0,97.78,91.43,62.57,65.69,66.0,61.67,52.38,60.0,50.0,53.46,45.86,37.25,40.0,60.0,46.08,37.6,70.36,64.57,25.92,44.5,22.0,27.75,45.25,28.09,30.0,39.08,32.67,42.21,34.0,33.0,40.62,28.46,53.2,40.0,39.31,30.0,36.91,28.0,49.44,24.5,42.69,23.8649,14.72,69.62,44.43
2020 May,86.85,27.5,59.35,49.0,40.77,42.5,62.08,61.73,59.78,53.85,44.0,39.81,37.92,26.0,42.38,92.18,54.77,54.64,66.23,46.46,57.85,66.32,62.24,64.71,78.95,64.0,72.0,65.13,49.31,61.23,61.5,64.67,56.5,81.0,83.85,62.0,58.92,66.0,50.0,52.69,60.48,34.31,51.81,58.17,37.0,40.0,60.0,47.85,41.33,62.88,35.23,26.92,42.5,22.0,27.31,43.23,27.65,30.0,37.92,29.77,37.81,36.64,32.91,40.33,29.92,50.26,38.62,40.0,30.0,37.0,29.0,49.11,24.92,43.15,23.8649,15.77,69.73,43.67
2020 June,82.62,27.08,49.15,47.25,35.67,40.0,54.54,52.86,50.32,54.52,37.54,38.81,37.69,28.0,40.15,85.18,56.31,54.64,54.22,46.46,56.46,63.59,59.85,63.13,78.36,70.46,66.0,69.11,49.85,57.46,62.33,66.94,56.0,75.57,71.23,63.0,52.31,66.0,46.33,52.46,58.88,33.0,50.73,58.67,36.0,40.0,58.77,54.77,47.38,66.31,37.58,26.92,40.93,22.0,27.15,44.62,29.73,30.0,33.31,26.85,36.19,31.23,32.31,40.0,29.15,46.34,34.0,39.0,25.3212,36.85,28.0,45.08,27.0,42.38,23.8649,13.55,69.95,46.75
2020 July,66.79,26.25,48.79,46.5,31.23,43.0,50.0,50.42,52.62,51.54,36.29,41.26,41.0,28.75,42.07,78.17,53.43,54.42,60.51,47.07,53.69,61.95,60.83,63.13,76.86,71.57,68.0,68.3,49.0,57.46,56.0,62.5,56.5,64.0,80.0,57.78,50.0,62.31,45.0,52.54,57.78,33.0,48.54,59.88,35.56,40.0,56.0,54.0,47.54,66.86,46.64,26.92,38.98,20.91,27.29,46.71,29.65,30.0,29.64,29.14,35.68,34.5,33.89,40.0,29.21,41.85,35.69,36.14,30.0,35.79,30.86,45.58,26.14,37.79,23.8649,13.56,67.39,45.85
2020 August,63.23,28.18,49.0,47.75,37.15,40.0,48.0,52.0,58.62,55.32,42.0,39.59,41.15,35.0,40.85,76.88,61.31,52.4,61.75,44.54,48.0,64.8,61.17,63.13,68.46,72.0,68.0,73.77,50.08,66.33,56.0,56.09,56.0,59.67,77.23,54.0,56.0,64.83,43.0,52.5,59.5,33.0,43.82,56.84,31.88,40.0,50.0,54.0,47.33,66.41,45.0,26.54,36.92,23.52,27.46,62.62,28.11,30.0,30.0,29.69,35.5,34.83,28.65,40.0,29.0,38.94,34.83,30.77,30.0,34.38,32.0,45.7,23.0,39.77,23.8649,14.63,66.94,47.08
2020 September,55.69,29.38,46.0,46.2,37.0,39.0,48.0,53.23,52.38,56.22,42.0,41.12,42.0,30.89,41.15,77.7,64.77,54.29,53.78,41.15,51.18,65.03,60.83,63.13,64.77,72.46,68.0,60.91,50.0,66.38,54.29,58.65,56.22,53.73,78.77,56.0,43.38,62.15,47.11,52.67,59.38,33.0,43.31,58.44,32.0,40.0,50.0,50.31,66.17,65.41,33.67,26.92,38.86,23.85,26.69,63.08,29.03,29.32,30.0,26.46,35.42,33.46,29.72,38.15,29.15,41.2,36.0,35.15,30.0,37.46,32.62,44.69,23.64,42.85,23.8649,17.51,67.06,47.08
2020 October,54.62,27.0,45.23,43.75,39.15,38.0,48.06,51.82,49.85,56.08,42.0,39.35,34.82,26.22,40.0,57.92,57.62,57.08,58.71,39.69,46.22,65.18,60.0,65.63,64.0,67.85,66.0,57.69,50.0,77.15,53.5,73.21,51.27,56.0,70.0,55.44,43.23,56.77,35.56,52.85,57.83,33.0,44.31,56.4,30.09,40.0,48.0,53.69,50.0,66.04,35.29,26.08,37.69,21.6,27.15,65.54,28.61,29.73,24.77,25.0,35.5,32.69,29.16,37.46,30.0,37.22,36.0,33.31,30.0,36.85,32.0,45.7,24.0,50.31,23.8649,17.09,67.08,46.23
2020 November,58.54,26.5,50.38,43.0,33.23,38.0,54.18,51.81,45.85,55.68,37.0,37.48,24.75,22.88,40.15,63.7,55.54,55.5,57.27,39.31,43.23,64.97,60.67,65.63,62.92,61.85,68.0,73.83,48.46,77.17,54.33,64.77,49.64,65.0,70.0,61.13,52.77,49.08,36.0,52.5,51.25,73.0,42.0,53.2,27.6,40.0,48.0,57.38,38.75,64.59,40.0,25.31,31.09,20.14,26.38,62.62,28.97,29.69,20.92,25.0,33.54,30.0,23.6,39.17,30.0,37.23,33.67,30.15,30.0,34.31,32.0,43.42,24.0,64.46,23.8649,16.46,66.81,47.25
2020 December,55.38,24.2,48.15,46.4,32.46,40.0,68.29,52.82,49.69,57.19,38.08,36.79,32.86,23.0,42.69,71.9,56.92,57.0,58.37,39.55,49.08,63.9,60.0,65.63,59.69,62.46,68.0,69.17,45.0,77.31,52.33,51.97,48.55,108.0,70.0,61.0,47.69,46.0,36.4,52.38,49.2,73.0,42.18,52.75,27.72,40.0,62.15,59.54,37.59,62.32,29.92,27.92,33.53,21.74,25.46,57.17,25.09,30.0,21.92,23.57,32.77,28.0,30.33,38.55,28.46,28.6504,39.0,31.0,25.3212,31.17,32.38,43.31,25.0,45.69,23.8649,17.23,66.98,47.73
2021 January,65.23,27.06,56.23,42.0,33.0,50.0,52.58,54.19,52.78,57.0,38.0,36.12,33.83,22.0,44.23,83.33,56.67,49.26,61.85,38.42,49.23,62.76,60.0,62.99,57.54,60.0,68.0,79.22,46.77,76.17,52.67,53.95,57.33,86.0,76.15,56.11,44.46,47.69,36.75,52.15,51.0,73.0,36.25,44.56,27.0,40.0,60.46,59.85,41.04,61.67,32.82,26.92,31.42,24.06,25.6,54.33,23.01,30.0,25.0,22.33,32.04,27.25,25.5,40.58,27.54,35.45,36.5,32.85,36.23,36.15,32.0,42.06,25.54,50.85,23.8649,15.4,67.5,34.3555
