,Bataan,Cavite,Laguna,Quezon,Marinduque,OccidentalMindoro,OrientalMindoro,Romblon,Masbate,Aklan,Leyte,ZamboangadelSur,DavaodelNorte,Basilan
1990 January,27.93,59.1131,15.14,51.4735,48.3519,14.32,54.6789,38.8064,26.0,39.3077,64.729,41.8616,25.6119,54.7812
1990 February,21.0,21.24,10.72,51.4735,48.3519,37.36,54.6789,15.68,41.8894,39.3077,64.729,17.64,16.24,54.7812
1990 March,14.52,16.24,24.48,24.08,48.3519,10.32,15.84,14.0,41.8894,5.44,64.729,12.04,25.6119,54.7812
1990 April,11.96,12.76,31.0,20.0,20.0,37.36,20.76,14.0,41.8894,39.3077,64.729,6.72,25.6119,17.2
1990 May,68.2373,59.1131,48.8265,51.4735,48.3519,37.36,54.6789,38.8064,41.8894,39.3077,64.729,41.8616,25.6119,54.7812
1990 June,11.0,12.96,9.15,17.52,12.88,37.36,13.2,14.0,41.8894,7.52,64.729,41.8616,25.6119,16.96
1990 July,68.2373,59.1131,7.72,18.96,11.76,14.0,13.28,38.8064,41.8894,8.08,64.729,41.8616,25.6119,54.7812
1990 August,68.2373,59.1131,10.47,18.8,10.68,37.36,15.56,14.56,41.8894,8.84,64.729,41.8616,25.6119,54.7812
1990 September,68.2373,59.1131,48.8265,51.4735,48.3519,37.36,54.6789,38.8064,41.8894,39.3077,64.729,41.8616,25.6119,54.7812
1990 October,68.2373,59.1131,48.8265,51.4735,48.3519,37.36,54.6789,38.8064,41.8894,39.3077,64.729,41.8616,25.6119,54.7812
1990 November,68.2373,59.1131,48.8265,51.4735,48.3519,37.36,54.6789,38.8064,41.8894,39.3077,64.729,41.8616,19.0,54.7812
1990 December,68.2373,59.1131,48.8265,51.4735,48.3519,37.36,54.6789,38.8064,41.8894,39.3077,64.729,41.8616,10.56,29.36
1991 January,35.85,30.75,48.8265,55.0,48.3519,37.36,54.6789,38.8064,41.8894,22.25,64.729,41.8616,12.5,36.8
1991 February,36.35,24.1,64.15,34.8,48.3519,81.65,32.9,25.0,41.8894,21.95,64.729,41.8616,16.65,38.0
1991 March,33.25,27.05,48.8265,35.65,32.85,28.65,29.4,23.65,41.8894,21.4,32.0,27.35,13.9,33.65
1991 April,32.3,30.35,48.8265,28.05,29.05,18.75,21.0,21.55,24.0,19.9,28.0,23.15,13.75,36.4
1991 May,30.7,27.65,31.2,20.45,27.0,16.7,24.3,14.7,22.7,20.1,27.15,23.35,14.6,34.2
1991 June,26.5,21.4,23.3,24.4,20.65,21.15,23.1,15.4,21.35,20.75,26.55,14.45,12.1,21.2
1991 July,32.1,21.6,48.8265,36.0,24.0,33.35,31.25,16.95,30.0,20.85,64.729,41.8616,12.25,32.25
1991 August,37.65,59.1131,48.8265,39.5,30.3,37.36,54.6789,18.3,32.0,22.4,64.729,41.8616,16.15,41.5
1991 September,68.2373,59.1131,48.8265,51.4735,32.5,37.36,54.6789,20.0,41.0,39.3077,64.729,41.8616,18.1,41.6
1991 October,68.2373,59.1131,48.8265,51.4735,48.3519,37.36,54.6789,38.8064,40.0,39.3077,64.729,41.8616,20.0,39.6
1991 November,68.2373,59.1131,48.8265,51.4735,48.3519,37.36,54.6789,38.8064,41.8894,39.3077,64.729,41.8616,19.7,48.3
1991 December,68.75,59.1131,48.8265,51.4735,48.3519,37.36,54.6789,38.8064,41.8894,24.15,64.729,41.8616,19.4,33.95
1992 January,48.95,31.75,48.8265,42.15,48.3519,18.6,29.7,25.65,33.95,17.4,64.729,41.8616,25.6119,54.7812
1992 February,34.15,25.5,66.65,37.1,48.3519,15.95,31.0,25.45,41.8894,16.45,64.729,26.1,12.15,41.2
1992 March,34.55,26.75,54.4,51.4735,31.65,15.9,28.15,20.65,27.35,17.5,64.729,41.8616,25.6119,34.9
1992 April,38.75,25.1,47.5,51.4735,29.05,15.3,20.55,16.85,25.45,39.3077,29.15,20.9,25.6119,30.1
1992 May,32.1,22.35,31.25,51.4735,25.05,16.45,16.3,11.95,23.85,18.8,29.35,9.35,25.6119,22.0
1992 June,30.75,29.65,36.4,25.1,18.0,16.4,16.65,17.0,22.7,18.7,29.0,41.8616,25.6119,22.6
1992 July,38.2,35.85,48.8,26.45,35.6,37.36,54.6789,38.8064,24.7,19.65,29.0,41.8616,15.0,31.8
1992 August,68.2373,59.1131,58.35,24.55,23.4,25.0,54.6789,22.35,25.0,14.2,64.729,41.8616,25.6119,39.6
1992 September,68.2373,59.1131,48.8265,51.4735,48.3519,37.36,54.6789,38.8064,41.8894,39.3077,64.729,41.8616,25.6119,54.7812
1992 October,68.2373,59.1131,48.8265,51.4735,48.3519,37.36,54.6789,38.8064,41.8894,39.3077,64.729,41.8616,25.6119,54.7812
1992 November,68.2373,59.1131,48.8265,51.4735,48.3519,37.36,54.6789,38.8064,41.8894,39.3077,64.729,41.8616,25.6119,54.7812
1992 December,68.2373,33.75,48.8265,51.4735,48.3519,37.36,54.6789,38.8064,41.8894,39.3077,64.729,41.8616,25.6119,54.7812
1993 January,68.2373,59.1131,48.8265,51.4735,48.3519,40.0,54.6789,38.8064,41.8894,31.67,64.729,41.8616,25.6119,43.13
1993 February,68.2373,37.08,58.75,51.4735,48.3519,32.74,34.71,38.8064,41.8894,31.67,64.729,41.8616,25.6119,42.54
1993 March,68.2373,27.06,63.81,51.4735,25.6,24.57,30.5,22.25,41.8894,21.81,64.729,41.8616,25.6119,33.82
1993 April,68.2373,59.1131,48.8265,51.4735,48.3519,37.36,18.98,19.05,23.85,13.6,64.729,41.8616,25.6119,35.75
1993 May,68.2373,18.85,48.75,22.76,19.94,16.65,54.6789,12.79,20.0,11.12,32.0,41.8616,29.31,32.96
1993 June,68.2373,19.7,43.75,23.09,17.07,16.85,17.53,14.19,41.8894,12.71,32.5,41.8616,25.6119,29.19
1993 July,68.2373,59.1131,48.8265,51.4735,74.49,16.23,18.56,38.8064,41.8894,14.76,35.5,41.8616,25.6119,31.23
1993 August,68.2373,59.1131,48.8265,51.4735,48.3519,18.86,37.5,38.8064,41.8894,12.32,64.729,41.8616,25.6119,49.96
1993 September,68.2373,29.71,48.8265,34.62,48.3519,37.36,54.6789,38.8064,21.67,18.03,64.729,41.8616,25.6119,41.3
1993 October,68.2373,29.71,48.8265,34.62,48.3519,37.36,54.6789,38.8064,41.8894,22.52,64.729,41.8616,25.6119,54.7812
1993 November,68.2373,59.1131,48.8265,51.4735,48.3519,37.36,54.6789,38.8064,41.8894,39.3077,64.729,36.9,25.6119,54.7812
1993 December,68.2373,59.1131,48.8265,51.4735,48.3519,37.36,54.6789,38.8064,41.8894,39.3077,64.729,41.8616,25.6119,36.64
1994 January,68.2373,59.1131,47.38,51.4735,48.3519,28.0,54.6789,38.8064,41.8894,25.33,64.729,30.3,19.31,37.42
1994 February,68.2373,28.1,48.0,51.4735,48.3519,27.49,54.6789,38.8064,41.8894,23.33,64.729,41.8616,25.63,28.13
1994 March,68.2373,41.74,46.73,51.4735,45.17,22.27,41.36,38.8064,41.8894,29.33,64.729,30.0,15.96,46.03
1994 April,68.2373,44.07,37.38,41.28,25.92,18.4,32.65,38.8064,23.0,20.33,64.729,27.5,10.67,30.17
1994 May,20.0,43.38,41.15,39.05,28.75,17.5,21.25,41.0,41.8894,27.5,64.729,17.11,8.91,29.72
1994 June,18.0,23.37,34.0,22.04,27.55,14.72,17.5,16.4,30.28,39.3077,64.729,41.8616,9.83,28.86
1994 July,18.0,59.1131,48.8265,39.5,41.28,37.36,54.6789,40.0,41.8894,24.25,64.729,41.8616,11.89,54.7812
1994 August,68.2373,59.1131,48.8265,32.0,48.3519,36.0,54.6789,38.8064,41.8894,24.67,64.729,41.8616,16.06,54.7812
1994 September,68.2373,59.1131,48.8265,52.5,48.3519,37.36,54.6789,38.8064,41.8894,22.67,64.729,41.8616,23.0,38.77
1994 October,68.2373,59.1131,48.8265,32.0,48.3519,40.0,54.6789,38.8064,41.8894,23.33,64.729,41.8616,18.79,54.7812
1994 November,68.2373,59.1131,48.8265,48.21,48.3519,41.33,54.6789,38.8064,41.8894,22.6,64.729,41.8616,17.6,34.27
1994 December,68.2373,59.1131,48.8265,31.2,36.1,37.36,54.6789,38.8064,41.8894,23.4,64.729,41.8616,17.6,26.95
1995 January,68.2373,42.83,48.8265,44.0,48.3519,40.38,54.6789,38.8064,41.8894,23.5,64.729,41.8616,11.63,54.7812
1995 February,68.2373,40.38,25.48,31.74,37.1,27.6,40.36,19.6,41.8894,39.3077,64.729,41.8616,25.6119,54.7812
1995 March,15.0,34.73,26.6,31.4,37.62,38.5,54.6789,24.4,41.8894,19.73,64.729,41.8616,25.6119,25.03
1995 April,18.0,32.31,31.5,32.8,35.63,26.89,23.0,24.4,30.0,15.85,64.729,41.8616,16.3,28.55
1995 May,17.0,22.46,25.7,27.68,32.22,29.64,54.6789,24.4,21.3,14.1,64.729,41.8616,11.86,25.42
1995 June,68.2373,21.55,30.1,29.8,21.95,28.24,19.0,24.4,28.8,11.83,33.0,21.88,25.6119,25.66
1995 July,68.2373,59.1131,48.8265,30.45,16.48,37.36,54.6789,24.4,41.8894,24.91,30.57,41.8616,17.42,26.0
1995 August,68.2373,59.1131,48.8265,28.67,48.3519,40.0,54.6789,24.25,41.8894,39.3077,26.03,30.0,17.34,27.42
1995 September,68.2373,59.1131,48.8265,51.4735,48.3519,37.36,54.6789,38.8064,41.8894,21.25,22.93,41.8616,18.24,31.12
1995 October,68.2373,59.1131,48.8265,51.4735,48.3519,37.36,54.6789,38.8064,41.8894,39.3077,17.78,41.8616,22.0,35.86
1995 November,68.2373,59.1131,48.8265,51.4735,48.3519,37.36,54.6789,38.8064,41.8894,39.3077,39.88,41.8616,25.27,30.93
1995 December,68.2373,59.1131,48.8265,51.4735,48.3519,37.36,54.6789,38.8064,41.8894,39.3077,50.89,41.8616,24.21,54.7812
1996 January,68.2373,72.5,48.8265,51.4735,48.3519,37.36,54.6789,38.8064,41.8894,34.63,21.75,41.8616,27.77,36.96
1996 February,68.2373,57.02,48.8265,51.4735,48.3519,37.36,54.6789,38.8064,41.8894,31.25,22.08,41.8616,23.67,45.75
1996 March,68.2373,53.62,48.8265,51.4735,48.3519,37.36,54.6789,38.8064,41.8894,29.63,64.729,41.8616,22.38,38.12
1996 April,68.2373,38.97,48.8265,35.32,43.62,32.11,32.42,28.88,41.8894,18.4,21.6,41.8616,24.09,41.0
1996 May,68.2373,29.8,25.67,29.7,30.9,25.27,54.6789,21.06,39.18,39.3077,37.75,41.8616,22.85,22.8
1996 June,68.2373,35.42,23.86,7.94,29.83,38.5,25.52,17.75,41.8894,24.3,40.07,41.8616,17.09,54.7812
1996 July,68.2373,59.1131,48.8265,38.68,34.92,37.36,54.6789,38.8064,35.5,24.3,28.31,41.8616,17.3,28.92
1996 August,68.2373,50.0,48.8265,37.76,48.3519,60.0,54.6789,38.8064,41.8894,19.46,27.68,41.8616,22.77,31.75
1996 September,68.2373,51.0,48.8265,60.0,48.3519,53.33,54.6789,38.8064,41.8894,39.3077,28.44,41.8616,21.66,34.92
1996 October,68.2373,59.1131,48.8265,51.4735,48.3519,37.36,54.6789,38.8064,41.8894,19.4,29.1,40.0,22.92,33.6
1996 November,68.2373,50.0,48.8265,51.4735,48.3519,51.54,54.6789,38.8064,41.8894,19.65,30.52,36.14,20.6,32.98
1996 December,68.2373,50.0,48.8265,58.0,48.3519,51.31,67.04,38.8064,41.8894,21.8,33.65,38.33,21.11,53.7
1997 January,68.2373,52.74,48.8265,52.94,48.3519,46.67,54.6789,30.0,41.8894,23.0,31.7,41.8616,23.33,34.93
1997 February,68.2373,56.14,46.43,49.22,48.3519,37.36,50.53,30.0,40.0,29.1,28.35,41.8616,22.42,43.2
1997 March,68.2373,50.78,34.47,38.71,36.58,31.56,42.14,25.0,40.0,23.0,30.4,41.8616,21.83,26.4
1997 April,68.2373,34.42,24.48,28.69,35.8,22.62,34.19,25.0,18.68,19.09,35.9,41.8616,21.23,25.2
1997 May,68.2373,19.78,17.71,51.4735,19.74,16.78,20.0,14.4,20.0,13.8,33.05,41.8616,22.31,22.56
1997 June,68.2373,28.28,27.4,39.97,23.43,28.06,23.8,38.8064,41.8894,19.2,31.48,41.8616,23.58,33.07
1997 July,68.2373,38.85,31.27,45.71,27.44,29.38,24.17,22.0,30.0,12.4,34.43,41.8616,22.89,24.32
1997 August,68.2373,59.1131,48.8265,47.0,24.95,37.36,28.75,38.8064,30.0,26.8,32.02,41.8616,22.54,24.27
1997 September,68.2373,59.1131,48.8265,51.4735,48.3519,37.36,65.0,38.8064,41.8894,29.65,36.0,41.8616,23.23,28.0
1997 October,68.2373,59.1131,48.8265,51.4735,48.3519,37.36,54.6789,38.8064,41.8894,29.66,34.6,40.0,25.87,41.6
1997 November,68.2373,50.0,48.8265,51.4735,48.3519,37.36,54.6789,38.8064,41.8894,30.9,34.73,42.69,28.18,34.4
1997 December,40.71,50.0,48.8265,58.96,48.3519,51.43,54.6789,38.8064,41.8894,28.0,49.09,38.67,24.54,54.7812
1998 January,38.46,48.0,42.83,57.8,58.95,37.5,54.6789,38.14,41.8894,23.98,45.16,35.54,24.26,31.07
1998 February,68.2373,47.78,39.88,52.92,48.89,31.93,54.48,38.8064,41.8894,23.23,46.32,33.17,23.67,33.6
1998 March,68.2373,38.92,33.48,36.0,41.29,32.23,35.83,28.92,32.27,21.4,56.2,30.77,27.3,46.8
1998 April,23.93,35.83,28.65,51.4735,36.57,28.0,28.25,38.8064,26.38,21.54,45.8,31.14,28.05,43.72
1998 May,21.15,31.9,26.19,26.64,29.33,31.0,20.0,20.52,29.39,21.0,45.0,41.8616,24.48,20.0
1998 June,34.63,39.57,26.19,51.4735,24.15,37.36,23.67,20.09,30.0,18.54,47.9,41.8616,28.04,20.8
1998 July,33.17,40.38,36.0,35.4,23.15,37.36,27.5,14.47,41.8894,16.54,47.08,41.8616,27.42,21.6
1998 August,68.2373,59.1131,60.0,34.91,48.3519,37.36,54.6789,38.8064,41.8894,21.28,38.53,38.19,30.13,54.7812
1998 September,68.2373,59.1131,48.8265,60.0,48.3519,37.36,54.6789,38.8064,41.8894,26.67,39.47,50.0,24.7,54.7812
1998 October,68.2373,59.1131,50.0,51.4735,48.3519,37.36,54.6789,38.8064,41.8894,26.56,43.35,41.8616,33.14,44.53
1998 November,68.2373,59.1131,48.8265,51.4735,48.3519,37.36,54.6789,38.8064,41.8894,30.75,46.87,35.0,27.5,54.7812
1998 December,68.2373,75.0,48.8265,60.0,48.3519,37.36,54.6789,38.8064,41.8894,39.3077,52.69,44.05,26.8,54.7812
1999 January,44.38,86.67,48.8265,60.0,48.3519,70.56,54.6789,38.8064,41.8894,38.33,53.57,47.14,26.59,54.7812
1999 February,46.56,71.67,48.8265,77.73,70.77,37.36,54.6789,38.8064,41.8894,46.07,54.4,45.0,25.75,54.7812
1999 March,42.5,61.56,49.13,57.35,71.39,37.5,54.8,38.8064,41.8894,39.39,59.83,37.5,25.08,54.7812
1999 April,27.46,46.18,37.9,43.77,51.73,32.34,47.98,31.82,41.8894,29.4,60.79,33.29,26.83,54.7812
1999 May,25.0,35.38,33.63,33.23,39.35,24.62,36.69,27.64,43.33,21.72,51.97,30.0,27.23,43.37
1999 June,68.2373,28.63,30.26,51.4735,33.38,26.98,29.27,26.12,32.31,20.45,49.43,30.31,24.62,41.05
1999 July,68.2373,58.0,48.8265,41.0,40.0,37.36,54.6789,38.8064,41.8894,20.6,54.72,39.38,23.0,61.6
1999 August,68.2373,60.0,59.29,63.33,48.3519,37.36,54.6789,38.8064,60.0,22.4,60.97,42.5,23.54,51.82
1999 September,68.2373,65.0,48.8265,58.79,48.3519,37.36,54.6789,38.8064,41.8894,25.4,60.3,40.0,23.62,50.07
1999 October,68.2373,50.0,48.8265,54.39,48.3519,37.36,54.6789,38.8064,41.8894,22.83,56.97,35.82,23.23,36.35
1999 November,68.2373,50.78,48.8265,50.0,48.3519,37.36,68.33,38.8064,41.8894,21.37,60.98,32.83,23.08,40.87
1999 December,68.2373,60.0,48.8265,54.23,43.56,36.25,71.25,38.8064,41.8894,20.7,62.23,29.8,23.58,43.57
2000 January,35.0,54.12,48.8265,57.92,35.05,31.54,74.11,33.45,41.8894,21.97,62.74,29.83,22.08,29.97
2000 February,28.0,47.07,40.88,41.79,51.15,29.55,59.08,40.17,41.8894,30.2,63.66,37.73,22.85,28.33
2000 March,20.0,41.32,34.22,35.03,42.59,24.44,56.57,32.97,41.8894,26.36,62.86,37.61,21.69,36.17
2000 April,30.0,40.0,32.6,24.95,43.22,25.75,53.27,36.76,41.8894,28.2,62.96,37.44,24.75,36.44
2000 May,25.0,31.25,30.98,20.12,35.36,27.29,35.36,37.82,35.77,26.69,56.8,30.21,22.92,39.14
2000 June,30.0,40.0,32.51,32.7,30.0,37.36,30.17,33.6,35.0,25.0,58.1,29.0,21.12,32.0
2000 July,68.2373,59.1131,38.33,23.71,42.0,37.36,33.33,37.5,41.8894,25.18,58.2,30.58,11.4,29.51
2000 August,40.0,55.0,48.8265,28.24,50.0,37.36,65.0,41.25,41.8894,23.2,56.86,31.71,11.19,34.95
2000 September,68.2373,59.1131,48.8265,41.6,56.47,37.36,70.0,38.8064,41.8894,25.12,56.08,39.58,11.88,28.25
2000 October,68.2373,59.1131,48.8265,45.33,48.3519,37.36,69.0,38.8064,41.8894,28.23,58.2,39.31,18.6,27.88
2000 November,68.2373,50.0,48.8265,45.25,56.67,37.36,50.19,41.5,41.8894,30.0,59.35,31.02,19.32,36.2
2000 December,68.2373,50.0,48.8265,51.4735,56.92,37.36,72.17,33.12,41.8894,28.38,62.09,29.58,20.23,40.93
2001 January,45.0,70.0,60.0,67.0,63.33,53.33,77.27,48.12,41.8894,27.29,61.02,28.8,21.77,40.93
2001 February,35.0,58.96,43.39,51.12,51.46,45.63,69.52,43.93,41.8894,31.47,60.8,39.25,19.63,44.25
2001 March,20.0,42.85,48.8265,34.23,40.69,39.0,49.05,41.94,42.5,33.62,58.08,35.91,17.85,46.46
2001 April,35.0,36.0,48.8265,19.26,36.15,27.69,38.25,30.85,30.77,27.69,58.51,37.5,19.53,34.62
2001 May,35.0,35.43,48.8265,27.1,28.05,29.38,27.38,24.67,32.31,20.77,56.49,29.0,21.03,31.75
2001 June,35.0,39.03,48.8265,51.4735,32.69,38.33,28.23,30.5,31.47,23.57,56.55,19.5,20.38,30.22
2001 July,68.2373,40.0,40.63,31.85,36.92,37.36,28.08,31.92,36.88,20.25,60.1,35.0,22.54,31.51
2001 August,68.2373,60.0,48.8265,44.8,36.45,37.36,40.0,28.55,50.0,20.8,63.28,38.33,24.0,29.31
2001 September,68.2373,59.1131,48.8265,57.0,48.3519,37.36,57.0,38.8064,41.8894,26.16,67.5,38.2,23.62,34.13
2001 October,68.2373,52.14,48.8265,72.0,48.3519,37.36,54.6789,38.8064,41.8894,25.75,72.82,38.1,25.42,38.58
2001 November,68.2373,50.0,48.8265,48.69,48.3519,37.36,54.6789,38.8064,41.8894,26.71,72.5,35.0,26.31,31.57
2001 December,68.2373,50.0,48.8265,51.4735,40.0,37.36,70.0,38.8064,41.8894,24.08,77.95,34.0,23.5,33.23
2002 January,68.2373,54.71,48.8265,61.68,41.56,41.56,49.56,41.0,41.8894,31.63,76.73,37.08,27.0,26.4
2002 February,68.2373,50.0,48.8265,33.17,43.14,34.58,52.14,38.98,41.8894,34.33,74.97,40.52,28.64,29.6
2002 March,68.2373,47.91,48.8265,25.8,38.13,28.79,38.83,37.81,40.91,30.0,72.19,34.76,27.89,34.62
2002 April,18.0,34.25,27.56,25.96,28.0,25.0,29.54,27.38,26.92,30.0,69.65,25.33,24.17,22.65
2002 May,18.0,26.77,23.2,20.11,21.86,27.07,21.36,21.29,23.93,24.37,63.83,15.0,17.05,22.77
2002 June,25.0,33.08,25.2,20.0,24.5,31.54,21.17,28.67,28.57,19.9,63.65,13.5,10.97,24.6
2002 July,68.2373,35.0,29.15,23.91,29.07,37.36,27.62,27.0,41.8894,22.06,52.36,18.18,12.69,24.4
2002 August,68.2373,59.1131,30.0,19.16,39.17,37.36,33.96,27.17,41.8894,25.14,60.23,30.0,18.66,24.0
2002 September,68.2373,59.1131,48.8265,51.4735,48.3519,37.36,54.6789,38.8064,41.8894,26.31,75.28,41.8616,24.0,32.12
2002 October,68.2373,40.0,48.8265,51.4735,48.3519,37.36,54.6789,38.8064,41.8894,29.55,83.4,44.95,25.6,54.7812
2002 November,68.2373,48.75,48.8265,51.4735,48.3519,37.36,54.6789,38.8064,41.8894,29.68,84.87,49.29,22.1,34.83
2002 December,68.2373,50.0,48.8265,51.4735,48.3519,37.36,62.31,35.0,41.8894,29.6,86.34,37.84,19.55,33.05
2003 January,68.2373,53.24,48.8265,42.3,45.24,32.5,45.87,43.0,41.8894,27.46,78.7,30.95,22.77,35.47
2003 February,32.58,50.0,48.8265,52.55,36.48,33.0,39.45,38.8064,50.0,23.52,79.3,30.38,22.25,39.1
2003 March,32.58,44.77,33.07,30.31,39.15,29.46,33.31,31.63,26.92,21.68,70.89,29.88,21.62,35.69
2003 April,24.23,35.7,25.29,25.91,30.54,25.92,30.5,27.58,50.33,21.49,65.93,25.0,20.78,24.25
2003 May,21.15,28.75,48.8265,20.9,24.23,22.53,26.69,21.92,20.42,23.94,66.0,41.8616,22.08,25.29
2003 June,68.2373,21.33,24.05,30.54,24.38,29.77,22.85,30.37,20.77,25.0,66.0,20.0,22.0,30.07
2003 July,68.2373,59.1131,32.5,23.95,30.0,37.36,22.35,21.2,35.0,25.0,74.4,20.0,20.64,28.74
2003 August,68.2373,50.0,48.8265,29.75,48.3519,37.36,54.6789,18.32,50.0,25.15,69.83,41.8616,21.14,37.53
2003 September,68.2373,60.0,48.8265,30.0,48.3519,37.36,54.6789,50.0,41.8894,27.31,80.67,41.8616,26.28,48.95
2003 October,68.2373,53.48,48.8265,51.4735,48.3519,37.36,90.0,50.0,41.8894,31.3,76.27,44.12,31.08,53.2
2003 November,68.2373,60.83,48.8265,30.83,48.3519,37.36,80.0,50.0,41.8894,33.33,80.96,44.88,31.64,59.4
2003 December,68.2373,60.0,65.0,45.45,48.3519,37.36,77.0,44.62,41.8894,30.79,71.49,47.0,28.64,66.46
2004 January,68.2373,41.4,48.8265,42.77,34.17,31.64,57.65,50.0,41.8894,36.25,72.2,48.17,23.92,53.29
2004 February,30.0,40.91,36.36,32.5,38.0,28.0,46.92,43.08,50.0,30.0,70.47,33.67,18.18,37.13
2004 March,30.0,39.07,30.41,51.4735,38.0,26.5,38.93,38.61,50.0,29.6,70.99,34.81,19.58,41.87
2004 April,25.0,30.92,28.08,25.74,26.15,21.85,32.25,35.09,40.77,24.4,66.9,34.67,12.04,23.8
2004 May,25.0,29.67,26.53,30.0,25.38,17.92,29.15,23.45,28.08,24.4,64.83,29.86,10.91,31.17
2004 June,68.2373,43.06,32.23,21.36,29.85,24.29,26.69,27.63,37.69,26.43,67.29,23.33,8.83,30.46
2004 July,68.2373,40.0,46.43,19.42,24.15,37.36,23.08,21.94,30.77,23.16,74.86,25.0,8.74,26.86
2004 August,68.2373,59.1131,48.8265,23.67,25.75,37.36,54.6789,11.67,42.31,27.23,79.66,41.8616,13.25,54.03
2004 September,68.2373,60.0,48.8265,51.4735,48.3519,37.36,70.0,38.8064,41.8894,35.0,77.93,60.0,17.52,53.72
2004 October,68.2373,50.0,48.8265,51.4735,48.3519,37.36,70.0,38.8064,41.8894,38.25,84.68,60.0,16.38,61.17
2004 November,68.2373,50.0,48.8265,51.4735,48.3519,37.36,54.6789,38.8064,41.8894,37.25,86.55,43.18,10.18,49.05
2004 December,68.2373,60.0,56.67,52.0,48.3519,48.89,54.6789,38.8064,41.8894,35.0,88.8,38.46,11.36,50.86
2005 January,68.2373,54.29,50.19,52.0,43.33,43.54,52.78,50.0,41.8894,35.11,85.59,37.8,11.39,46.65
2005 February,35.0,44.07,43.55,37.33,42.41,37.63,28.28,38.44,41.8894,32.7,84.0,32.5,12.4,46.65
2005 March,36.0,50.71,37.46,44.0,38.53,34.46,29.42,40.0,41.8894,30.0,86.53,30.79,12.17,48.0
2005 April,33.5,42.04,32.16,38.37,31.66,31.0,28.77,36.28,41.8894,30.0,75.9,33.5,17.79,44.0
2005 May,27.15,32.92,24.15,32.0,22.46,24.85,25.08,26.64,23.17,30.0,65.0,21.0,13.42,38.84
2005 June,31.77,37.75,30.18,32.0,25.56,26.23,23.62,21.98,20.77,26.38,55.6,41.8616,9.89,34.09
2005 July,36.53,44.35,30.83,34.92,30.0,34.34,26.0,36.81,25.0,26.62,62.38,22.5,10.77,42.46
2005 August,58.57,60.0,55.0,37.0,35.68,37.36,30.0,22.33,41.8894,24.64,75.28,40.56,11.98,57.54
2005 September,59.0,60.0,48.8265,47.08,40.0,37.36,54.6789,38.8064,35.0,20.0,85.67,51.43,12.7,60.74
2005 October,59.09,46.57,48.8265,36.0,48.3519,37.36,54.6789,38.8064,41.8894,21.52,90.77,54.0,20.13,52.98
2005 November,59.09,49.0,48.8265,40.0,48.3519,37.36,63.33,38.8064,41.8894,32.58,92.4,58.5,20.56,57.85
2005 December,59.09,58.89,48.8265,51.4735,48.3519,37.36,78.46,38.8064,41.8894,35.69,93.0,50.0,23.0,49.87
2006 January,36.0,64.25,48.8265,50.0,38.16,39.26,54.6789,38.8064,41.8894,34.23,91.35,42.81,20.58,56.12
2006 February,42.0,39.17,27.92,45.17,41.58,34.0,54.6789,38.8064,41.8894,34.83,81.54,38.97,22.22,54.62
2006 March,36.14,39.29,42.21,38.93,38.31,33.89,46.85,32.38,50.0,32.5,71.88,45.5,32.97,51.43
2006 April,35.0,37.0,32.79,37.33,38.75,35.0,31.0,35.17,39.14,30.0,68.65,44.71,23.47,56.95
2006 May,35.0,37.83,29.65,29.5,31.34,32.0,28.75,27.0,40.45,30.0,60.84,31.91,20.14,42.74
2006 June,35.0,44.14,36.67,32.31,37.67,32.35,47.5,38.8064,50.0,27.23,66.21,28.93,19.09,51.14
2006 July,35.0,46.88,48.8265,36.5,31.82,37.36,54.6789,38.8064,50.0,25.0,80.28,25.67,14.29,43.82
2006 August,68.2373,31.59,48.8265,50.0,48.3519,37.36,54.6789,38.8064,46.92,23.62,70.84,28.5,16.05,52.98
2006 September,68.2373,59.1131,48.8265,52.67,50.0,37.36,54.6789,38.8064,50.0,25.0,76.8,51.92,20.33,55.94
2006 October,68.2373,60.0,48.8265,49.6,48.3519,37.36,54.6789,38.8064,41.8894,32.23,80.53,54.38,21.81,49.6
2006 November,68.2373,45.0,48.8265,44.0,48.3519,37.36,54.6789,38.8064,40.0,30.38,60.86,60.0,21.45,55.88
2006 December,68.2373,30.0,48.8265,48.0,48.3519,37.36,54.6789,38.8064,40.0,28.92,66.94,49.44,24.37,60.2
2007 January,46.0,46.84,48.8265,34.46,39.15,46.88,36.15,40.0,41.8894,29.57,58.72,38.33,20.92,49.6
2007 February,44.0,43.02,48.8265,30.42,40.5,40.36,43.25,39.14,41.6,29.67,52.5,28.13,21.07,53.4
2007 March,38.0,43.69,37.06,30.23,39.15,37.31,36.15,40.0,40.0,29.54,56.0,36.41,21.69,55.26
2007 April,38.77,44.73,34.63,32.77,38.92,34.54,36.92,38.96,50.0,28.17,57.78,47.0,21.6,58.91
2007 May,38.77,43.58,32.56,27.85,35.77,29.77,32.58,34.49,32.9,27.54,56.0,34.0,21.66,54.58
2007 June,39.08,41.33,29.06,24.0,40.0,28.94,23.0,22.0,21.97,22.38,53.0,17.78,19.11,44.98
2007 July,40.77,50.0,36.67,39.58,41.52,37.36,32.42,24.58,29.38,22.0,50.16,21.25,23.17,54.28
2007 August,60.97,52.0,48.8265,43.33,41.36,37.36,35.31,20.0,28.51,22.0,52.0,41.8616,25.33,53.14
2007 September,76.7,59.1131,48.8265,46.0,50.0,37.36,54.6789,38.8064,28.0,22.25,56.67,41.8616,34.2,58.6
2007 October,72.3,40.0,48.8265,57.43,48.3519,37.36,54.6789,38.8064,41.8894,29.47,56.0,41.8616,27.5,61.83
2007 November,73.62,59.1131,48.8265,64.0,48.3519,37.36,54.6789,38.8064,41.8894,32.33,64.729,80.0,29.64,60.92
2007 December,84.0,59.1131,48.8265,51.4735,70.0,37.36,54.6789,38.8064,41.8894,33.69,58.0,49.44,26.83,64.43
2008 January,87.92,59.1131,48.8265,54.58,48.3519,37.36,83.46,38.8064,41.8894,32.38,41.07,60.0,34.0,60.68
2008 February,62.15,60.59,65.0,51.23,55.88,33.75,56.73,38.8064,41.8894,31.85,64.729,53.33,33.2,59.51
2008 March,41.15,61.43,52.6,38.15,49.38,32.92,59.5,45.33,41.8894,29.38,58.0,58.0,33.73,55.13
2008 April,41.15,40.77,35.16,30.31,38.31,28.0,48.14,38.77,47.06,29.54,59.64,50.0,34.54,49.17
2008 May,41.15,49.23,34.19,34.23,43.52,25.46,48.77,32.0,40.0,29.83,64.729,45.22,36.62,52.86
2008 June,53.39,50.37,41.15,36.06,43.75,32.0,34.69,38.8064,37.22,39.3077,64.5,51.25,38.33,52.73
2008 July,55.77,59.1131,40.0,38.0,48.3519,37.36,28.33,38.8064,41.8894,33.17,54.0,56.67,40.0,51.02
2008 August,73.62,59.1131,48.8265,105.0,48.3519,37.36,69.17,38.8064,41.8894,38.4,32.86,64.0,40.0,54.71
2008 September,55.77,59.1131,48.8265,67.5,48.3519,37.36,60.0,38.8064,41.8894,37.7,64.25,74.44,39.85,63.26
2008 October,55.77,59.1131,48.8265,66.0,60.0,37.36,54.6789,38.8064,41.8894,37.5,58.29,41.8616,38.33,56.4
2008 November,77.62,59.1131,48.8265,59.0,48.3519,37.36,80.83,38.8064,41.8894,38.75,56.67,62.22,39.82,53.73
2008 December,84.62,70.0,32.1,54.0,67.22,37.36,74.19,38.8064,41.8894,44.17,56.0,53.75,40.0,56.34
2009 January,52.0,40.0,48.8265,47.63,63.48,38.33,76.47,38.8064,41.8894,42.31,64.729,53.0,40.0,64.55
2009 February,55.0,55.71,42.15,43.67,62.5,39.0,57.37,38.8064,50.0,45.48,64.729,54.62,40.83,53.67
2009 March,55.0,50.31,45.0,38.0,50.62,36.62,51.62,50.0,50.0,39.91,64.729,49.27,40.38,56.06
2009 April,52.67,47.67,42.27,31.08,44.92,28.31,36.42,41.0,42.31,37.86,50.0,37.56,44.36,65.13
2009 May,55.5,48.81,37.47,30.0,40.08,28.95,29.92,32.43,36.36,39.22,50.0,41.31,40.45,57.97
2009 June,62.58,51.11,46.67,45.79,35.88,37.5,34.02,25.0,36.77,37.42,50.0,22.85,39.27,51.88
2009 July,62.67,59.1131,48.8265,60.0,48.3519,37.36,65.0,38.8064,41.8894,37.62,51.28,37.79,38.69,54.23
2009 August,62.67,59.1131,48.8265,70.0,50.0,37.36,54.6789,38.8064,41.8894,38.08,50.0,41.8616,38.67,64.12
2009 September,80.67,57.14,48.8265,62.43,50.0,37.36,54.6789,38.8064,41.8894,38.67,50.0,41.8616,40.77,67.51
2009 October,90.0,59.1131,48.8265,55.61,48.3519,37.36,54.6789,38.8064,41.8894,38.77,64.729,73.33,40.36,71.88
2009 November,80.67,59.1131,48.8265,50.0,70.0,37.36,65.0,38.8064,36.6,39.08,64.729,41.8616,38.82,71.14
2009 December,81.33,59.1131,48.8265,61.82,48.3519,37.36,70.0,27.0,34.71,37.54,64.729,57.06,39.33,72.55
2010 January,82.83,64.9,48.8265,49.6,47.24,65.45,54.6789,38.8064,41.8894,36.77,54.62,58.45,36.6,72.0
2010 February,79.42,54.67,48.64,39.67,43.42,51.08,52.0,38.8064,47.37,36.0,57.27,54.67,40.0,72.0
2010 March,83.33,44.0,44.28,35.71,40.94,37.86,43.0,40.0,40.21,44.57,51.11,45.31,40.0,91.71
2010 April,84.17,48.4,50.33,28.58,37.78,32.38,34.33,36.0,36.36,38.62,50.0,43.9,40.0,77.72
2010 May,85.67,49.71,52.5,29.85,39.08,26.08,31.92,38.75,36.45,36.15,54.5,42.95,40.83,84.62
2010 June,87.67,50.15,43.49,28.28,27.5,28.15,24.46,29.69,23.08,30.15,49.56,17.85,39.55,72.0
2010 July,90.0,50.83,41.33,49.85,48.3519,37.36,27.5,27.0,27.62,31.38,52.5,29.38,41.21,68.62
2010 August,90.0,39.67,48.8265,56.67,50.0,37.36,54.6789,38.8064,51.54,36.0,54.74,41.8616,49.42,71.53
2010 September,90.0,59.1131,48.8265,54.67,53.13,50.0,54.6789,38.8064,37.12,36.0,65.79,41.8616,49.85,72.8
2010 October,91.14,59.1131,48.8265,51.4735,48.3519,37.36,54.6789,38.8064,34.44,41.54,60.0,41.8616,49.64,85.23
2010 November,92.14,71.9,48.8265,51.4735,48.3519,37.36,54.6789,38.8064,41.8894,52.92,64.729,50.0,48.0,91.38
2010 December,93.93,59.1131,48.8265,53.57,100.0,37.36,54.6789,38.8064,41.8894,54.57,60.77,60.0,44.38,101.49
2011 January,97.14,80.0,48.8265,75.83,76.0,74.74,69.0,38.8064,41.8894,56.54,66.33,59.29,44.55,106.08
2011 February,86.67,69.46,73.33,65.77,57.5,47.65,72.67,38.8064,60.0,57.5,66.67,57.14,45.5,98.73
2011 March,87.58,51.67,51.59,44.81,47.07,37.62,51.17,50.91,58.11,49.08,68.04,62.96,44.64,88.8
2011 April,87.54,42.0,43.06,28.17,42.69,31.38,38.32,44.0,60.0,49.54,65.44,60.0,43.73,92.0
2011 May,89.31,40.95,38.09,30.46,42.0,33.38,38.23,32.0,44.76,45.92,63.82,51.67,44.67,96.62
2011 June,71.46,40.0,43.0,29.77,36.0,37.39,35.38,38.8064,60.0,34.85,62.17,54.2,45.77,92.62
2011 July,83.57,59.1131,48.8265,36.67,48.3519,37.36,38.33,38.8064,55.0,31.75,61.18,47.46,44.38,98.77
2011 August,60.67,50.0,48.8265,30.0,48.3519,37.36,47.14,38.8064,48.0,32.15,64.44,45.11,44.75,105.14
2011 September,80.0,59.1131,48.8265,55.63,48.3519,37.36,54.6789,38.8064,40.0,46.92,65.0,67.5,50.38,105.23
2011 October,68.2373,59.1131,48.8265,60.0,48.3519,37.36,54.6789,38.8064,50.0,49.0,68.67,42.6,48.92,99.38
2011 November,68.2373,70.0,48.8265,51.4735,48.3519,37.36,80.0,38.8064,41.8894,45.23,67.46,68.57,45.55,92.37
2011 December,68.2373,59.1131,48.8265,51.4735,48.3519,37.36,80.0,38.8064,41.8894,40.77,70.0,64.43,48.22,96.43
2012 January,68.2373,59.1131,48.8265,50.0,48.3519,41.52,54.6789,38.8064,41.8894,40.46,70.98,56.64,47.78,102.77
2012 February,68.2373,49.43,48.8265,53.09,50.0,34.38,60.0,38.8064,41.8894,46.15,70.35,56.79,45.5,104.0
2012 March,68.2373,60.0,48.8265,45.49,53.66,34.38,56.55,49.33,60.83,50.0,70.0,41.8616,56.83,102.46
2012 April,68.2373,54.4,48.8265,40.47,59.29,34.62,51.67,44.0,56.0,50.0,71.6,41.8616,60.0,100.0
2012 May,72.5,57.5,48.33,35.15,60.0,34.85,38.15,37.08,44.31,43.85,70.63,55.26,51.54,100.0
2012 June,75.0,58.57,48.8265,38.14,50.0,39.74,36.33,34.0,38.21,49.23,69.53,48.95,49.38,100.0
2012 July,68.2373,55.0,48.8265,36.5,54.17,37.36,54.6789,41.13,51.18,42.46,70.83,54.43,25.6119,100.0
2012 August,68.2373,59.1131,48.8265,51.4735,54.43,37.36,47.5,38.8064,62.22,36.0,70.0,62.2,25.6119,99.71
2012 September,100.0,59.1131,48.8265,51.4735,48.3519,37.36,65.0,38.8064,50.0,36.92,64.729,56.85,25.6119,100.73
2012 October,68.2373,30.0,48.8265,51.4735,48.3519,37.36,54.6789,38.8064,50.0,49.14,70.0,57.89,25.6119,100.57
2012 November,68.2373,59.1131,48.8265,51.4735,48.3519,37.36,54.6789,38.8064,60.0,49.14,70.5,54.17,25.6119,100.57
2012 December,68.2373,59.1131,48.8265,51.4735,48.3519,37.36,66.67,38.8064,65.0,50.64,72.72,55.29,25.6119,101.23
2013 January,100.0,41.05,61.67,37.53,80.0,46.76,61.3,38.8064,61.2,46.0,74.5,44.44,25.6119,92.0
2013 February,90.0,42.18,51.67,34.05,55.17,36.75,47.67,31.59,54.9,46.0,74.56,47.25,25.6119,92.0
2013 March,80.0,46.76,48.33,34.54,53.62,33.85,51.33,35.45,51.3,47.38,76.74,58.61,25.6119,92.62
2013 April,74.62,52.08,46.67,44.0,58.08,36.62,63.33,38.8064,60.0,49.08,72.82,56.67,25.6119,93.54
2013 May,68.2373,43.49,48.8265,39.64,54.03,36.29,46.8,43.13,42.44,48.29,70.94,49.17,25.6119,91.71
2013 June,59.17,59.1131,48.8265,35.88,45.83,43.42,42.0,32.0,40.0,40.92,72.78,35.88,25.6119,93.0
2013 July,54.29,59.1131,48.8265,46.23,50.0,48.33,48.75,31.0,40.41,37.71,69.61,36.98,25.6119,93.14
2013 August,41.54,60.0,48.8265,31.88,51.33,37.36,53.33,28.33,48.33,36.0,73.51,56.15,25.6119,92.62
2013 September,70.0,59.1131,48.8265,51.4735,48.3519,37.36,54.6789,38.8064,49.57,43.08,75.35,60.0,25.6119,90.46
2013 October,41.54,59.1131,48.8265,51.4735,48.3519,37.36,54.6789,38.8064,41.8894,58.57,74.35,64.17,25.6119,94.46
2013 November,68.2373,59.1131,48.8265,51.4735,48.3519,37.36,54.6789,38.8064,41.8894,53.08,75.45,41.8616,25.6119,94.46
2013 December,100.0,59.1131,48.8265,51.4735,48.3519,37.36,54.6789,70.0,41.8894,57.69,80.0,57.83,25.6119,95.38
2014 January,100.0,47.73,56.43,51.57,53.33,62.31,67.0,66.67,41.8894,54.86,80.0,41.8616,25.6119,96.14
2014 February,106.67,43.27,48.95,48.67,57.89,49.33,70.67,65.22,41.8894,56.62,79.08,41.8616,25.6119,92.33
2014 March,118.57,52.38,44.13,40.31,54.68,45.38,60.0,64.38,65.0,61.93,77.31,69.25,25.6119,98.62
2014 April,82.31,50.63,44.02,40.83,56.76,48.46,62.0,62.86,58.18,61.71,75.73,64.29,25.6119,94.15
2014 May,66.43,45.4,36.06,30.31,41.98,36.77,49.23,48.13,40.0,57.43,71.3,39.73,25.6119,74.46
2014 June,25.42,45.56,30.97,26.72,45.94,31.23,30.77,32.82,41.8894,41.69,68.77,20.0,25.6119,73.85
2014 July,35.0,60.0,22.5,59.56,48.3519,40.0,54.6789,46.67,41.8894,41.0,71.86,41.8616,25.6119,91.08
2014 August,108.46,59.1131,48.8265,51.4735,48.3519,37.36,70.0,71.25,41.8894,59.23,74.54,41.8616,25.6119,102.46
2014 September,90.0,59.1131,48.8265,51.4735,150.0,37.36,54.6789,70.0,58.75,39.3077,74.67,41.8616,25.6119,104.62
2014 October,68.2373,59.1131,48.8265,51.4735,150.0,37.36,54.6789,38.8064,61.67,63.0,78.02,41.8616,25.6119,119.38
2014 November,68.2373,59.1131,48.8265,51.4735,48.3519,37.36,54.6789,98.33,41.8894,63.69,73.67,41.8616,25.6119,111.25
2014 December,105.69,90.0,48.8265,51.4735,48.3519,37.36,54.6789,83.75,41.8894,63.86,79.87,41.8616,25.6119,116.52
2015 January,102.3,70.38,76.67,80.0,48.3519,47.44,80.0,63.0,41.8894,63.43,80.1,58.33,25.6119,108.62
2015 February,84.92,61.03,73.04,60.0,73.33,46.0,67.39,68.08,41.8894,65.5,76.4,68.42,25.6119,106.5
2015 March,73.92,76.28,51.83,62.09,73.56,41.38,72.5,66.77,70.0,58.62,72.78,63.48,25.6119,104.15
2015 April,82.03,72.56,49.07,63.39,69.52,37.77,63.66,67.38,72.5,61.85,77.76,66.13,25.6119,102.31
2015 May,31.67,42.94,43.13,34.62,63.52,32.62,54.6789,22.38,40.0,44.54,74.1,45.86,25.6119,79.69
2015 June,34.51,44.15,35.64,40.0,52.0,24.15,54.6789,27.42,35.83,37.85,71.58,24.08,25.6119,76.08
2015 July,47.4,59.1131,54.53,58.63,60.0,28.06,54.6789,40.48,31.82,39.0,77.07,20.0,25.6119,78.07
2015 August,47.4,59.1131,59.52,49.69,70.0,29.79,65.79,40.0,34.0,46.86,78.0,41.8616,25.6119,92.31
2015 September,68.2373,59.1131,64.0,58.18,47.55,37.36,55.0,43.33,35.65,48.86,76.5,41.8616,25.6119,100.0
2015 October,68.2373,59.1131,48.8265,51.4735,43.33,37.36,54.6789,38.8064,41.8894,60.0,66.18,41.8616,25.6119,100.0
2015 November,68.2373,59.1131,48.8265,51.4735,95.0,37.36,40.0,38.8064,41.8894,67.69,76.88,41.8616,25.6119,100.0
2015 December,80.83,59.1131,48.8265,105.0,95.0,37.36,54.6789,75.65,41.8894,74.71,77.0,75.0,25.6119,54.7812
2016 January,94.33,71.0,48.8265,101.05,110.0,37.36,116.36,75.0,41.8894,76.62,83.33,69.17,25.6119,100.0
2016 February,77.27,81.34,64.0,67.83,88.4,61.23,85.0,57.2,41.8894,70.38,85.0,68.33,25.6119,100.0
2016 March,81.43,91.97,58.96,68.2,79.02,64.46,84.69,56.0,41.8894,58.14,95.0,65.76,25.6119,54.7812
2016 April,77.72,82.92,55.45,70.47,83.16,36.77,78.52,56.0,41.8894,61.54,91.32,61.67,25.6119,54.7812
2016 May,73.97,65.71,58.57,61.23,72.13,36.77,72.16,44.0,41.8894,51.38,81.75,41.8616,25.6119,54.7812
2016 June,56.7,59.1131,61.33,49.45,62.92,61.23,63.33,46.62,41.8894,54.15,83.42,41.8616,25.6119,54.7812
2016 July,62.57,80.0,54.0,51.08,61.14,55.38,49.33,44.0,60.0,56.0,80.96,41.8616,25.6119,54.7812
2016 August,68.2373,59.1131,66.0,58.64,60.0,55.0,54.6789,48.29,40.89,57.36,64.729,41.8616,25.6119,54.7812
2016 September,68.2373,59.1131,48.8265,107.5,48.3519,22.5,70.0,60.0,54.0,47.54,64.729,41.8616,25.6119,54.7812
2016 October,68.2373,180.0,86.67,97.78,48.3519,37.36,54.6789,38.8064,39.4,59.25,64.729,41.8616,25.6119,54.7812
2016 November,68.2373,59.1131,48.8265,86.67,48.3519,37.36,54.6789,38.8064,41.8894,76.0,64.729,41.8616,25.6119,54.7812
2016 December,48.0,43.0,48.8265,51.4735,100.0,37.36,54.6789,108.0,41.8894,79.23,64.729,41.8616,25.6119,54.7812
2017 January,82.0,128.2,72.5,98.33,108.24,37.36,54.6789,112.2,41.8894,86.0,64.729,41.8616,25.6119,54.7812
2017 February,98.56,131.19,63.85,75.83,85.53,74.0,91.82,113.33,41.8894,87.83,64.729,41.8616,25.6119,54.7812
2017 March,86.56,116.73,72.8,94.26,81.54,56.0,76.39,72.5,41.8894,86.0,64.729,41.8616,25.6119,54.7812
2017 April,128.7,129.45,100.0,96.84,100.0,66.0,76.31,55.11,41.8894,80.0,64.729,41.8616,25.6119,54.7812
2017 May,98.92,100.67,100.0,61.72,96.0,66.0,72.22,65.79,52.22,71.0,64.729,41.8616,25.6119,54.7812
2017 June,76.9,67.12,66.22,55.41,67.0,37.36,68.04,65.85,45.69,65.23,64.729,41.8616,25.6119,54.7812
2017 July,100.0,97.73,64.09,50.33,63.33,37.36,76.67,66.6,50.0,56.62,64.729,41.8616,25.6119,54.7812
2017 August,68.2373,113.75,48.8265,72.07,73.33,37.36,97.78,70.67,70.0,55.62,64.729,41.8616,25.6119,54.7812
2017 September,68.2373,59.1131,48.8265,51.4735,48.3519,37.36,54.6789,38.8064,51.11,73.08,64.729,41.8616,25.6119,54.7812
2017 October,148.0,59.1131,48.8265,51.4735,48.3519,37.36,54.6789,38.8064,41.8894,86.01,64.729,41.8616,25.6119,54.7812
2017 November,148.45,155.45,48.8265,51.4735,48.3519,37.36,54.6789,38.8064,41.8894,85.23,64.729,41.8616,25.6119,54.7812
2017 December,148.0,180.0,48.8265,150.0,48.3519,37.36,100.0,38.8064,41.8894,77.09,64.729,41.8616,25.6119,54.7812
2018 January,148.36,170.0,150.0,123.16,48.3519,37.36,138.59,38.8064,41.8894,86.0,64.729,41.8616,25.6119,54.7812
2018 February,150.0,153.33,106.67,122.44,48.3519,68.0,125.11,85.56,60.0,120.0,64.729,41.8616,25.6119,54.7812
2018 March,146.83,164.64,106.67,120.0,48.3519,62.0,94.89,86.67,55.0,114.46,64.729,41.8616,25.6119,54.7812
2018 April,140.0,147.78,105.71,102.4,48.3519,63.0,94.08,86.67,56.0,107.38,64.729,41.8616,25.6119,54.7812
2018 May,97.5,98.06,73.75,87.0,96.67,46.0,85.15,70.0,50.31,72.46,64.729,41.8616,25.6119,54.7812
2018 June,91.67,72.22,68.52,73.54,63.7,46.0,62.77,69.8,40.0,56.0,64.729,41.8616,25.6119,54.7812
2018 July,113.83,97.27,99.09,62.46,76.25,37.36,63.73,38.8064,50.0,39.3077,64.729,41.8616,25.6119,54.7812
2018 August,123.17,200.0,48.8265,90.53,120.0,37.36,84.57,38.8064,41.8894,88.0,64.729,41.8616,25.6119,54.7812
2018 September,68.2373,59.1131,48.8265,126.34,48.3519,37.36,96.67,38.8064,41.8894,72.5,64.729,41.8616,25.6119,54.7812
2018 October,144.0,150.0,48.8265,101.25,48.3519,37.36,95.56,38.8064,41.8894,75.14,64.729,41.8616,25.6119,54.7812
2018 November,144.0,137.5,48.8265,100.0,48.3519,37.36,54.6789,38.8064,50.0,72.77,64.729,41.8616,25.6119,54.7812
2018 December,144.0,141.67,48.8265,123.47,48.3519,37.36,113.33,38.8064,41.8894,72.92,64.729,41.8616,25.6119,54.7812
2019 January,116.15,137.86,96.59,98.13,110.0,64.22,113.33,64.78,41.8894,77.77,64.729,41.8616,25.6119,54.7812
2019 February,118.36,130.54,95.26,98.29,100.0,66.0,78.97,38.8064,41.8894,78.17,64.729,41.8616,25.6119,54.7812
2019 March,110.0,143.02,90.67,103.33,100.0,66.67,109.85,38.8064,41.8894,79.08,64.729,41.8616,25.6119,54.7812
2019 April,132.75,145.64,84.21,89.85,101.05,66.0,102.71,38.8064,41.8894,85.23,64.729,41.8616,25.6119,54.7812
2019 May,112.2,111.94,81.74,70.86,87.43,62.0,78.91,38.8064,50.0,77.29,99.85,41.8616,25.6119,54.7812
2019 June,83.25,88.18,55.0,58.33,54.0,43.0,71.67,38.8064,50.0,56.0,84.38,41.8616,25.6119,54.7812
2019 July,154.5,121.67,90.34,72.17,43.33,54.0,83.97,38.8064,43.75,50.86,100.2,41.8616,25.6119,54.7812
2019 August,146.0,150.0,48.8265,124.52,80.0,55.0,106.67,38.8064,40.0,75.23,105.8,41.8616,25.6119,54.7812
2019 September,68.2373,59.1131,48.8265,140.0,48.3519,37.36,106.67,38.8064,50.0,84.0,107.08,41.8616,25.6119,54.7812
2019 October,68.2373,59.1131,48.8265,51.4735,48.3519,37.36,106.67,38.8064,41.8894,39.3077,127.16,41.8616,25.6119,54.7812
2019 November,68.2373,59.1131,48.8265,51.4735,48.3519,37.36,54.6789,38.8064,41.8894,39.3077,115.28,41.8616,25.6119,54.7812
2019 December,146.0,59.1131,48.8265,126.07,48.3519,37.36,54.6789,38.8064,41.8894,72.15,110.89,41.8616,25.6119,54.7812
2020 January,145.54,153.75,124.5,123.5,48.3519,37.36,113.33,38.8064,41.8894,89.0,117.31,41.8616,25.6119,54.7812
2020 February,146.09,150.0,100.0,137.17,48.3519,37.36,146.36,38.8064,41.8894,39.3077,108.35,41.8616,25.6119,54.7812
2020 March,147.23,144.21,107.5,117.69,48.3519,37.36,145.69,38.8064,41.8894,100.0,108.22,41.8616,25.6119,54.7812
2020 April,116.62,146.67,120.0,121.11,48.3519,37.36,136.67,38.8064,80.0,100.0,110.0,41.8616,25.6119,54.7812
2020 May,88.73,95.81,90.91,95.12,48.3519,37.36,108.97,80.83,60.0,66.0,113.48,41.8616,25.6119,54.7812
2020 June,104.64,91.81,70.89,78.87,48.3519,102.5,85.0,38.8064,61.67,70.92,110.85,41.8616,25.6119,54.7812
2020 July,109.6,115.26,74.44,100.74,48.3519,115.27,99.6,38.8064,66.88,76.0,108.77,23.14,25.6119,54.7812
2020 August,78.0,59.1131,80.0,110.26,48.3519,37.36,102.77,38.8064,70.0,89.08,108.44,20.66,25.6119,54.7812
2020 September,181.1,59.1131,48.8265,120.0,48.3519,37.36,106.4,38.8064,63.64,92.31,112.52,43.64,25.6119,54.7812
2020 October,173.5,59.1131,48.8265,121.11,48.3519,37.36,54.6789,38.8064,77.14,93.23,112.5,77.18,25.6119,54.7812
2020 November,192.2,59.1131,48.8265,51.4735,48.3519,37.36,172.22,38.8064,41.8894,89.08,111.17,86.0,25.6119,54.7812
2020 December,155.9,59.1131,48.8265,51.4735,48.3519,37.36,54.6789,38.8064,41.8894,90.0,122.07,41.8616,25.6119,54.7812
2021 January,167.43,257.14,48.8265,190.0,48.3519,37.36,160.0,38.8064,41.8894,96.0,124.32,41.8616,25.6119,54.7812
