Geolocation,1990 Annual,1991 Annual,1992 Annual,1993 Annual,1994 Annual,1995 Annual,1996 Annual,1997 Annual,1998 Annual,1999 Annual,2000 Annual,2001 Annual,2002 Annual,2003 Annual,2004 Annual,2005 Annual,2006 Annual,2007 Annual,2008 Annual,2009 Annual,2010 Annual,2011 Annual,2012 Annual,2013 Annual,2014 Annual,2015 Annual,2016 Annual,2017 Annual,2018 Annual,2019 Annual,2020 Annual
....Abra,,,,1.50,2.00,1.50,1.82,1.60,1.83,3.04,3.87,3.37,3.09,2.67,2.80,2.86,3.21,3.43,4.16,5.16,5.24,4.66,4.75,6.23,59.93,60.90,62.77,63.03,62.59,72.49,91.35
....Apayao,,,,,,,,0.80,1.22,1.16,1.17,1.24,1.26,0.95,1.20,1.20,1.20,1.40,1.77,2.23,2.90,3.00,3.06,3.06,41.46,49.53,45.81,51.82,47.15,60.41,46.63
....Benguet,1.02,1.23,1.20,1.22,1.41,1.16,1.19,1.51,1.80,2.70,1.85,2.37,2.29,2.57,2.74,2.58,2.67,2.60,2.50,2.82,2.64,3.51,3.78,4.02,51.81,57.48,59.67,57.97,58.18,75.28,87.13
....Ifugao,0.62,0.79,1.08,1.53,1.21,1.12,1.34,1.20,1.15,1.47,1.50,1.90,2.34,2.21,2.74,3.22,2.80,2.17,2.26,2.47,2.71,4.04,5.28,4.48,53.59,58.23,68.63,74.96,60.60,75.43,79.67
....Kalinga,0.70,0.88,1.11,1.19,1.05,1.14,1.28,1.35,1.65,1.42,1.13,1.30,1.41,1.51,1.77,1.92,1.96,2.22,3.13,2.93,3.70,4.87,4.44,4.42,58.41,63.92,68.33,66.19,65.31,75.84,81.84
....Mountain Province,0.81,1.00,1.43,1.46,,1.28,1.45,1.30,1.42,1.63,1.44,1.47,1.35,1.70,2.55,2.63,2.73,3.28,3.21,3.33,4.11,4.60,4.89,5.21,59.19,56.38,63.71,68.42,68.41,76.28,78.82
....Ilocos Norte,1.58,1.90,1.99,2.13,1.99,1.84,2.05,2.61,2.66,2.68,2.40,2.62,2.19,1.80,2.12,2.26,2.60,2.84,3.31,3.46,3.56,3.73,3.61,3.83,54.86,61.04,61.57,61.84,62.09,62.47,71.13
....Ilocos Sur,1.36,1.80,1.79,1.57,1.95,1.50,1.65,1.62,1.53,2.60,2.06,1.82,1.69,1.58,2.15,2.51,2.56,2.79,2.75,2.98,3.70,3.63,3.78,4.23,53.29,56.79,62.11,61.79,60.65,71.16,83.22
....La Union,2.10,1.90,1.87,2.22,1.94,2.23,1.81,1.82,1.99,2.36,1.81,2.15,2.11,2.13,2.23,2.22,2.77,4.04,4.48,4.60,4.32,4.45,4.12,4.25,48.88,64.72,67.09,60.59,59.11,67.78,85.11
....Pangasinan,1.76,1.70,1.56,1.44,1.61,1.60,1.69,1.66,1.99,2.63,2.31,2.92,2.83,2.72,3.04,3.11,3.09,3.53,3.90,3.36,3.73,3.85,4.04,4.58,59.03,59.75,58.84,59.36,59.69,63.95,70.68
....Cagayan,1.05,0.99,0.94,0.94,0.94,0.85,1.18,1.38,1.43,1.46,1.15,1.36,1.38,1.45,1.47,1.60,1.45,1.45,2.01,2.17,2.45,2.78,2.71,2.90,55.17,47.16,56.20,52.91,45.99,56.28,54.54
....Isabela,1.13,1.10,1.03,1.27,1.30,1.30,1.27,1.77,1.62,1.69,1.55,1.72,1.80,2.02,2.59,2.06,1.99,2.23,2.54,2.63,2.34,2.71,3.69,3.31,50.27,41.48,45.17,51.64,49.06,65.73,58.50
....Nueva Vizcaya,0.69,0.73,1.03,1.19,1.31,1.09,1.11,1.02,1.26,1.81,1.70,1.85,1.98,1.94,2.38,2.72,2.96,4.00,4.34,4.16,4.12,4.35,4.93,5.10,54.33,46.20,53.93,54.85,53.34,63.54,62.61
....Quirino,0.63,0.62,0.67,0.65,1.16,1.03,1.05,1.07,1.24,1.50,1.29,1.37,1.36,1.47,1.63,1.93,1.78,1.93,1.82,2.45,3.13,2.99,3.51,2.80,44.81,44.29,54.70,59.37,54.90,60.60,59.37
....Aurora,,,,,,,,1.53,2.67,2.37,1.78,2.14,2.18,1.86,2.89,2.89,3.11,3.33,3.20,3.20,3.18,4.34,4.48,5.13,59.04,55.48,58.75,57.55,59.50,68.34,72.38
....Bataan,1.12,1.37,1.43,1.30,1.30,1.46,2.35,2.43,1.92,2.11,2.01,2.25,2.46,1.78,1.76,2.69,2.16,2.26,2.50,2.41,2.48,2.35,2.56,3.67,51.33,54.02,62.89,66.68,66.58,72.84,90.49
....Bulacan,1.48,1.58,1.75,2.21,1.85,1.62,2.29,2.65,2.71,2.97,2.95,2.78,3.19,2.90,3.29,3.23,3.45,3.62,3.91,4.15,4.39,4.96,5.38,5.57,62.07,62.56,58.91,55.42,58.01,63.35,68.72
....Nueva Ecija,1.29,1.38,1.40,,2.17,1.59,2.11,2.21,1.97,2.47,2.35,2.40,2.31,2.25,2.09,2.19,2.33,2.48,2.97,3.40,3.76,4.22,4.39,4.87,56.40,57.53,59.76,62.43,57.82,64.50,80.71
....Pampanga,1.24,1.23,1.02,,,1.19,1.18,1.28,1.55,1.53,1.46,1.91,2.01,1.95,2.27,2.68,2.30,2.31,2.39,2.40,2.45,3.12,3.11,3.19,58.35,60.10,55.48,59.93,62.65,65.68,83.50
....Tarlac,,1.30,1.29,1.44,1.72,1.66,1.31,1.96,1.79,1.81,1.48,1.82,1.98,1.94,2.03,2.02,1.95,2.30,2.69,3.20,3.69,4.33,3.78,4.09,54.16,56.79,56.46,54.99,56.19,62.13,80.73
....Zambales,1.04,1.08,1.22,,1.44,1.30,1.50,1.50,1.62,2.09,2.37,2.83,2.78,2.50,2.69,3.12,2.74,2.78,2.87,,,4.74,5.01,5.51,52.74,59.93,58.24,45.49,44.91,63.36,82.88
....Batangas,1.15,1.40,1.26,1.49,2.16,2.10,1.89,1.78,1.90,1.99,1.85,1.84,1.98,2.11,1.91,2.01,2.40,2.80,2.67,2.96,3.55,3.97,4.01,3.90,50.14,51.38,56.99,58.76,61.55,66.62,82.65
....Cavite,0.95,1.11,1.33,1.25,1.34,1.59,2.48,2.30,2.81,2.66,2.50,2.50,2.50,2.50,2.51,3.24,3.03,2.75,3.03,3.09,3.61,3.85,3.95,4.55,47.58,50.17,50.03,58.89,56.04,60.11,80.19
....Laguna,1.77,1.95,2.39,2.26,2.55,2.49,2.70,2.42,2.50,2.80,2.75,2.78,2.62,2.65,2.90,3.24,3.34,3.61,3.46,3.46,3.56,4.27,4.63,5.51,58.65,59.68,58.06,60.35,63.48,67.64,89.93
....Quezon,2.05,2.08,2.07,1.93,2.63,2.70,2.87,2.34,2.63,2.64,2.65,2.95,2.69,3.49,2.11,1.80,2.41,4.09,4.22,4.29,4.30,4.19,4.42,6.49,61.54,59.06,59.62,59.62,59.60,62.12,86.61
....Marinduque,0.94,1.22,1.15,1.37,1.89,2.06,2.63,2.07,2.43,2.66,2.28,2.70,2.74,2.55,2.42,2.59,2.71,6.15,5.38,4.72,4.35,4.59,5.20,6.25,66.50,65.74,68.21,67.55,64.60,63.76,93.11
....Occidental Mindoro,1.70,2.22,1.99,1.87,2.02,2.02,2.05,2.11,2.37,2.35,2.39,2.10,2.13,2.19,1.97,2.70,3.14,3.90,3.17,4.05,4.06,4.41,4.44,4.74,66.27,55.68,40.76,49.44,55.97,53.19,71.56
....Oriental Mindoro,0.71,1.00,1.03,1.11,1.30,1.09,1.08,1.00,1.15,1.34,1.31,1.44,1.47,1.59,1.82,1.72,1.89,2.52,1.83,2.29,2.68,3.29,3.22,4.86,60.82,60.47,62.53,63.35,65.99,68.60,95.72
....Palawan,1.24,1.34,1.34,1.28,1.10,1.31,1.38,1.35,1.73,1.81,1.73,1.28,1.61,1.63,1.67,1.71,1.63,1.70,1.84,1.81,2.29,2.71,2.76,2.82,41.21,48.10,53.34,40.14,54.51,62.77,64.55
....Romblon,,,,,2.23,,1.65,1.65,1.80,2.10,2.04,2.33,2.05,2.31,2.58,2.37,2.78,2.93,2.38,2.81,2.92,2.74,2.79,2.80,61.02,61.74,62.97,65.86,67.45,63.46,63.31
....Albay,1.19,,1.13,,1.34,1.50,2.14,2.48,2.35,2.59,2.35,2.30,2.36,2.46,2.69,2.99,3.30,3.80,3.90,3.80,3.87,5.01,5.08,6.08,67.31,65.70,65.31,65.40,67.21,68.32,78.54
....Camarines Norte,1.14,1.54,1.65,1.65,2.13,2.26,2.85,3.42,3.80,3.46,2.92,2.93,3.06,3.10,2.91,2.79,3.34,3.38,3.49,3.77,3.75,3.62,4.14,5.54,60.91,62.84,63.67,61.20,61.89,70.85,84.10
....Camarines Sur,1.00,1.13,1.18,1.11,1.58,1.64,3.06,2.94,2.02,2.78,1.78,2.45,2.50,2.77,2.94,3.39,3.45,3.49,3.44,4.05,4.17,4.20,4.31,5.11,55.79,56.85,56.31,65.06,67.29,65.99,85.77
....Aklan,0.76,1.17,1.23,1.12,0.96,1.06,1.17,1.20,1.43,1.78,2.00,2.06,2.16,1.90,2.36,4.49,2.73,2.83,3.52,3.86,3.83,3.64,3.52,3.76,54.00,45.06,45.87,43.61,54.12,60.72,71.27
....Antique,0.70,1.29,1.11,0.99,1.15,1.12,1.12,0.92,1.64,1.24,1.07,1.03,1.22,1.50,3.45,3.82,3.80,3.96,5.08,6.16,6.74,6.39,5.24,4.86,61.55,65.33,63.19,61.24,62.29,68.04,83.18
....Capiz,0.49,,,,,2.43,1.12,2.31,3.87,2.46,3.81,2.50,,,,1.40,1.93,3.06,5.20,5.71,5.75,5.72,5.77,5.74,58.20,56.69,57.65,56.97,55.48,63.25,83.21
....Guimaras,,,,,,,1.23,0.87,1.52,1.74,1.31,1.78,2.05,2.06,2.06,2.18,2.17,2.37,2.85,2.89,3.01,3.23,3.23,3.69,59.67,59.90,59.18,59.82,59.60,60.49,61.87
....Iloilo,0.92,1.45,1.63,1.36,1.82,1.53,1.78,2.01,2.23,2.35,2.27,2.50,2.67,2.76,2.79,2.75,2.85,3.03,3.54,3.90,3.73,3.03,3.10,3.59,49.70,54.64,57.54,59.16,59.88,64.36,82.98
....Negros Occidental,0.52,0.98,1.00,1.21,1.30,1.36,1.60,1.99,2.63,2.76,2.79,2.85,2.88,2.93,2.92,2.85,4.27,3.99,4.00,4.01,4.18,4.48,4.58,4.59,48.11,40.35,40.24,40.38,54.63,59.00,65.89
....Bohol,0.55,0.96,0.79,0.95,0.93,0.83,0.90,1.18,1.72,2.52,2.52,2.36,2.58,2.75,3.02,3.00,2.85,3.00,3.67,4.13,4.54,5.06,5.12,6.54,48.39,48.31,47.87,46.10,47.62,64.91,76.60
....Cebu,1.27,1.49,1.40,1.66,1.64,1.45,1.84,1.84,2.28,2.32,2.19,2.28,2.57,2.56,2.71,3.00,3.31,3.54,3.63,3.83,3.95,4.02,4.50,5.23,50.56,52.52,52.53,46.97,49.06,57.20,76.86
....Negros Oriental,,1.13,,,,1.36,1.22,1.25,1.75,1.68,2.03,2.11,2.28,,3.08,2.85,2.86,3.11,3.23,3.36,3.92,5.14,5.36,5.72,57.24,62.61,63.99,61.79,63.67,71.95,87.63
....Siquijor,,,,,,,1.13,1.25,1.77,1.57,,,,,2.59,2.00,2.01,2.41,2.35,3.06,3.38,3.56,3.60,5.57,57.60,60.00,60.65,58.79,62.49,61.70,60.13
....Eastern Samar,0.57,0.68,0.63,,0.73,0.74,0.72,0.90,0.63,0.80,0.93,0.97,1.15,1.05,1.44,0.87,0.85,0.85,1.12,1.36,2.15,2.32,2.32,2.20,50.45,47.39,45.17,47.94,58.26,63.14,65.87
....Leyte,1.07,1.21,1.14,1.11,1.14,1.25,,,2.04,,2.44,2.40,2.54,,,,,,2.22,2.31,2.36,2.62,3.39,3.59,62.72,60.24,49.65,51.28,53.88,57.31,64.63
....Northern Samar,0.43,,,0.49,,0.90,1.28,0.81,,,,,,,,,4.88,5.36,5.77,2.66,2.69,2.57,3.05,3.62,55.34,66.68,69.87,64.75,69.45,75.45,82.47
....Southern Leyte,,,,,,,1.34,1.61,1.86,1.94,1.49,2.49,2.76,2.55,2.78,2.64,2.88,3.16,3.28,2.39,2.82,3.88,3.99,5.28,63.08,59.73,60.00,59.18,60.00,62.25,68.33
....Zamboanga del Norte,0.51,0.55,0.55,0.70,0.81,1.12,1.22,1.24,1.35,1.26,1.24,1.27,1.34,1.40,1.51,1.55,1.27,1.45,1.95,2.18,2.58,2.69,2.98,3.73,39.71,47.18,52.84,54.64,51.48,59.13,67.28
....Zamboanga del Sur,0.51,0.72,0.69,0.78,0.75,0.89,1.14,1.03,1.09,0.96,0.94,1.04,1.16,1.23,1.37,1.52,1.38,1.55,1.93,2.46,2.58,2.46,2.37,3.28,37.31,35.00,35.62,28.30,30.89,36.72,44.36
....Zamboanga Sibugay,,,,,,,,,,,,,,,1.53,1.69,1.60,1.56,1.87,2.13,2.14,2.40,2.45,2.48,27.87,33.33,34.27,34.01,35.24,39.71,50.83
....City of Zamboanga,0.57,0.75,1.03,1.09,1.02,0.94,0.92,0.93,1.02,0.96,0.96,0.92,8.60,0.93,0.92,0.96,1.34,1.48,1.39,1.68,1.61,1.50,1.69,1.99,26.60,26.63,40.42,44.98,49.71,58.94,77.68
....Bukidnon,0.39,0.57,0.71,0.64,0.71,0.79,0.79,1.21,1.09,1.17,1.00,1.00,1.19,1.17,1.22,1.47,1.54,1.59,1.84,2.01,2.10,1.83,1.83,2.07,29.43,32.97,36.71,32.51,33.01,37.43,51.76
....Camiguin,,,,,,,0.80,1.04,,1.34,1.47,1.57,2.18,1.99,1.98,1.76,1.87,1.96,2.29,2.82,4.10,4.40,4.41,5.21,56.55,57.38,58.90,56.29,54.91,63.86,69.38
....Lanao del Norte,0.47,0.72,0.84,0.85,0.82,0.87,0.98,1.16,1.27,1.48,1.38,1.32,1.31,1.41,1.95,2.30,2.34,2.59,3.03,3.42,3.73,4.88,4.67,4.88,40.15,38.42,39.71,39.19,35.57,38.25,60.96
....Misamis Occidental,0.64,0.85,0.99,1.04,1.20,1.29,1.39,1.50,1.61,1.71,1.65,1.65,1.65,1.65,1.75,1.75,1.90,2.09,2.75,2.82,3.43,3.45,3.40,3.44,35.52,35.07,41.17,35.54,36.39,44.25,60.34
....Misamis Oriental,0.85,1.07,1.13,1.15,1.20,1.21,1.26,1.37,1.59,1.38,1.34,1.32,1.27,1.41,1.64,1.84,2.19,2.23,2.45,3.06,3.31,3.79,3.56,4.00,35.52,33.76,37.36,37.26,38.47,46.08,58.04
....Davao del Sur,0.58,0.68,0.83,0.84,0.96,1.00,1.15,1.32,1.34,1.37,1.45,1.34,1.34,1.37,1.45,1.50,1.25,1.49,1.78,1.94,2.02,1.95,1.62,2.13,28.60,26.93,31.56,24.78,27.44,43.81,54.36
....Davao Oriental,,,,,,,1.06,0.95,1.22,0.97,0.94,0.99,1.10,1.36,1.66,2.16,1.69,1.46,1.71,1.62,1.65,1.42,1.44,1.58,31.93,32.32,34.56,34.08,34.10,43.93,56.26
....City of Davao,0.73,0.90,1.03,1.00,1.82,1.17,1.11,1.07,1.03,1.12,0.98,1.01,1.02,1.16,1.14,1.25,1.28,1.33,1.47,1.61,2.05,1.98,2.20,3.29,34.91,34.04,36.78,33.25,35.01,47.15,61.65
....Cotabato,0.57,0.60,0.63,0.57,0.57,0.52,0.49,0.43,0.81,0.69,0.69,0.79,0.94,0.92,0.94,0.99,0.99,0.97,1.25,1.42,1.43,1.38,1.37,1.68,26.21,27.25,31.06,26.90,28.44,34.44,43.14
....Sarangani,,,,,,0.96,0.67,0.76,0.82,0.94,0.87,0.86,0.87,0.93,0.98,1.06,1.55,2.01,2.24,2.74,3.56,3.68,3.84,4.18,45.21,47.12,32.76,26.21,28.64,40.25,47.35
....Sultan Kudarat,,,0.50,0.54,0.52,0.63,0.65,0.63,0.70,0.74,0.69,0.67,0.70,0.82,1.13,1.53,1.90,1.68,1.93,2.10,2.24,2.03,1.49,1.93,29.48,28.55,31.40,28.47,29.43,38.04,40.00
....South Cotabato,0.31,0.37,0.32,0.52,0.52,0.85,1.03,0.76,1.06,0.90,0.80,1.12,1.24,1.09,0.88,1.14,1.29,1.33,1.68,1.91,1.91,1.78,1.56,1.68,25.25,29.18,30.20,26.60,28.29,35.95,44.44
....Agusan del Norte,0.71,0.88,1.27,0.84,1.05,0.97,1.20,1.07,1.14,1.42,1.52,1.95,2.19,2.41,2.48,2.36,2.39,2.45,3.26,3.37,3.16,3.12,2.46,4.67,44.70,48.15,44.85,39.92,36.71,45.50,56.59
....Agusan del Sur,0.40,0.45,0.51,0.61,0.76,0.75,0.65,1.00,1.04,0.97,1.00,1.08,1.36,1.50,2.01,2.23,2.66,2.76,2.68,2.23,1.87,2.46,2.53,2.62,36.79,41.62,39.63,36.26,33.90,39.94,51.76
....Surigao del Norte,0.61,0.88,0.96,1.02,1.27,1.24,1.35,1.52,1.57,1.66,1.68,1.68,1.68,1.88,1.98,2.00,2.40,2.99,3.53,3.47,3.51,3.50,3.52,4.42,44.99,44.97,44.71,43.87,44.32,56.31,66.75
....Surigao del Sur,0.60,0.80,0.76,0.78,0.98,1.15,1.21,1.02,0.92,0.91,0.89,0.87,0.97,0.97,1.00,0.98,0.98,1.17,1.22,1.21,1.74,2.60,2.87,3.05,40.83,42.16,42.58,40.96,34.24,44.10,58.93
....Lanao del Sur,,,0.56,0.80,0.60,0.53,0.80,1.00,1.33,1.35,1.44,1.50,1.31,1.49,1.62,1.89,2.31,2.23,2.36,2.80,3.06,,,,45.72,45.59,45.21,42.72,,,
....Maguindanao,0.76,0.80,0.74,0.52,0.77,0.85,1.52,1.57,1.70,1.60,1.55,1.55,,1.59,1.62,1.49,1.43,1.53,1.81,1.92,2.75,3.34,3.29,3.40,34.27,31.53,32.24,33.66,35.46,32.95,32.55
....Sulu,0.26,0.32,0.45,0.76,1.01,1.03,1.13,1.15,1.16,1.09,1.00,0.97,0.96,1.00,1.00,1.25,1.24,1.05,0.99,1.16,1.06,1.22,1.29,1.33,25.63,33.37,42.52,55.42,56.10,60.48,69.94
