Geolocation,1990 Annual,1991 Annual,1992 Annual,1993 Annual,1994 Annual,1995 Annual,1996 Annual,1997 Annual,1998 Annual,1999 Annual,2000 Annual,2001 Annual,2002 Annual,2003 Annual,2004 Annual,2005 Annual,2006 Annual,2007 Annual,2008 Annual,2009 Annual,2010 Annual,2011 Annual,2012 Annual,2013 Annual,2014 Annual,2015 Annual,2016 Annual,2017 Annual,2018 Annual,2019 Annual,2020 Annual
....Abra,,,,2.52,2.61,2.75,2.78,2.66,3.12,3.70,3.20,3.23,3.30,3.00,3.14,3.30,3.43,3.71,3.73,4.27,4.70,4.76,4.80,4.85,5.17,4.91,5.01,5.32,5.97,5.89,6.57
....Apayao,,,,,,,,2.51,2.85,3.24,3.16,3.38,3.49,3.24,3.98,3.98,4.18,4.53,4.48,5.00,5.00,5.00,5.00,4.95,4.96,5.15,5.97,6.00,6.00,6.61,7.28
....Benguet,1.93,2.25,,2.22,2.19,2.32,2.63,2.93,3.19,3.47,3.30,3.48,3.53,3.56,4.00,3.95,3.97,4.29,4.61,4.82,4.94,4.93,4.93,4.89,5.17,5.48,5.48,5.65,5.73,6.17,6.84
....Ifugao,1.84,2.17,,2.30,2.49,2.37,2.57,2.64,3.01,2.99,,,,,3.47,3.47,3.66,4.20,4.27,4.89,4.99,4.80,4.62,4.93,5.17,5.63,5.85,5.94,6.15,6.28,7.00
....Kalinga,1.98,2.46,,2.44,2.66,2.54,2.68,2.57,3.06,3.17,2.70,3.48,3.46,3.46,3.92,3.81,3.83,4.20,4.11,4.96,4.99,4.56,4.58,5.00,5.45,6.00,6.09,6.42,6.09,6.70,7.53
....Mountain Province,1.98,2.58,,2.97,2.98,2.99,2.92,2.93,3.27,3.66,3.65,4.17,4.27,4.07,4.76,4.22,4.48,4.82,4.38,5.21,4.95,4.97,4.87,5.00,5.23,5.93,6.00,6.00,6.37,7.16,7.52
....Ilocos Norte,1.72,2.26,,2.16,2.41,2.46,2.71,2.85,3.18,3.48,3.24,3.51,3.48,3.42,3.69,3.62,3.87,4.13,4.18,4.56,4.60,4.74,4.85,4.89,5.10,5.26,5.28,5.34,5.34,5.89,6.42
....Ilocos Sur,1.60,2.08,,2.34,2.40,2.49,,2.57,2.93,3.41,3.09,3.60,3.50,3.49,3.77,3.81,3.85,4.16,4.20,4.63,4.70,4.65,4.62,4.64,4.97,5.31,5.38,5.58,5.55,5.99,6.88
....La Union,1.70,2.20,,2.18,2.36,2.35,2.50,2.48,2.78,3.07,3.17,3.56,3.65,3.61,3.66,3.69,4.09,4.30,4.35,4.77,4.80,4.97,5.00,5.05,5.06,5.17,5.18,5.35,5.37,6.05,6.54
....Pangasinan,1.83,2.34,,2.48,2.67,2.38,2.49,2.57,2.95,3.07,2.83,3.28,3.55,3.53,3.82,3.74,3.71,4.22,4.86,4.91,4.55,4.47,4.44,4.44,4.97,5.13,5.19,5.88,5.97,5.98,6.77
....Cagayan,1.83,2.35,,2.36,2.52,2.48,2.55,2.51,2.92,3.25,2.90,3.65,3.65,3.38,3.73,3.67,4.10,4.50,4.51,4.70,4.75,4.68,4.62,4.66,5.24,5.41,5.59,6.31,6.37,6.23,7.05
....Isabela,1.75,2.17,,2.26,2.46,2.53,2.76,2.83,3.13,3.37,3.12,3.30,3.32,3.41,3.69,3.83,3.79,4.07,4.84,5.08,4.73,4.76,4.88,4.97,5.35,5.25,5.44,5.94,5.85,6.45,7.08
....Nueva Vizcaya,1.72,2.12,,2.08,2.21,2.28,2.47,2.60,2.94,3.21,3.00,3.26,3.48,3.32,3.51,3.52,3.62,4.21,4.55,4.42,4.39,4.40,4.40,4.38,5.52,5.57,5.54,5.54,5.63,5.85,6.77
....Quirino,1.94,2.30,,2.33,2.46,2.47,2.61,2.75,3.01,3.21,2.92,3.21,3.50,3.44,4.06,4.22,4.31,4.43,4.67,4.74,4.75,4.81,5.00,5.00,5.31,5.49,5.25,5.57,5.47,5.87,6.97
....Aurora,,,,,,,,2.61,3.33,3.48,3.39,3.56,3.57,3.61,3.89,3.96,4.12,4.47,4.56,4.84,4.86,4.82,4.81,4.90,5.15,5.44,5.43,5.98,6.00,6.36,6.99
....Bataan,1.66,2.26,,2.30,2.30,2.38,2.27,2.30,2.95,3.16,3.11,3.39,3.63,3.04,3.56,3.75,3.87,4.03,4.21,4.24,4.33,4.45,4.16,4.48,4.72,5.92,5.60,5.50,5.40,5.79,6.49
....Bulacan,1.60,2.14,,2.07,2.41,2.28,2.48,2.50,2.79,3.31,2.81,3.42,3.42,3.37,3.55,3.46,3.68,4.02,3.89,4.30,4.36,4.20,4.30,4.26,4.66,5.20,4.78,5.01,5.14,5.40,6.25
....Nueva Ecija,1.63,2.03,,2.22,2.31,2.31,2.44,2.26,3.13,3.07,2.99,3.39,3.57,,3.77,3.81,3.86,4.20,4.23,4.65,4.62,4.48,4.62,4.52,4.69,5.23,5.31,5.62,5.53,6.08,6.61
....Pampanga,1.67,2.00,,,2.28,2.30,2.42,2.53,2.81,3.18,2.99,3.24,3.27,3.26,3.47,3.48,3.57,3.67,4.16,4.52,4.96,4.56,4.56,4.57,4.74,5.21,5.42,5.68,5.73,5.84,6.38
....Tarlac,1.67,2.22,,2.32,2.41,2.52,2.35,2.43,2.85,3.05,2.72,3.20,3.25,3.07,3.43,3.42,3.67,4.06,4.18,4.48,4.47,4.40,4.70,4.42,4.74,4.99,5.02,5.27,5.28,5.77,6.60
....Zambales,1.76,2.33,,2.42,2.56,2.48,2.50,2.50,2.99,3.38,2.99,3.41,3.31,3.29,3.52,3.56,4.01,4.22,4.29,4.87,4.97,4.91,5.00,5.04,5.48,5.92,5.87,5.89,5.83,6.09,6.82
....Batangas,1.57,2.02,,2.22,2.23,2.23,2.23,2.35,2.66,2.78,2.51,2.86,2.90,2.91,3.24,3.33,3.65,4.00,4.00,4.40,4.47,4.45,4.43,4.31,4.73,4.79,5.19,5.28,5.28,5.70,6.50
....Cavite,1.63,2.17,,2.22,2.30,2.35,2.37,2.40,2.62,2.97,2.60,3.18,3.18,3.11,3.52,3.46,3.75,4.29,4.04,4.48,4.23,4.07,4.10,4.29,4.94,5.04,5.25,5.28,5.15,5.78,6.60
....Laguna,1.60,2.09,,2.02,2.02,2.11,2.28,2.40,2.71,2.88,2.81,3.00,3.11,3.08,3.38,3.36,3.58,4.05,4.14,4.48,4.36,4.36,4.40,4.42,4.93,5.52,5.63,5.91,5.85,6.16,6.91
....Quezon,1.59,2.01,,2.16,2.29,2.22,2.32,2.18,2.68,2.71,2.44,2.99,2.84,2.82,3.25,3.26,3.63,4.01,3.90,4.40,4.12,4.13,4.32,4.42,4.85,4.75,5.19,5.40,5.00,5.82,6.78
....Marinduque,1.82,2.33,,2.21,2.48,2.52,2.57,,,,,,,,,3.50,3.82,4.37,4.41,4.75,4.87,4.72,4.87,4.82,5.34,5.31,5.73,5.98,5.06,6.19,6.74
....Occidental Mindoro,1.68,2.14,,2.34,2.45,2.54,2.38,2.42,2.80,3.15,2.88,3.20,3.36,3.40,3.79,3.87,3.97,4.25,4.57,5.09,5.35,4.96,4.89,5.05,4.76,5.87,5.34,5.50,5.72,5.86,6.21
....Oriental Mindoro,1.66,2.20,,2.09,2.32,2.25,2.38,2.46,2.95,3.26,2.89,3.42,3.53,3.52,3.54,3.53,3.81,4.39,4.44,4.94,4.93,4.84,4.81,4.70,5.01,4.98,5.35,5.61,5.56,5.94,6.60
....Palawan,1.84,2.39,,2.26,2.55,2.33,2.61,2.66,2.83,2.88,2.93,3.41,3.69,3.69,3.92,3.89,4.03,4.66,5.00,5.00,4.99,5.00,4.96,5.00,5.66,5.85,5.76,5.99,6.00,6.59,8.00
....Romblon,1.69,2.11,,2.74,2.72,2.71,2.82,2.63,2.90,3.15,3.19,3.30,3.61,3.34,4.19,4.14,4.04,4.75,4.79,4.97,5.01,5.00,5.00,5.00,5.37,6.00,6.00,7.00,7.00,7.00,7.00
....Albay,1.61,,,,2.46,,2.66,2.58,2.87,2.93,2.78,3.18,3.29,3.24,3.46,3.43,3.65,4.45,4.37,4.76,4.88,4.97,5.00,5.13,5.38,5.62,5.70,5.63,5.47,5.82,6.76
....Camarines Norte,1.67,1.94,,2.18,2.30,2.16,2.50,2.42,2.92,2.87,2.54,3.09,2.98,2.86,3.36,3.39,3.56,4.14,3.97,4.49,4.36,4.34,4.58,4.76,5.14,4.95,5.43,5.73,5.66,5.89,6.56
....Camarines Sur,1.65,1.96,,2.15,2.27,2.32,2.32,2.46,2.77,2.76,2.49,3.00,3.06,2.92,3.15,3.13,3.26,4.03,3.73,4.30,4.29,4.39,4.48,4.52,4.43,4.63,4.97,5.32,5.34,5.44,6.28
....Catanduanes,,,,,,2.22,2.59,,,3.21,,,,,3.57,3.46,3.75,4.56,4.22,4.52,4.75,4.44,4.39,4.41,4.77,4.73,4.72,4.69,5.94,6.22,7.53
....Masbate,1.72,2.37,,2.43,2.71,2.68,2.89,2.95,3.01,3.01,3.10,3.33,3.50,3.32,3.79,3.68,4.20,4.90,4.98,5.25,5.30,5.06,5.01,5.06,6.17,5.87,5.88,6.59,6.60,6.62,7.41
....Sorsogon,1.89,2.28,,2.55,2.49,2.32,2.45,2.52,2.85,2.98,2.64,3.09,3.15,3.15,3.39,3.60,3.90,5.17,4.46,4.72,4.75,4.62,4.77,4.90,5.43,5.52,5.79,5.64,5.32,5.99,7.00
....Aklan,1.60,2.13,,2.18,2.33,2.25,2.30,2.44,2.92,3.18,2.99,3.27,3.31,3.10,3.50,3.66,4.04,4.67,4.80,5.08,5.63,5.33,5.45,5.39,5.55,5.81,6.01,6.33,5.98,6.15,7.33
....Antique,1.78,1.91,,2.09,2.28,2.24,2.34,2.49,3.07,2.85,2.64,3.06,2.98,3.23,3.40,3.47,3.94,4.37,4.45,4.69,4.65,4.40,4.67,4.86,5.67,5.34,5.74,6.44,6.20,6.39,6.96
....Capiz,1.79,2.01,,2.21,2.46,2.50,2.47,2.53,2.79,2.67,2.61,3.00,2.94,3.01,3.32,3.50,3.82,4.14,4.15,4.64,4.40,4.50,4.51,4.71,5.40,5.21,5.49,5.63,5.36,6.21,6.70
....Guimaras,,,,,,,2.68,2.77,3.19,3.50,3.50,3.63,4.00,3.54,3.51,3.50,3.69,4.00,4.21,4.50,4.71,4.94,5.00,5.01,5.91,6.03,6.47,6.49,6.43,6.42,6.42
....Iloilo,1.69,1.93,,2.10,2.28,2.23,2.32,2.48,2.91,2.94,2.76,3.42,3.35,3.34,3.59,3.59,3.95,4.57,4.73,4.73,4.77,4.81,4.97,5.10,5.80,5.50,5.90,6.38,6.03,6.14,6.67
....Negros Occidental,1.56,1.82,,1.96,2.19,2.13,2.24,2.30,2.66,2.84,2.82,2.77,2.83,2.93,3.64,3.68,4.00,4.47,4.67,4.96,5.19,5.18,5.33,5.54,5.77,6.12,6.34,6.61,6.52,6.40,7.37
....Bohol,1.70,1.91,,2.10,2.31,2.29,2.37,2.45,2.69,2.94,2.74,3.13,3.07,3.09,3.51,3.78,4.08,4.45,4.86,5.12,5.07,5.11,5.57,5.09,5.73,5.58,6.08,6.01,5.70,6.29,6.94
....Cebu,1.49,1.85,,2.06,2.37,2.17,2.39,2.54,2.68,2.79,2.55,2.79,2.83,2.81,3.36,3.28,3.65,4.13,4.25,4.35,4.44,4.46,4.79,4.99,5.46,5.48,5.47,5.72,5.75,5.67,6.47
....Negros Oriental,1.54,1.75,,1.88,2.19,2.14,2.47,2.57,2.69,3.41,2.83,2.94,2.97,2.92,3.49,3.51,3.85,4.52,4.80,4.91,5.34,5.44,5.59,5.45,5.93,6.07,6.16,6.20,5.93,6.03,6.37
....Siquijor,,,,,,,2.61,2.57,2.80,3.07,2.91,2.98,3.27,3.28,3.65,3.95,3.99,4.71,5.06,5.41,5.35,5.33,5.48,5.79,6.25,6.31,6.50,6.82,6.83,6.74,7.60
....Biliran,,,,,,,2.66,2.65,2.80,3.03,2.87,3.04,3.27,3.32,4.03,4.04,4.52,4.98,4.99,5.42,5.38,5.65,5.59,6.07,7.27,6.92,7.62,7.40,7.80,7.17,7.83
....Eastern Samar,1.95,2.30,,2.43,2.88,2.75,3.06,2.42,3.06,3.26,3.22,3.63,3.91,3.84,4.65,4.83,5.10,5.40,5.50,6.08,6.00,6.03,6.09,6.15,7.33,6.81,6.66,6.96,7.35,7.00,7.90
....Leyte,1.74,1.98,,2.15,2.42,2.51,2.56,2.57,2.85,3.08,2.85,3.21,3.37,3.23,3.66,3.65,4.02,4.33,4.79,5.08,4.98,5.01,5.18,5.30,6.20,5.78,5.77,5.96,5.91,6.09,7.31
....Northern Samar,1.95,2.38,,2.42,2.61,2.59,2.66,2.72,3.10,3.29,2.94,3.67,3.68,3.62,4.15,4.29,4.76,5.59,5.04,5.23,5.42,5.36,5.39,5.56,5.99,5.80,5.59,5.89,6.00,6.02,7.95
....Samar,1.75,2.03,,2.34,2.47,2.53,2.68,2.72,2.91,3.21,3.03,3.15,3.21,3.20,3.79,3.77,3.96,4.48,4.60,4.74,4.84,4.86,4.90,4.98,5.68,5.98,5.82,6.03,6.16,6.56,7.86
....Southern Leyte,,,,,,,2.64,2.66,2.73,2.84,2.71,2.98,3.02,3.02,3.64,3.58,3.84,4.30,4.51,4.65,4.86,4.89,5.19,5.28,5.95,6.27,6.86,6.18,6.03,6.26,8.08
....Zamboanga del Norte,1.80,2.03,,2.31,2.60,2.42,2.68,2.80,2.94,3.03,2.87,3.06,3.13,3.12,3.41,3.74,3.81,4.10,4.34,4.73,4.94,4.98,4.92,4.69,5.35,5.38,5.47,5.55,5.53,5.79,6.68
....Zamboanga del Sur,1.74,2.04,,2.21,2.54,2.48,2.70,2.63,2.79,3.14,3.02,3.54,3.40,3.37,3.86,3.97,4.06,4.55,4.67,4.74,5.36,5.22,5.31,5.15,4.97,5.01,5.44,5.83,6.00,6.00,5.93
....Zamboanga Sibugay,,,,,,,,,,,,,,,3.88,3.70,4.38,4.75,4.98,5.01,5.34,5.16,5.55,5.16,5.59,5.86,6.00,5.98,5.96,5.76,6.22
....City of Zamboanga,1.70,2.01,,2.08,2.30,2.25,2.36,2.59,2.49,2.75,2.48,2.82,3.01,3.11,3.59,3.64,3.86,4.35,4.40,4.69,5.08,5.23,5.41,5.41,5.60,5.77,5.83,6.04,6.11,6.47,6.58
....Bukidnon,1.88,2.22,,2.21,2.38,2.48,2.52,2.59,2.78,3.04,2.77,2.99,3.56,3.07,3.78,3.62,3.94,4.35,4.62,4.84,4.75,4.83,4.79,4.74,4.98,5.23,5.77,5.91,5.93,5.60,6.09
....Lanao del Norte,1.76,1.99,,2.13,2.38,2.46,2.67,2.87,2.69,2.98,3.17,3.36,3.50,3.75,3.84,4.00,4.27,4.51,4.68,4.45,4.67,4.75,4.88,4.72,5.23,5.40,5.75,5.75,5.05,5.56,6.17
....Misamis Occidental,1.70,1.90,,2.18,2.49,2.26,2.43,2.43,2.62,2.84,2.75,2.86,2.94,2.99,3.58,3.57,3.96,4.56,4.78,4.69,5.05,5.02,5.06,4.79,5.12,5.31,5.66,5.59,5.60,5.84,6.04
....Misamis Oriental,1.64,1.96,,2.05,2.37,2.22,2.32,2.43,2.66,3.02,2.76,3.01,2.97,2.98,3.33,3.37,3.72,4.12,4.23,4.33,4.47,4.48,4.65,4.45,4.95,5.21,5.38,5.36,5.47,5.53,5.83
....Davao de Oro,,,,,,,,,,,,,2.95,2.99,3.52,3.50,3.46,4.24,4.36,4.55,5.00,4.56,4.97,5.07,5.06,5.17,5.64,5.81,5.64,5.97,6.24
....Davao del Norte,1.81,1.84,,2.01,2.28,2.10,2.22,2.40,2.68,2.94,2.41,2.84,3.08,3.10,3.24,3.11,3.54,4.42,4.44,4.86,5.49,5.06,5.19,5.00,5.22,5.45,5.62,4.76,5.18,5.72,6.11
....Davao del Sur,1.73,1.88,,1.89,2.21,2.04,2.21,2.45,2.58,2.72,2.41,2.93,2.97,3.16,3.66,3.71,3.82,4.31,4.44,4.59,4.98,4.97,5.00,4.84,5.00,5.45,5.71,5.93,5.82,5.83,6.24
....Davao Oriental,,,,,,,2.11,2.37,2.94,3.10,3.00,3.06,3.20,3.35,3.59,3.57,4.10,4.99,5.31,5.03,5.28,5.71,5.78,5.96,6.00,5.98,5.77,5.13,5.28,5.68,6.06
....City of Davao,1.66,1.88,,2.01,2.30,2.25,2.40,2.49,2.70,2.88,2.63,3.03,3.11,3.20,3.46,3.48,3.67,4.26,4.19,4.41,4.87,4.93,4.95,4.71,4.94,5.17,5.60,5.26,5.42,5.89,6.22
....Cotabato,1.71,1.91,,2.09,2.35,2.63,2.25,2.33,2.75,2.99,2.90,2.85,2.93,3.39,3.71,3.60,3.68,4.31,4.46,4.53,4.58,4.65,5.35,5.13,5.71,5.53,6.13,6.14,6.21,6.11,6.12
....Sarangani,,,,,,,2.38,2.37,2.68,2.62,2.41,2.92,2.82,2.89,3.35,3.22,3.62,4.20,3.97,4.34,4.64,4.50,4.44,4.03,4.65,4.95,5.19,4.82,5.05,5.40,5.90
....Sultan Kudarat,,,,2.24,2.50,2.50,2.48,2.53,2.80,3.23,3.04,3.39,3.42,3.34,3.70,3.74,3.88,4.42,4.51,4.80,5.08,4.93,5.08,5.03,5.86,5.98,5.95,5.95,5.51,6.22,6.17
....South Cotabato,1.78,2.04,,2.00,2.44,2.45,2.53,2.52,2.86,2.98,2.96,3.07,3.14,3.36,3.77,4.01,4.03,4.59,4.37,4.22,4.66,4.28,4.40,4.35,4.66,5.18,5.12,5.01,5.16,5.42,6.03
....Agusan del Norte,1.75,1.93,,1.90,2.14,2.06,2.44,2.52,2.73,2.83,2.82,2.96,2.90,3.10,3.57,3.56,3.70,4.33,4.54,4.53,4.85,4.75,4.75,4.56,4.93,5.14,5.82,5.86,5.59,5.69,6.57
....Agusan del Sur,1.84,1.97,,2.06,2.60,2.50,2.49,,,,,,,,,,,4.78,4.35,4.64,5.07,4.88,4.79,4.43,5.07,5.38,5.93,5.66,5.39,5.95,6.38
....Surigao del Norte,1.49,1.77,,2.02,2.22,2.34,2.36,2.48,,,,,,,,,,4.73,4.44,4.55,4.84,4.86,5.03,4.91,5.24,5.39,5.83,5.89,6.35,6.20,6.32
....Surigao del Sur,1.83,2.09,,2.16,2.48,2.36,2.42,2.57,2.73,2.99,2.77,3.04,3.09,3.24,3.70,3.83,4.16,4.72,4.60,4.57,5.11,5.09,4.84,4.81,5.93,5.72,5.81,5.41,5.35,6.12,6.22
....Basilan,1.96,2.70,,2.22,2.72,2.66,2.70,2.76,2.77,2.86,2.94,3.25,3.26,3.30,3.96,4.16,4.14,4.66,5.61,5.37,5.33,5.16,5.83,6.06,5.99,6.64,7.00,7.17,7.99,8.17,8.40
....Lanao del Sur,,,,2.27,2.38,2.43,2.56,2.67,2.87,2.92,3.00,2.92,2.86,3.47,3.73,3.54,4.46,4.58,5.19,4.92,5.23,,,,,,,,,,
....Maguindanao,1.84,1.89,,2.06,2.58,2.55,2.54,2.56,2.72,3.07,2.83,2.90,3.23,3.29,3.63,4.23,4.36,4.57,4.66,5.04,5.34,5.17,5.37,4.42,4.82,5.24,5.24,5.63,5.37,5.61,7.13
....Sulu,2.52,3.24,,2.68,2.94,2.93,3.14,3.25,3.14,3.55,3.09,3.72,3.69,3.94,4.54,4.88,4.89,5.53,5.95,5.89,5.87,5.98,5.74,5.97,6.27,6.33,7.13,7.21,6.92,6.98,8.04
....Tawi-Tawi,,,,,,,2.59,3.06,3.08,3.25,3.43,3.85,3.62,3.82,4.67,4.65,5.36,5.42,5.75,5.10,5.31,5.49,5.84,5.81,5.81,5.88,6.22,6.21,6.23,6.62,6.67
