Geolocation,1990 Annual,1991 Annual,1992 Annual,1993 Annual,1994 Annual,1995 Annual,1996 Annual,1997 Annual,1998 Annual,1999 Annual,2000 Annual,2001 Annual,2002 Annual,2003 Annual,2004 Annual,2005 Annual,2006 Annual,2007 Annual,2008 Annual,2009 Annual,2010 Annual,2011 Annual,2012 Annual,2013 Annual,2014 Annual,2015 Annual,2016 Annual,2017 Annual,2018 Annual,2019 Annual,2020 Annual
....Abra,,,,27.34,31.42,32.43,42.52,44.91,46.82,53.38,44.04,45.81,50.87,48.39,37.87,45.36,53.74,52.98,54.8,61.57,86.21,88.35,79.87,76.35,80.77,87.21,87.84,85.61,85.97,85.26,89.16
....Apayao,,,,,,,,23.39,30.78,29.76,29.62,35.85,31.59,29.39,32.52,39.19,48.73,50.94,50.23,51.32,72.91,79.76,77.45,77.31,77.32,79.52,77.74,77.23,85.79,85.31,94.41
....Benguet,38.1,38.16,35.51,33.79,41.44,44.05,49.65,53.12,46.06,53.53,54.65,53.65,54.31,55.22,57.46,58.58,57.66,56.37,59.46,66.35,70.45,92.72,100.97,103.27,109.37,114.77,116.07,115.24,111.71,106.7,110.03
....Ifugao,26.02,25.86,32.37,35.09,37.85,39.14,40,40,45.95,47.96,40.08,44.03,43.56,45.58,49.84,56.54,47.19,50,45.54,53.1,65.83,97.65,87.02,90.25,95.47,112.74,95.44,90.59,99.12,92.16,108
....Kalinga,22.71,26.57,29.09,29.94,31.17,31.92,39.22,38,40.9,37.71,38.84,41.13,38.35,37.05,37.61,42.91,49.05,49.94,51.37,59.7,80,76.58,63.39,77.31,90.08,87.45,88.95,91.91,92.14,92.37,106.23
....Mountain Province,27.01,26.8,26.71,28.78,31.78,32.28,33.49,40.24,39.69,39.93,39.87,41.59,40.94,40.74,48.79,56.04,,57.98,,,,,,,114.29,112.58,112.53,112.51,113.53,118.93,125.85
....Ilocos Norte,17.83,20.24,21.73,21.88,23,23.55,30.49,27.83,30.8,33.24,31.31,36.03,33.02,31.62,35.39,42.94,47.73,49.61,50.7,58.36,,,,,66.23,74.6,72.42,74.88,85.03,83.9,92.44
....Ilocos Sur,19.68,20.22,22.84,26.9,28.5,22.69,35.24,37.96,38.61,41.65,38.04,41.7,37.25,34.65,39.36,42.46,49.45,52.28,54.85,66.65,84.71,89.03,89.05,88.41,83.12,85.08,80.21,81.93,81,83.16,92.09
....La Union,21.52,24.56,27.99,28.49,27.58,29.02,38.99,39.32,41.35,42.99,39.91,44.1,43.14,36.89,35.8,35.3,49.97,60.66,66.36,78.33,75.23,73.76,77.95,78.37,79.91,82.52,87.42,79.86,77.35,77.15,80.16
....Pangasinan,19.31,21.14,21.57,25.85,28.58,26.78,30.98,32.38,35.24,35.98,31.42,34.2,34.18,32.43,33.53,37.55,43.26,45.91,50.17,50.23,71.98,82.85,75.19,66.45,72.27,75.89,66.12,69.25,72.66,75.53,83.25
....Cagayan,24.78,48.67,25.46,29.31,28.05,26.29,29.09,,,,,,,,,,,,,,84,85.3,74.47,71.99,88.94,89.78,86.58,88.77,87.59,77.43,78.09
....Isabela,22.33,26.18,26.68,25.4,26.69,27.96,35.25,38.37,33.94,35.14,35,41.25,50,47.78,45.6,46.3,45.48,45.88,,,66.89,75.8,62.98,67.89,76.94,77.11,76.27,70.66,72.78,68.56,74.7
....Quirino,21.37,23.86,27.31,26.76,26.69,25.8,34.35,39.75,43,31.28,34.37,40.13,40,40.32,33.26,42.37,50.21,50.88,50.97,56.42,76.01,80.77,71.73,65.24,78.74,77.55,71.81,73,75.5,80.72,90.58
....Aurora,,,,,,,,35.7,48.71,49.15,46.83,49.58,51.88,51.98,50.84,50.83,53.4,59.55,60.3,60.39,88.09,,,99.95,97.85,95.76,96.59,96.99,97.09,97.01,112.82
....Bataan,20.17,21.36,24.54,30,28.11,29.56,30,29.24,32.94,32.96,32.25,34.76,31.75,30.09,34.82,37.11,42.46,52.73,55.94,59.11,69.81,99.44,76.43,62.87,71.47,87.24,92.67,97.55,96.07,96.8,108.28
....Bulacan,17.46,22.32,25.56,23.37,25.17,25.17,33.9,33.98,35.28,33.67,36.16,38.28,37.4,39.07,39.17,39.54,51.56,58.73,57.54,63.94,79.71,83.61,78.85,82.98,88.14,90.85,90.11,107.98,94.25,80.82,95.16
....Nueva Ecija,21.87,27.61,31.22,,27.68,30.07,38.88,41.26,43.24,46.5,42.38,45.82,44.8,42.26,45.32,50.86,55.71,60.26,,,,,,,94.77,97.63,92.95,87.31,87.05,85.93,104.45
....Pampanga,18.09,18.01,19.1,22.97,21.07,22.71,30.53,34.72,32.78,34.78,34.55,34.97,35.01,35.12,36.35,39.62,53.13,55.08,54.97,64.71,97.9,101.18,96.18,87.72,93.48,98.14,73.22,77.09,77.9,78.98,103.97
....Tarlac,20.67,19.81,19.7,20.88,27.44,35.01,21.65,30,40.92,38.37,38.43,37.26,37.15,36.88,36.67,41.74,50.3,53.32,53.57,59.85,91.37,93.89,,,87.52,90.09,87.39,91.07,90.39,86.93,99.72
....Zambales,19.86,22.11,25.41,26.6,26.73,26.68,33.58,34.42,36.45,37.25,37.93,37.56,33.62,33.16,33.94,39.01,47.1,49.54,49.46,54.59,79.5,80.53,77.66,77.94,78.71,80.75,77.25,80.55,84.83,77.28,84.42
....Batangas,17.54,21.24,25.9,25.93,25.62,25.53,33.31,40.58,42.19,38.4,40.59,41.9,37.44,35.64,35.58,43.02,47.76,51.42,50.59,54.33,79.41,84.99,74.34,68.5,83.54,86.11,80.87,80.92,82.5,85.58,85.39
....Cavite,21.01,23.1,25.83,25.2,27.31,28.36,40.37,34.98,35.92,40.88,39.98,40,40,37.03,39.87,49.95,47.58,47.25,52.84,56.45,86.22,88.17,75.37,72.47,82.08,83.85,82.53,81.96,79.56,78.02,88.01
....Laguna,26.7,27.79,29.37,29.58,30.58,32.63,42.07,43.19,53.63,58.4,41.78,38.93,36.16,40.12,37.81,44.58,49.73,53.2,54.29,56.06,81.76,85.94,83.9,75.22,76.83,79.87,79.78,81.12,81.86,82.23,77.25
....Quezon,21.07,23.74,27.92,27.73,27.85,27.37,34.18,30.82,35.73,32.37,30.07,32.21,33.84,31.48,32.73,41.16,45.54,47.69,48,52.71,72.03,77.89,65.55,63.07,79.38,79.45,74.6,78.49,77.6,78.75,94.64
....Marinduque,20.31,22.49,26.21,26,29.29,31.2,39.03,42.61,45.62,37.9,35.58,35.52,33.61,33.61,35.06,41.99,48.74,54.79,57.79,59.94,81.02,81.78,79.78,79.03,80.24,89.23,85.21,86.14,97.54,92.82,109.23
....Occidental Mindoro,21.52,20.49,24.33,26.35,30.95,31.09,39.1,48.64,37.52,37.39,38.13,40.73,41.44,43.23,41.28,47.49,51.55,57.98,58.35,68.87,84.59,86.66,84.96,77.75,84.73,75.12,75.98,67.76,78.12,74.39,81.42
....Oriental Mindoro,18.87,22.3,23.25,25.55,28.23,26.88,35.81,35,34.62,30.55,29.58,36.34,30.95,32.46,36.4,41.71,48.27,50.29,51.64,52.3,78.57,79.76,72.76,71.19,96.57,86.47,86.93,87.9,80.12,80.38,91.27
....Palawan,20.19,25.64,23.04,26.14,27.95,28.11,33.68,37.6,41.29,35.5,35.19,39.79,37.24,36.33,38.94,43.64,51.58,55.63,,,,,,,90,91.99,90.91,87.35,83.71,82.91,105.73
....Romblon,20,24.98,25.97,29.4,29.4,33.51,38.17,41.47,38.55,36.36,34.87,36.25,34.32,33.97,34.8,42.06,47.68,49.74,,,,,,,74.16,77.76,77.55,79.65,81.41,81.38,83.16
....Albay,19.16,,19.03,,21.49,28.17,34.8,35.05,37.62,34.69,33.23,37.91,37.36,34.85,37.61,46.31,50.66,55.32,57.25,62.37,85.11,87.64,84.54,84.49,91.28,95.13,95.45,96.24,96.49,95.91,109.86
....Camarines Norte,19.49,22.56,24.77,25.59,26.21,26.8,34.76,32.92,38.02,33.85,32.33,38.68,38.72,35.57,35.13,42.45,45.89,52.53,53.63,57.18,77.97,99.27,78.6,65.8,77.45,97.67,99.14,89.5,90.6,82.26,96.89
....Camarines Sur,20.91,24.63,26.01,25.6,27.75,27.26,36.23,35.91,38.48,34.83,32.18,39,38.21,37.43,37.09,43.05,54.03,53.01,52.22,55.76,78.64,82.19,80.31,78.46,77.21,87.74,83.3,90.89,96.61,98.86,99.98
....Masbate,26.04,28.28,28.75,29.6,29.6,30.97,38.13,39.86,42.01,41.73,40,40,40,40,40,44.49,50.97,58.54,61.6,,,,,,88.97,90.19,80.29,80.24,80.52,80,105.93
....Sorsogon,19.75,23.21,26.63,28.32,30.91,30.01,34.17,36.04,38.21,37.1,35.59,39.62,36.82,38.75,41.19,40.85,53.31,48.48,55.89,56.1,71.53,81.3,80.91,92.29,95.71,92.63,87.18,99.52,100.84,92.75,112.41
....Aklan,19.29,21.46,22.99,24.06,25.07,25.6,33.33,34.11,35.99,32.76,30.62,36.74,35.4,31.96,34.96,42.51,49.19,50.59,52.99,58.15,72.38,90.25,,,90.19,90.16,85.94,83.46,86.75,86.01,88.01
....Antique,19.92,20.2,17.69,23.34,24.48,32.67,40.24,36.85,39.98,38.82,38.58,41.33,36.88,35.64,36,40.67,40.28,44.71,51.75,62.82,90.5,90.79,89.2,80.48,92.54,93.76,89.95,84.44,85.74,92.32,93.91
....Capiz,20.1,25.31,24.77,26,26.84,29.07,27.06,29.23,35.28,27.98,36.08,37.74,30.17,37.91,32.73,41.34,46.88,50.62,51.02,55.78,79.11,83.77,,,85.03,81.63,76.88,76.53,77.59,77.46,78.16
....Guimaras,,,,,,,47.29,38.99,43.25,43.52,47.63,47.02,43.44,40.7,41.99,47.36,50,50,54.95,50.85,101.4,100,100,105.03,134.81,138.01,137.88,144.32,184,187.32,217.7
....Iloilo,23.94,24.95,26.23,28.09,33.98,30.06,46.16,52.03,46.25,42.93,41.04,43.83,40.62,38.28,38.41,44.34,44.15,48.73,51.93,54.46,67.82,83.29,73.42,64.3,78.15,77.72,76.89,75.07,75.41,77.09,84.09
....Negros Occidental,18.26,20.84,24.94,24.89,30.39,25.61,32.63,33.13,37.2,29.9,29,33.26,32.31,28.8,32.54,39.91,42.61,46.94,44.66,46.63,67.08,77.38,69.87,69.34,70.74,84.66,75.24,75.33,75.41,74.17,73.44
....Bohol,19.41,21.28,22.65,25.02,25.29,25.58,30.56,31.09,31.83,28.53,30.4,35.47,33.35,31.72,35.47,43.84,48.89,54.2,53.95,61.92,80.24,94.34,72.84,71.54,88.43,89.39,84.09,83.67,80,81.07,84.23
....Cebu,17.76,20.15,25.37,23.44,26.79,25.33,31.05,31.4,32.21,28.79,28.36,33.75,32.35,30.44,32.61,40.74,44.51,47.53,46.45,52.82,74.92,81.48,62.11,61.25,77.24,81.74,78.81,77.98,73.66,73.24,77.47
....Negros Oriental,17.8,21.56,23.98,23.75,25.43,24.94,34.27,34.4,34.96,34.78,30.77,31.63,32.41,31.69,33.32,40.17,46.14,47.78,47.4,53.59,75.73,79.67,62.57,61.91,77.38,78.07,74.73,74.83,75.7,73.01,74.98
....Siquijor,,,,,,,33.47,34.65,34.8,30.99,29.91,35.66,34.39,31.24,34.73,41.63,48.1,51.42,51.85,56.91,78.61,82.14,64.04,65.33,81.14,82.38,77.81,79.3,74.96,75.08,77.4
....Biliran,,,,,,,35.34,38.86,40.2,41.88,38.87,38.91,38.61,38.01,37.41,41.51,49.06,49.48,52.07,58.77,60.01,66.16,75.86,69.97,89.26,89.81,87.45,85.3,85.9,82.6,89.78
....Eastern Samar,21.91,25.49,27.65,25.86,30.84,30.28,38.6,37.49,38.03,40.02,36.41,38.87,39.89,39.7,40,53.02,60,63.48,62.39,66.75,98.11,100,96.91,96.04,95.91,95.83,96.27,97.24,97.24,97.94,100.81
....Leyte,18.12,21.21,25.12,25.12,26.31,26.46,31.37,30.94,34.3,34.07,31.85,35.91,36.39,35.17,36.02,42.7,47.65,50.34,50.1,52.88,76.39,86.33,76.66,76.52,85.76,85.31,80.06,80.54,79.13,78.64,88.65
....Northern Samar,19.83,24.48,27.77,27.94,27.86,27.77,35.85,38.59,39.35,38.3,36.86,39.26,36.84,38.41,38.93,49.93,56.93,58.59,59.7,62.44,85.79,93.98,74.83,69.29,80.31,79.36,95.31,82.35,79.48,80,90.35
....Samar,19.31,24.28,27.74,27.81,28.73,28.04,34.26,34.38,37.37,41.38,37.82,36.06,34.72,36.77,38.63,44.86,53.15,55.49,60,63.09,82.36,90.35,84.44,81.42,90.23,91.43,90.74,91.38,91.14,98.69,90.19
....Southern Leyte,,,,,,,32.51,34.29,36.14,32.43,30.45,33.7,33.8,32.98,35.4,43.38,48.05,49.74,50.18,53.43,79.66,86.54,73.07,67.86,80.7,85.71,82.18,81.64,81.08,80.39,86.61
....Zamboanga del Norte,20.08,22.46,26.31,24.87,28.57,28.05,34.53,34.88,35.04,33.84,32.09,36.97,36.22,34.95,34.79,43.03,49.95,53.67,54.76,61.48,82.83,95.45,86.65,80.7,92.08,93.39,91.92,91.06,88.93,88.79,89.74
....Zamboanga del Sur,17.37,19.65,21.09,20.62,24.24,24.34,30.81,30.65,31.53,29.79,30.54,32.75,31.96,30.58,33.74,40.62,45.13,51.02,51.47,61.72,76.03,79.67,72.27,78.53,87.25,84.34,83.26,80.67,78.99,81.64,88.56
....Zamboanga Sibugay,18.2,20.72,22.67,21.95,24.28,24.49,32.88,32.05,33.06,30.87,29.4,34.87,32.56,31.05,34.91,43.11,45.77,49.07,49.25,54.36,80.11,80.78,70.57,68.84,78.36,74.5,77.8,73.95,75.5,76.39,78.13
.City of Zamboanga,,,,,,,,,,,,,,,37.02,43.3,46.74,53.78,49.43,57.41,77.31,80.15,73.46,71.92,81.98,82.45,83.14,82.74,82.25,81.46,82.01
....Bukidnon,21.79,21.71,22.74,24.49,27.17,27.18,34.14,33.85,35.01,30,30.68,35.73,35.57,35.09,36.17,40.62,47.58,53.5,52.19,56.08,78.91,80.87,77.25,79.32,90.9,94.32,91.41,89.23,91.97,93.84,99.24
....Camiguin,,,,,,,35.29,37.6,37.01,34.05,31.38,36.83,36.24,35.72,36.8,47.56,56.92,59.98,60.84,64.4,89.29,99.94,96.55,93.29,98.94,99.56,99.75,99.5,97.74,97.65,99.75
....Lanao del Norte,19.5,22.09,23.7,23.06,26.15,26.76,35.07,35.21,35.37,31.89,30.23,35.24,33.98,32.66,33.28,46.17,47.94,49.85,50.48,59.53,76.75,77.52,66.43,67.19,81.1,84.27,79.66,82.02,87.97,81.04,87.66
....Misamis Occidental,18.35,20.91,23.57,24.01,25.73,26.14,33.17,33.2,33.73,30.97,31.42,37.71,36.34,35.01,36.46,44.69,46.81,49.44,51.98,59.34,80.67,,76.61,75.83,83.14,81.94,80.53,80.11,80.01,80.04,84.7
....Misamis Oriental,20.35,22.17,24.22,24.73,26.66,26.37,34.48,34.57,34.78,31.49,30.68,36.37,34.56,33.03,34.27,43.12,48.3,54.32,53.6,58.79,79.23,82.77,74.9,71.75,86.72,87.87,89.97,88.92,89.76,85.25,88.63
....Davao de Oro,,,,,,,38.68,36.56,36.95,35.84,35.71,36.79,36.51,36.84,39.79,45.28,46.69,47.26,50.24,60.23,77.24,83.87,75.94,75.82,87.72,91.91,87.2,89.38,82.45,80.43,80.96
....Davao del Norte,19.91,21.78,23.21,23.23,28.08,25.94,33.5,34.04,34,30.46,29.98,38.54,37.46,35.45,37.85,41.63,41.85,52.6,59.93,62.7,83.77,86.79,79.71,79.25,86.43,93.84,96.54,102.11,95.17,83.5,83.7
....Davao del Sur,18.38,19.93,21.51,20.59,24.21,23.35,31.76,29.49,30.16,28.23,28.4,31.39,30.33,29.82,33.6,37.9,39.75,44.9,45.04,50.79,70.14,74.88,57.25,61.58,73.71,74.69,71.34,76.86,72.31,72.25,75.21
....Davao Oriental,,,,,,,,,,,,,32.44,34.94,37.95,46.49,52.33,55.32,57.46,60.75,77.91,85.07,84.34,83.89,86.24,98.42,88.81,90.75,90.52,84.23,84
....City of Davao,23.4,22.88,26.08,27.32,30.82,28.49,35.66,34.94,35.87,32.91,31.88,37.13,36.94,36.43,38.31,43.33,46.58,52.68,53.95,60.14,81.22,83.04,80.52,79.78,83.24,86.08,83.32,83.46,82.77,81.45,81.63
....Cotabato,19.02,19.66,22.08,23.04,24.26,24.31,31.33,31.13,33.6,30.02,30.07,33.77,32.11,32.7,35.79,37.92,39.17,49.28,50.13,55.46,73.14,75.86,73.3,70.44,91.4,75.3,74.03,79.04,77.05,77.45,80.01
....Sarangani,,,,,,24.61,32.43,32.75,31.89,29.04,30.16,33.33,31.85,31.17,34.87,40.21,40.87,45.98,48.82,54.45,73.13,73.15,61.01,66.41,78.78,77.14,71.11,75.33,73.08,66.99,70.54
....Sultan Kudarat,,,21.97,21.7,23.3,23.49,31.34,29.77,30.79,30.09,30.44,32.7,32.82,31.12,34.39,40.83,46.99,51.22,51.17,55.43,69.23,71.03,63.77,64.14,77.42,80.44,72.78,78.6,76.31,75.99,78.09
....South Cotabato,26.99,28.04,27.9,26.68,29.04,25.7,30.89,32.53,35.98,35.58,37.58,35.43,32.37,32.72,36.03,38.17,42.89,44.87,47.95,62.68,81.05,75.39,74.76,63.41,75.55,77.56,76.86,83.72,77.86,76.48,73.9
....Agusan del Norte,18.44,20.69,19.49,20.69,23.85,25.25,32.54,31.7,32.97,33.87,31.92,33.58,32.18,30.12,37.75,44.42,48.46,50.78,54.13,56.54,81.12,87.84,74.05,73.6,85.72,86.73,84.52,82.63,83.03,86.31,91.16
....Agusan del Sur,20.02,22.28,22.87,23.13,25.51,24.57,31.14,30.85,32.79,30.54,27.89,35.9,32.88,32.53,35.92,41.95,44.55,52.25,53.59,61.92,82.04,82.67,76.49,76.56,82.26,90.19,79.67,85.58,81.97,79.88,80.79
....Surigao del Norte,19.71,21.95,23.97,24.27,27.69,26.69,34.51,35.9,35.79,32.87,31.37,38.33,35.91,34.35,36.06,43.66,49.75,55.54,56.31,60.25,81.92,90.99,78.92,73.98,87.88,90.57,85.25,84.52,82.55,86.6,85.99
....Surigao del Sur,20.54,25.25,27.31,26.82,28.73,27.29,33.45,33.16,38.42,35.31,33.09,37.3,39.63,38.06,40.41,47.85,49.7,59.56,59.9,59.76,75.42,83.24,84.92,76.55,75.15,81.47,86.27,85.34,82.88,84.91,84.79
....Basilan,18.56,18.99,23.45,25.23,24.33,24.88,30.48,31.89,34.4,34.04,33.47,33.26,32.11,35.66,36.55,39.22,42.39,46.06,57.5,59.96,77.4,86.17,84.82,75.33,83.93,87.6,85.85,85.6,88,77.7,85.07
....Lanao del Sur,,,28.01,36.46,34.45,34.27,34.76,38.48,40.6,41.29,39.98,40.3,42.41,42.23,48.63,42.82,43.18,32.49,38.33,46.01,56.75,,,,64.74,63.43,63.68,64.74,,,
....Maguindanao,21.01,19.47,19.46,19.64,21.82,19.47,27.57,29.35,28.75,27.76,27.4,28.33,,28.87,33.17,36.23,37.96,40.6,41.34,43.31,64.77,66.46,65.89,68,76.72,76.4,77.34,80.37,79.72,76.16,90.72
....Sulu,20.57,21.68,24.98,26.04,26.93,27.16,32.16,34.98,35.97,37.45,36.76,37.71,38.11,38.5,39.51,40.03,46.53,63.85,63.59,67.11,92.15,95.88,95.82,89.22,90.89,94.69,76.64,82.78,86.1,89.53,97.76
....Tawi-Tawi,,,,,,,36.79,37.12,36.56,37.01,34.1,34.01,34.14,34.14,44.37,42.44,39.77,48.3,50.27,58.66,72.73,80.01,80.33,78.57,80.84,81.66,84.11,86.39,86.71,90.67,92.98
