Geolocation,1990 Annual,1991 Annual,1992 Annual,1993 Annual,1994 Annual,1995 Annual,1996 Annual,1997 Annual,1998 Annual,1999 Annual,2000 Annual,2001 Annual,2002 Annual,2003 Annual,2004 Annual,2005 Annual,2006 Annual,2007 Annual,2008 Annual,2009 Annual,2010 Annual,2011 Annual,2012 Annual,2013 Annual,2014 Annual,2015 Annual,2016 Annual,2017 Annual,2018 Annual,2019 Annual,2020 Annual
....Benguet,15.61,17.53,19.98,22.38,22.53,22.16,24.75,24.58,31.11,31.29,27.21,28.62,29.18,30.86,33.81,35.61,35.39,32.53,39.09,41.36,47.08,53.24,56.86,48.28,35.92,54.53,71.65,77.53,104.43,140.03,117.63
....Ifugao,13.27,12.61,11.71,12.81,16.90,14.67,16.05,14.44,17.50,20.33,18.51,19.25,21.74,19.22,19.58,18.86,20.13,,24.09,26.68,25.17,24.01,26.89,29.85,31.55,45.66,41.01,35.99,40.59,46.74,46.36
....Mountain Province,17.56,17.90,19.92,18.95,23.03,21.53,21.54,24.93,21.93,23.34,23.19,21.28,22.45,21.79,23.26,23.63,21.69,23.83,22.15,23.70,24.21,29.55,29.85,35.19,37.04,47.67,54.32,52.48,53.73,58.05,71.77
....Ilocos Norte,15.49,19.54,20.77,18.21,24.04,23.37,26.06,23.23,31.12,33.17,35.78,37.14,33.65,32.12,36.30,36.03,36.61,32.96,34.35,32.18,32.29,35.98,40.88,38.75,41.81,50.17,48.39,49.06,49.83,57.30,60.00
....Ilocos Sur,9.37,10.38,12.86,13.72,15.66,14.83,18.35,17.96,18.33,22.52,24.72,24.59,19.60,20.64,20.38,24.34,29.74,28.08,23.28,30.02,27.59,24.92,31.29,44.37,51.54,53.74,47.11,61.43,47.59,71.63,62.38
....La Union,13.17,16.64,19.71,17.34,19.98,23.74,28.01,30.24,31.13,30.09,28.81,31.90,33.36,30.79,31.01,33.27,27.54,36.58,44.42,41.57,39.03,34.51,39.95,43.78,46.33,50.90,,,,77.37,79.26
....Pangasinan,12.60,10.89,12.90,14.46,20.14,17.21,16.10,19.26,22.49,23.21,21.55,23.18,23.82,23.65,26.60,28.19,27.57,27.76,30.71,29.10,25.26,30.46,37.17,41.74,42.07,39.94,38.51,37.08,,68.41,
....Cagayan,14.21,12.62,12.48,13.59,13.88,13.89,17.31,14.66,21.91,23.61,20.40,26.34,17.42,18.43,22.65,24.50,23.35,24.04,23.13,23.22,27.53,33.03,38.82,30.85,36.07,34.86,37.83,43.71,48.70,53.37,59.16
....Isabela,15.67,15.13,14.88,15.57,16.33,14.63,12.47,,13.30,14.71,12.11,12.83,14.33,13.50,14.08,18.23,16.84,16.23,17.14,17.68,22.88,27.75,29.20,28.37,32.62,38.86,37.81,35.13,47.01,47.44,36.29
....Nueva Vizcaya,10.25,8.39,11.34,10.10,9.34,8.19,9.82,10.90,12.30,13.09,14.17,16.03,15.56,13.35,13.57,14.88,15.11,19.97,22.44,25.23,24.54,24.69,27.63,28.73,38.66,32.18,34.02,40.93,46.52,48.53,58.78
....Quirino,9.07,11.14,12.01,15.33,14.52,11.70,16.82,10.15,,17.37,13.81,14.94,14.99,18.19,18.92,21.16,21.22,19.92,20.77,25.69,28.51,22.07,23.90,24.18,16.09,28.05,28.25,21.20,30.07,36.58,37.36
....Bataan,9.74,13.33,11.59,15.00,14.46,15.00,15.35,22.37,27.57,26.20,23.60,26.07,20.00,28.40,28.78,35.03,,33.67,,,,70.52,67.96,68.58,74.89,77.43,83.43,113.74,112.30,115.92,112.48
....Nueva Ecija,11.16,13.06,13.08,,11.97,15.53,21.38,19.62,23.57,33.04,,27.28,27.67,34.38,34.28,34.08,37.10,34.67,37.16,41.98,44.56,45.75,51.42,52.24,58.12,73.49,71.98,66.14,73.88,88.54,93.80
....Pampanga,24.32,17.39,23.19,17.92,21.84,22.39,23.68,27.84,31.23,27.29,29.21,29.08,29.86,28.69,36.41,35.56,35.04,38.11,39.74,38.49,41.31,46.16,48.11,50.36,56.00,59.32,42.09,38.97,65.61,71.31,78.05
....Tarlac,,,15.00,12.88,,23.33,20.12,21.09,33.42,27.47,30.24,28.51,28.35,29.62,28.33,29.97,30.36,33.28,31.21,35.32,41.61,45.11,45.99,44.14,44.31,55.83,36.44,28.62,31.12,36.65,34.07
....Cavite,7.80,8.46,6.47,6.93,14.09,11.84,19.16,19.42,26.50,24.22,20.78,20.90,24.25,23.44,25.68,25.06,27.40,30.44,37.20,35.04,37.72,38.47,40.44,41.61,52.43,54.09,56.09,53.43,53.06,55.26,57.07
....Laguna,8.02,10.54,10.78,12.38,16.51,16.52,20.16,17.65,21.01,24.89,23.41,28.53,19.67,26.01,25.04,25.78,30.76,32.51,30.35,36.92,38.10,42.79,46.03,47.33,45.13,53.18,59.05,54.00,59.02,62.34,72.30
....Quezon,9.15,11.07,9.21,14.86,13.00,14.13,17.52,18.42,16.97,17.93,17.97,19.54,17.63,19.03,19.85,19.26,22.41,23.56,24.84,31.08,30.91,36.42,39.99,42.93,41.37,41.49,48.64,48.17,51.28,50.71,56.96
....Marinduque,14.88,16.95,16.47,18.15,21.98,23.50,26.32,25.12,31.40,32.08,29.30,27.56,27.76,25.73,26.41,25.58,32.95,30.50,35.47,38.54,35.41,38.14,55.04,54.89,58.15,51.06,39.78,38.81,44.60,62.50,120.00
....Occidental Mindoro,17.72,21.94,21.06,25.97,28.50,28.40,28.59,20.08,33.52,39.50,36.28,36.75,38.31,41.96,43.14,45.15,42.29,43.69,47.38,55.25,61.56,66.30,71.19,71.36,74.57,68.93,75.68,85.52,80.93,85.01,93.83
....Oriental Mindoro,12.10,14.01,12.51,12.38,18.76,17.65,19.01,17.72,19.11,25.89,25.13,25.28,24.28,26.33,26.08,24.96,25.59,29.90,31.18,31.62,32.93,40.74,42.76,51.74,58.73,53.89,67.83,78.15,86.11,82.95,90.36
....Masbate,12.38,12.14,15.98,17.82,25.14,27.70,28.57,31.11,32.00,33.06,30.03,30.23,29.03,29.98,36.92,32.68,31.23,31.33,37.63,45.52,39.01,60.25,68.37,61.17,58.40,80.00,,,,58.92,90.62
....Sorsogon,5.97,7.03,7.03,8.71,,8.89,9.91,10.16,12.18,,13.92,16.13,11.90,13.85,17.43,18.47,16.17,20.29,13.65,28.44,37.14,43.18,39.41,42.01,,27.62,24.94,26.23,33.50,40.00,
....Aklan,8.77,11.58,10.98,10.43,10.79,13.74,20.16,17.74,13.19,13.48,13.08,16.15,16.01,15.41,19.22,17.11,19.15,21.44,25.64,25.50,29.86,28.00,33.24,36.08,36.85,40.29,42.15,46.40,51.68,55.79,57.91
....Antique,10.80,16.48,13.43,15.63,18.04,16.74,17.95,15.21,23.74,25.01,19.45,23.10,20.95,21.59,17.88,15.34,15.21,13.88,16.48,22.20,25.89,30.05,31.13,31.49,32.27,33.37,33.60,33.30,33.89,32.78,35.50
....Iloilo,8.62,13.50,13.55,14.40,17.56,18.16,21.23,19.94,20.68,21.18,22.45,25.96,26.34,29.01,29.83,30.70,33.36,35.23,34.67,37.02,34.81,38.93,41.09,43.94,49.46,39.99,41.11,46.53,52.58,56.81,55.10
....Negros Occidental,5.65,7.07,9.31,11.83,14.26,12.87,13.32,15.19,15.37,16.02,20.90,19.62,21.06,20.90,20.84,19.19,22.95,21.20,21.82,24.82,33.99,32.76,33.58,37.59,33.41,34.11,45.16,45.42,50.67,41.31,48.32
....Bohol,16.46,19.93,,,15.71,15.78,21.56,23.73,28.88,33.91,35.12,49.32,47.86,44.03,50.79,45.78,43.97,43.62,42.92,49.03,48.68,55.21,55.38,55.21,51.74,56.82,59.12,65.82,66.25,67.49,67.28
....Cebu,7.54,11.91,10.27,11.17,14.52,10.30,15.66,18.20,21.21,19.18,21.48,23.15,23.14,27.67,29.15,31.63,33.64,34.61,36.89,38.02,38.57,48.43,59.01,61.32,56.60,61.59,63.32,60.46,69.93,64.97,69.16
....Negros Oriental,9.46,12.30,17.29,17.00,16.02,17.95,19.97,21.52,22.63,22.55,28.77,28.42,27.72,28.60,20.46,21.77,21.08,23.37,25.14,29.77,32.89,33.13,39.39,39.97,41.77,45.76,48.48,53.34,62.61,61.13,54.42
....Siquijor,,,,,,,,9.01,12.02,15.18,16.33,20.09,24.03,11.77,22.87,20.75,31.85,36.46,35.14,27.11,33.96,40.53,39.30,40.64,46.05,71.67,89.40,88.02,68.43,69.53,64.40
....Eastern Samar,11.27,10.38,12.16,11.97,13.24,16.90,16.00,14.73,17.28,18.32,15.81,16.81,16.95,15.76,16.36,29.14,13.00,10.20,21.32,18.62,21.68,17.41,25.67,25.21,26.24,34.20,37.38,30.16,38.99,51.85,55.75
....Leyte,11.99,14.26,15.26,12.47,19.59,15.89,16.08,16.93,19.88,17.61,17.04,19.04,22.89,22.21,24.24,24.54,25.27,24.39,27.65,29.81,30.23,29.63,30.88,31.97,29.78,45.09,30.00,33.96,39.25,34.59,38.93
....Northern Samar,11.77,12.64,,,19.80,17.44,21.47,12.89,24.63,27.47,30.79,29.51,28.61,33.76,43.23,38.78,47.88,44.45,46.07,40.42,46.96,51.63,57.10,64.71,77.21,94.35,96.78,85.14,96.28,79.50,80.22
....Zamboanga del Norte,11.17,11.39,12.41,20.86,17.46,17.02,12.93,15.94,22.85,23.24,24.12,25.41,24.07,24.01,29.37,30.08,31.15,36.77,39.35,35.64,34.17,35.49,35.62,36.98,42.32,45.17,45.82,45.61,45.40,40.01,39.99
....Zamboanga del Sur,10.29,15.05,19.45,18.37,19.09,20.70,18.32,18.28,20.24,20.18,21.35,19.95,19.09,20.10,20.79,22.14,25.56,29.44,30.40,36.02,39.38,46.71,45.22,44.06,25.07,28.66,30.00,31.28,31.69,33.34,33.29
....City of Zamboanga,11.20,16.37,17.41,19.25,32.38,27.31,22.83,22.52,25.04,37.02,34.15,32.61,32.99,32.57,31.50,31.97,32.89,32.11,35.13,30.99,34.29,45.93,44.74,43.22,44.96,48.94,50.26,44.87,47.53,48.26,47.15
....Bukidnon,,13.93,8.46,13.57,16.17,11.15,10.10,14.52,20.22,24.76,25.08,28.16,29.13,26.25,25.68,25.31,25.24,25.58,26.61,26.92,27.88,14.97,16.09,18.16,20.89,21.90,20.74,22.05,24.44,26.18,26.70
....Camiguin,,,,,,,21.37,21.16,19.86,29.82,26.00,25.40,24.27,24.92,22.46,30.88,35.93,39.40,40.39,38.80,39.05,42.34,44.83,43.07,30.15,33.74,35.09,38.47,39.17,39.98,40.05
....Lanao del Norte,14.69,14.85,15.00,15.42,18.53,17.27,17.23,20.40,24.53,29.18,26.01,27.05,25.92,27.83,19.32,17.35,17.53,18.61,18.99,18.33,31.19,37.01,38.32,39.04,49.21,56.58,49.96,44.78,42.89,49.80,38.97
....Misamis Occidental,,21.39,19.36,21.05,24.63,23.92,27.07,25.97,26.27,29.73,30.31,29.87,30.38,29.82,34.93,34.39,28.40,34.77,39.64,39.53,41.31,45.59,44.09,55.17,62.76,39.49,26.54,27.90,29.45,30.03,30.02
....Misamis Oriental,,14.88,14.78,15.44,16.13,14.05,13.99,17.55,20.30,19.74,20.99,21.12,20.51,19.53,19.89,21.95,23.73,23.43,25.04,27.62,23.78,22.36,22.73,23.73,25.81,27.62,28.80,29.79,29.12,32.80,34.18
....Davao de Oro,,,,,,,,,,,,,13.39,14.73,14.50,15.35,15.52,19.99,21.19,22.15,21.37,21.64,24.34,26.39,24.64,24.34,26.21,29.90,34.55,34.87,33.66
....Davao del Norte,5.43,6.73,7.37,7.00,7.48,10.11,11.79,12.76,14.56,14.32,13.90,13.44,12.73,13.80,12.99,14.23,15.23,15.57,18.49,20.60,23.04,27.64,28.52,29.89,32.49,39.38,31.10,32.68,34.90,34.56,31.55
....Davao del Sur,5.36,6.91,7.49,7.45,7.67,8.92,13.70,15.68,16.51,18.22,19.30,21.29,16.85,18.40,18.28,18.21,18.19,18.27,18.75,21.73,25.09,28.57,30.22,25.13,23.62,23.69,28.83,27.22,30.32,30.00,30.01
....Davao Oriental,,,,,,,12.62,11.98,16.75,26.84,27.25,26.64,26.74,25.42,17.52,21.70,22.41,28.57,30.28,26.00,27.52,30.67,40.75,40.25,39.14,40.20,37.28,36.52,34.95,39.89,48.62
....City of Davao,5.49,7.12,7.63,6.92,6.58,8.08,8.77,10.26,15.72,17.68,17.12,16.56,16.46,16.27,15.99,16.36,16.91,18.79,19.07,19.46,21.43,23.31,23.56,22.67,18.80,23.62,28.50,28.45,31.71,33.16,35.74
....Cotabato,8.50,9.41,14.88,16.46,17.75,17.23,19.08,16.80,17.02,19.86,19.38,18.66,13.20,14.35,14.20,15.53,17.80,19.67,19.64,19.01,19.95,20.96,20.61,27.37,25.90,27.24,29.40,29.41,30.20,31.59,34.15
....Sarangani,,,,,,,9.21,10.26,10.28,8.59,9.08,8.19,8.95,8.62,10.31,8.36,10.01,15.30,17.06,16.52,18.52,23.32,27.73,25.20,31.98,,,,,30.53,28.20
....Sultan Kudarat,,,6.77,7.81,9.90,9.75,10.74,11.08,11.77,10.00,10.03,8.23,7.60,7.46,8.31,10.92,19.28,20.17,16.48,13.68,17.40,20.34,20.51,18.08,18.50,19.52,21.52,25.72,28.57,29.77,30.08
....South Cotabato,5.32,5.70,6.40,6.72,7.37,7.72,8.72,7.64,7.93,8.31,8.20,8.34,7.76,7.48,8.06,8.87,9.22,10.98,9.73,11.90,11.31,13.14,13.81,14.05,13.84,16.64,21.72,22.77,24.85,23.92,24.66
....Agusan del Norte,12.79,14.25,15.08,14.54,15.84,13.43,16.37,16.21,26.93,26.23,22.36,22.10,22.39,23.53,26.87,31.90,38.04,43.31,39.91,40.56,31.22,31.44,28.46,28.90,29.11,32.06,36.18,35.85,37.75,42.34,42.60
....Agusan del Sur,7.22,10.44,10.13,14.32,21.21,25.00,21.14,11.57,25.10,26.62,23.52,24.14,23.63,23.49,28.34,32.05,32.72,31.45,31.55,32.41,34.17,35.62,36.56,36.52,26.33,30.76,34.07,36.76,37.92,37.99,39.94
....Surigao del Norte,11.14,12.57,13.57,14.84,14.69,15.31,17.46,20.36,20.95,25.58,26.36,25.42,27.74,27.98,27.93,28.10,28.04,29.34,31.27,34.99,35.11,34.17,34.75,40.06,29.97,30.37,34.49,36.48,40.18,40.07,40.05
....Surigao del Sur,8.53,8.35,9.73,10.03,10.85,11.53,11.42,15.00,16.23,19.05,19.33,14.86,16.77,20.13,17.66,19.83,16.96,18.23,19.50,19.92,24.42,28.38,30.78,31.04,27.69,29.71,39.78,39.86,39.43,41.01,48.17
....Lanao del Sur,,,17.98,20.44,22.58,21.37,15.35,16.45,28.73,26.58,23.27,23.35,23.86,30.59,29.41,33.72,27.95,21.63,18.32,23.60,29.35,,,,,,,,,,
....Sulu,19.10,19.17,19.83,,24.22,33.11,25.81,21.67,,27.75,,,,,,,,32.55,48.39,43.84,46.64,50.01,62.62,54.70,69.17,56.18,51.83,40.97,44.49,47.40,51.68
....Tawi-Tawi,,,,,,,14.74,25.73,26.92,32.72,29.72,30.94,29.08,31.47,30.97,26.17,41.12,51.65,57.93,58.98,53.67,54.66,55.34,56.53,57.19,57.31,57.46,57.69,60.11,75.11,76.01
