Geolocation,1990 Annual,1991 Annual,1992 Annual,1993 Annual,1994 Annual,1995 Annual,1996 Annual,1997 Annual,1998 Annual,1999 Annual,2000 Annual,2001 Annual,2002 Annual,2003 Annual,2004 Annual,2005 Annual,2006 Annual,2007 Annual,2008 Annual,2009 Annual,2010 Annual,2011 Annual,2012 Annual,2013 Annual,2014 Annual,2015 Annual,2016 Annual,2017 Annual,2018 Annual,2019 Annual,2020 Annual
....Abra,,,,,,60.00,60.00,60.00,60.84,60.00,67.35,70.00,79.49,80.00,87.45,95.00,91.43,93.27,107.07,122.33,123.94,121.40,119.95,123.21,134.74,136.17,123.60,130.22,134.46,134.94,142.87
....Benguet,44.63,54.76,64.88,67.63,65.11,69.06,73.36,75.24,77.15,79.05,81.20,84.13,83.93,86.98,98.25,106.49,107.74,110.12,128.05,132.05,146.69,146.74,146.09,151.69,182.05,183.99,177.83,180.99,187.45,189.87,219.99
....Ifugao,40.00,46.88,52.80,51.06,58.21,68.60,71.97,70.08,71.83,77.50,80.00,84.62,84.58,82.10,105.28,120.00,107.49,100.00,107.16,106.60,106.88,101.88,96.72,112.44,118.04,126.81,148.02,150.57,178.85,183.45,191.35
....Kalinga,48.59,56.66,58.68,64.41,67.06,,,,,,,,,,,,,,150.00,140.00,140.00,140.00,129.97,141.22,147.66,147.44,145.92,147.26,162.27,165.90,168.26
....Ilocos Norte,35.15,50.14,50.39,48.19,55.67,61.02,63.00,63.00,65.88,69.64,70.01,77.98,83.00,75.03,95.81,103.48,103.04,99.39,116.09,120.00,120.00,120.00,120.32,128.37,130.16,130.00,130.00,130.00,138.13,145.72,140.00
....Ilocos Sur,45.35,55.23,60.00,60.00,60.42,60.00,61.95,64.26,70.13,73.02,72.97,76.86,78.31,78.40,99.09,111.56,111.88,112.30,119.42,126.30,129.62,123.63,123.68,132.62,145.69,146.00,144.28,152.26,159.32,163.76,166.03
....La Union,40.74,54.77,60.00,60.00,63.83,65.00,64.94,65.00,66.49,67.98,68.33,76.31,81.34,83.24,92.01,95.87,95.14,114.46,127.84,122.25,118.87,119.43,120.00,122.62,131.35,134.65,130.00,144.44,150.97,166.43,183.76
....Pangasinan,39.94,54.02,59.60,56.04,60.61,59.94,63.98,67.29,71.67,75.57,76.14,79.98,81.08,80.60,98.36,104.07,106.24,107.78,121.57,132.19,145.77,141.14,135.47,132.64,147.10,154.60,155.42,163.61,162.98,166.59,172.87
....Isabela,45.86,53.91,55.00,53.09,60.60,62.49,65.05,67.70,68.04,73.81,78.65,79.83,79.54,80.53,109.85,111.77,107.01,108.75,118.52,127.75,127.88,124.90,123.87,138.85,157.65,152.62,151.03,149.74,161.63,159.83,166.34
....Nueva Vizcaya,41.12,48.73,49.85,50.00,61.04,63.87,67.00,69.71,69.64,70.94,77.03,79.14,80.50,80.00,97.06,101.59,96.41,97.73,114.03,120.26,119.81,120.00,120.00,125.60,139.56,146.37,138.21,146.13,167.52,172.66,170.98
....Quirino,46.85,52.84,52.93,53.31,55.85,60.00,60.42,69.33,70.00,70.01,70.00,75.00,80.00,80.00,113.62,119.66,118.05,109.97,125.50,130.00,137.95,140.00,140.00,155.30,163.47,156.88,160.00,168.08,178.61,,
....Aurora,,,,,,,,64.73,69.52,69.99,72.55,78.26,80.63,79.99,101.96,119.05,120.22,120.01,127.74,132.95,158.76,151.50,150.26,156.17,171.77,177.65,168.17,169.84,179.94,182.68,198.95
....Bataan,40.00,53.07,64.15,65.87,69.73,64.22,63.50,65.79,77.31,72.05,73.75,76.67,79.58,80.42,92.44,116.34,117.66,119.84,134.88,131.63,140.00,140.09,166.48,181.08,175.97,164.14,168.15,174.67,180.82,181.91,205.34
....Bulacan,37.60,45.42,51.72,49.88,58.43,58.75,66.56,69.32,68.36,69.79,68.00,75.97,70.16,66.04,86.00,92.80,92.40,91.07,104.24,107.30,125.88,124.23,123.79,128.34,143.13,142.54,130.96,135.99,150.90,144.98,176.93
....Nueva Ecija,39.69,48.70,56.45,,64.19,60.84,67.42,76.74,78.78,81.76,77.40,83.08,83.29,81.64,101.97,109.14,107.46,106.79,133.21,135.09,140.37,135.70,134.59,138.52,156.01,165.10,160.03,168.99,172.22,167.34,185.46
....Pampanga,37.49,52.14,60.96,52.20,53.17,54.10,68.05,75.04,78.03,78.76,78.89,86.19,83.41,84.90,105.32,101.47,100.32,103.25,115.30,116.65,130.26,131.60,131.22,138.25,148.64,139.76,144.15,161.58,172.07,180.16,226.14
....Tarlac,,46.39,52.22,49.50,57.17,56.67,60.68,61.04,63.82,65.46,66.30,74.37,76.92,75.41,90.39,94.14,95.01,93.08,118.83,113.45,120.30,118.24,120.06,125.49,141.27,140.08,139.00,153.78,161.94,163.54,198.78
....Zambales,44.76,54.17,68.83,63.46,69.73,69.74,71.74,77.92,81.92,79.58,80.00,87.97,89.96,90.20,114.29,126.16,120.72,120.00,143.92,147.35,155.22,150.00,150.00,157.78,168.73,164.83,158.43,167.03,165.27,165.95,182.89
....Batangas,39.51,49.18,58.73,53.68,59.25,60.03,65.72,74.89,79.67,73.27,74.05,75.12,75.93,75.61,87.55,94.08,94.96,95.05,111.74,118.17,133.92,133.52,134.03,136.94,144.21,141.11,138.42,147.55,156.28,156.49,177.69
....Cavite,38.81,48.89,61.91,60.57,62.03,62.29,78.78,82.75,88.61,88.09,90.04,94.90,94.95,94.43,109.40,119.32,118.51,114.97,131.34,142.22,152.27,156.85,156.78,158.63,173.82,180.00,165.79,176.22,191.92,199.87,227.21
....Laguna,38.99,48.58,61.87,58.64,66.22,64.17,64.90,73.55,76.28,77.02,76.45,78.29,77.22,78.05,92.30,95.11,94.21,92.29,102.62,108.70,124.52,123.72,119.43,125.64,142.02,143.49,141.57,146.75,161.29,151.90,181.26
....Quezon,36.80,44.12,48.57,48.11,56.76,54.26,63.72,59.74,66.96,70.42,67.18,72.03,71.70,72.17,88.15,92.48,95.00,95.88,116.33,121.27,126.85,121.86,122.51,130.69,147.60,140.72,140.35,163.49,159.92,159.28,172.91
....Marinduque,40.08,40.31,50.33,50.00,57.60,60.21,63.11,64.45,69.99,70.00,73.54,78.33,79.80,80.07,92.07,95.79,90.85,93.63,117.10,122.43,125.27,126.41,123.31,127.35,140.82,140.15,134.48,143.07,156.24,146.67,146.89
....Occidental Mindoro,40.41,45.00,48.59,50.00,50.00,50.32,63.44,70.00,70.00,70.00,71.37,83.79,87.61,87.00,89.34,90.00,91.90,92.31,104.36,141.96,150.00,150.00,150.00,150.00,164.36,170.00,165.78,168.24,167.86,176.56,177.33
....Oriental Mindoro,45.21,57.45,61.17,62.08,66.08,72.58,77.58,83.46,89.56,91.10,93.74,98.68,94.74,91.18,115.64,120.00,120.70,119.71,137.14,138.06,146.58,144.95,132.82,143.69,164.03,162.48,156.86,166.78,188.51,180.85,187.62
....Palawan,40.27,45.40,51.42,51.71,55.21,55.76,58.55,72.79,78.26,73.13,82.91,86.18,88.16,90.73,98.76,111.64,111.22,108.01,133.52,145.69,149.47,145.08,154.13,156.26,156.98,157.74,160.26,177.85,178.42,181.30,171.20
....Romblon,37.22,36.06,45.71,49.92,50.00,50.00,62.50,65.00,60.00,60.61,69.31,70.42,70.00,69.87,87.09,90.72,92.01,91.99,100.22,114.19,119.11,120.00,120.73,129.55,132.51,137.92,140.00,142.16,168.72,174.90,177.33
....Albay,,,42.63,,54.97,57.11,57.20,69.54,69.93,69.57,70.48,74.67,75.00,75.00,84.02,89.95,89.98,90.00,114.36,120.00,123.77,119.34,127.42,136.50,148.93,152.98,155.21,162.04,185.71,181.13,177.07
....Camarines Norte,41.05,47.80,54.69,54.89,58.64,60.13,66.34,74.07,74.89,74.88,78.22,84.81,83.75,81.17,103.46,110.00,110.00,109.90,117.96,120.00,123.45,124.73,129.74,147.31,151.32,151.20,150.43,154.09,168.27,164.88,163.86
....Camarines Sur,40.87,49.16,57.69,60.00,63.64,65.00,71.11,70.47,75.00,78.51,80.00,83.64,84.73,84.54,92.63,97.82,97.00,98.28,123.34,131.03,135.28,135.79,134.70,145.47,148.11,147.33,145.92,149.73,172.79,174.72,178.30
....Masbate,37.50,41.68,46.81,50.00,55.34,60.00,61.57,61.28,60.00,62.85,65.00,71.32,79.97,80.00,88.15,90.00,90.00,95.99,112.17,126.16,138.71,138.65,134.90,140.00,140.00,140.45,142.31,146.44,162.45,163.59,172.77
....Sorsogon,43.89,46.04,50.93,53.00,55.53,62.50,66.36,68.33,70.40,68.17,68.00,75.98,80.00,79.96,92.50,98.59,94.52,103.53,124.38,129.08,128.07,123.96,132.25,157.06,158.73,158.68,160.00,173.23,179.94,171.88,164.50
....Aklan,33.54,41.17,48.11,50.88,51.33,59.10,64.21,62.30,59.92,72.72,76.49,77.33,76.89,73.34,81.40,81.80,82.73,83.57,114.69,125.47,115.87,108.79,100.11,127.68,137.30,119.80,110.76,134.88,147.85,142.44,134.88
....Antique,39.25,39.98,43.03,46.83,49.17,49.98,58.73,60.03,59.26,66.00,70.09,73.42,73.12,72.69,82.63,88.17,85.50,88.45,102.41,124.54,127.11,128.38,125.98,130.72,138.79,136.26,134.76,148.50,158.25,150.12,150.25
....Capiz,31.25,39.97,47.51,50.00,53.33,60.38,62.83,64.95,73.44,70.00,78.39,82.45,88.54,88.34,102.03,109.57,112.50,100.00,115.58,120.00,120.34,120.00,120.10,144.90,155.41,155.03,154.19,159.44,182.45,180.57,170.48
....Guimaras,,,,,,,65.14,65.00,67.46,70.00,70.00,72.98,74.47,74.99,96.19,108.49,110.00,110.00,117.23,129.64,130.00,130.00,130.31,149.47,158.95,160.00,158.95,166.78,186.21,190.00,187.69
....Iloilo,32.09,37.30,44.77,42.57,49.34,57.63,61.68,67.66,70.49,74.31,74.90,75.07,75.03,74.30,88.29,93.98,93.31,92.92,108.01,126.12,126.96,124.87,123.89,137.50,146.32,147.30,143.85,156.47,173.75,174.05,164.31
....Negros Occidental,37.39,42.45,47.40,48.74,54.34,55.42,59.38,59.13,66.51,75.74,77.02,78.64,80.75,79.15,82.31,94.92,106.44,108.67,112.58,125.56,127.31,134.00,134.19,143.54,154.10,154.00,154.03,154.03,161.35,164.22,171.46
....Bohol,44.42,43.74,46.33,48.00,50.00,63.50,64.09,68.33,70.00,,,,,,,,,,,,,129.88,130.00,135.00,146.27,150.00,150.00,150.00,162.27,167.64,165.55
....Cebu,35.49,40.66,46.07,48.00,59.08,61.13,64.18,69.13,71.19,75.04,74.88,77.97,78.59,78.44,95.59,97.63,95.22,97.19,107.18,119.36,130.36,133.20,132.86,138.40,153.69,158.34,151.22,160.29,170.43,171.32,166.99
....Negros Oriental,36.58,39.23,59.72,59.54,60.42,58.33,60.52,64.85,68.88,70.64,75.00,75.00,75.00,77.71,86.40,90.00,90.00,90.00,101.57,114.76,121.79,120.90,116.59,128.42,136.82,133.94,131.25,135.60,148.71,151.96,132.36
....Siquijor,,,,,,,45.00,45.00,53.33,57.81,60.00,60.00,60.00,60.00,75.87,80.00,81.23,85.00,87.60,112.58,120.00,126.15,130.00,134.81,145.77,149.79,159.46,151.85,174.88,173.58,180.00
....Biliran,,,,,,,,,100.00,98.75,86.25,85.00,88.08,90.05,99.49,90.10,92.82,94.76,117.45,128.10,137.43,140.21,149.80,153.04,159.88,165.65,167.45,196.97,225.44,224.45,231.72
....Eastern Samar,34.78,40.42,50.15,50.00,52.24,61.08,71.28,73.34,73.30,68.75,67.00,64.76,67.98,70.68,89.44,100.13,100.00,104.13,117.58,121.89,123.93,130.00,130.00,138.30,153.32,150.00,150.00,150.00,150.00,150.00,152.29
....Leyte,43.12,49.74,59.04,59.62,67.82,69.75,76.23,79.11,81.34,82.18,85.13,87.81,88.99,88.65,101.86,103.50,106.05,110.81,123.56,131.20,147.54,145.57,143.17,146.06,159.54,166.04,159.36,164.21,168.32,175.67,175.65
....Northern Samar,33.58,35.06,35.00,50.43,50.00,50.96,63.29,64.78,,,70.00,74.54,75.97,79.81,90.95,95.79,99.92,111.80,117.35,120.03,135.66,150.00,150.14,149.76,151.85,150.90,146.93,153.41,160.99,179.76,180.00
....Samar,37.02,41.38,44.49,50.62,56.16,69.33,67.22,69.43,77.55,81.72,81.92,85.02,82.02,79.66,89.44,95.66,98.20,102.68,114.21,119.05,129.03,140.98,140.00,140.74,153.24,152.83,153.63,154.74,172.07,165.03,167.33
....Southern Leyte,,,,,,,70.14,70.00,70.00,74.74,80.00,87.25,89.98,90.42,97.25,100.00,100.00,106.15,109.99,109.88,122.94,119.88,119.40,120.00,135.42,139.10,140.00,147.35,158.78,170.00,170.00
....Zamboanga del Norte,36.08,37.23,43.45,44.90,47.57,52.00,54.07,56.41,59.66,62.35,69.98,72.52,73.43,72.56,81.63,84.51,90.05,97.78,100.00,114.08,133.37,142.28,144.23,145.75,147.49,149.79,149.97,154.17,172.43,174.33,172.41
....Zamboanga del Sur,35.17,40.00,40.05,40.00,47.11,49.98,52.58,57.66,60.00,58.79,60.00,65.89,64.88,64.63,76.60,97.73,98.34,97.03,104.39,110.61,135.54,131.46,127.53,133.01,140.05,140.00,141.17,146.38,175.54,169.18,165.56
....Camiguin,,,,,,,49.02,57.27,60.00,60.00,60.00,62.84,71.53,75.07,103.38,119.56,128.03,137.76,152.70,170.69,175.60,158.28,160.00,159.84,163.29,168.31,170.00,173.62,183.23,189.45,188.77
....Lanao del Norte,32.72,38.57,45.98,44.01,46.19,50.44,56.84,62.83,62.71,62.69,66.28,67.45,67.11,68.27,80.48,86.05,88.09,94.91,107.96,114.37,124.78,123.64,124.06,126.30,141.36,136.14,127.57,146.86,150.11,149.64,180.21
....Misamis Occidental,35.10,38.30,44.79,45.00,54.17,60.00,62.54,65.69,70.00,71.73,70.56,73.54,75.00,75.00,88.92,90.00,98.37,100.00,107.31,110.94,128.45,128.46,126.91,127.00,129.97,138.00,140.55,146.71,159.23,160.13,165.03
....Misamis Oriental,37.00,39.47,45.99,47.94,52.31,59.04,61.39,64.60,63.78,64.98,66.96,69.26,70.82,71.42,82.13,86.21,89.12,90.12,108.55,117.94,127.63,131.18,131.13,131.15,136.32,136.71,137.84,146.55,161.10,173.91,174.56
....Davao de Oro,37.76,42.18,44.89,45.33,49.46,56.73,63.54,65.00,65.00,65.00,65.00,65.00,67.89,69.63,92.60,100.00,99.65,97.90,114.44,127.64,139.46,143.82,142.60,146.04,152.88,155.83,156.36,162.69,170.75,170.40,171.21
....Davao del Norte,,,,,,,,,,,,,67.08,69.50,90.97,95.00,95.10,94.05,111.13,120.04,140.82,148.81,147.27,140.30,147.70,150.61,147.13,157.38,170.04,176.91,175.09
....Davao del Sur,35.46,41.10,44.56,42.48,51.23,54.56,60.18,63.87,65.32,67.33,67.91,72.88,73.49,74.66,91.75,95.80,95.86,95.81,117.82,126.94,133.33,136.20,135.05,154.51,161.50,164.00,164.82,168.37,179.91,179.76,174.96
....Davao Oriental,35.00,41.18,45.08,45.00,55.23,60.00,64.05,65.00,65.00,72.95,75.00,81.88,85.00,85.00,106.06,110.00,110.00,110.00,115.41,129.19,141.75,144.12,150.43,140.00,146.42,150.00,145.96,157.34,169.63,179.92,182.83
....City of Davao,,,,,,,51.93,60.00,60.00,62.98,65.24,67.62,70.00,68.90,87.45,91.27,95.05,98.46,119.29,131.11,138.63,136.41,135.15,137.08,143.82,149.23,144.95,156.13,170.31,174.56,173.40
....Cotabato,29.97,35.71,40.00,40.00,46.57,49.17,52.38,55.00,55.00,58.57,60.00,63.92,65.00,65.43,88.78,90.00,90.13,90.00,97.93,108.89,127.17,128.39,130.00,130.78,136.27,140.06,140.00,140.00,147.77,150.00,150.00
....Sarangani,,,,,,,70.21,70.00,70.07,73.33,75.15,80.00,80.00,80.00,91.78,96.86,99.99,100.00,124.94,133.99,148.77,149.03,142.32,147.02,153.20,159.77,153.75,163.99,169.99,168.47,171.28
....Sultan Kudarat,,,47.21,50.17,54.10,61.42,65.74,70.00,69.90,70.56,70.00,69.99,70.00,73.05,101.22,107.92,107.66,108.00,107.64,115.64,134.03,134.95,136.15,130.67,133.57,143.07,135.82,171.39,177.83,163.55,168.85
....South Cotabato,35.00,40.11,46.36,44.32,49.78,53.68,57.26,59.86,60.21,61.74,64.57,67.96,74.72,75.10,87.93,94.69,96.16,95.24,101.84,110.45,114.07,118.20,130.74,137.81,138.51,140.17,142.04,148.12,160.17,167.25,174.95
....Agusan del Sur,41.32,41.67,45.69,49.79,50.00,60.00,62.30,69.79,69.75,74.41,80.00,79.58,80.00,80.00,95.32,100.00,100.00,100.62,122.56,130.00,130.00,129.26,129.56,135.58,147.01,144.10,154.90,160.10,166.90,175.88,177.08
....Surigao del Norte,43.68,45.93,51.49,50.00,56.19,62.73,64.07,66.60,71.61,75.21,75.11,78.96,78.85,79.83,98.40,99.85,100.00,103.89,118.65,121.77,133.06,130.27,130.00,135.88,154.19,152.98,158.31,159.61,169.49,172.43,168.91
....Surigao del Sur,36.34,40.00,45.00,45.10,48.55,53.44,60.23,65.00,65.02,69.38,70.00,69.83,70.00,78.96,92.36,100.00,100.00,100.43,115.75,120.60,130.00,132.61,136.92,140.00,140.00,135.71,130.00,145.79,171.35,179.90,180.00
....Maguindanao,34.98,40.27,47.73,49.17,56.19,68.61,67.82,70.29,73.00,78.08,82.72,82.00,82.00,83.03,101.06,114.26,122.12,117.97,122.46,124.12,134.81,133.00,135.56,145.40,147.99,148.00,148.00,153.42,170.86,177.70,189.97
