Geolocation,1990 Annual,1991 Annual,1992 Annual,1993 Annual,1994 Annual,1995 Annual,1996 Annual,1997 Annual,1998 Annual,1999 Annual,2000 Annual,2001 Annual,2002 Annual,2003 Annual,2004 Annual,2005 Annual,2006 Annual,2007 Annual,2008 Annual,2009 Annual,2010 Annual,2011 Annual,2012 Annual,2013 Annual,2014 Annual,2015 Annual,2016 Annual,2017 Annual,2018 Annual,2019 Annual,2020 Annual
....Abra,,,,12.78,13.42,14.03,15.87,14.39,17.79,21.87,20.03,20.11,14.24,19.09,18.36,15.84,21.04,26.49,23.76,23.96,26.64,31.35,32.6,29.99,25.78,25.67,26.86,29.35,32.5,33.44,37.78
....Apayao,,,,,,,,9.63,12.79,16.93,13.62,16.08,13.63,13.45,14.22,16.95,16.99,15.61,20.89,23.33,18,21.36,26.52,20.56,21.72,23.99,26.52,25.85,32.51,31.17,29.01
....Benguet,13.26,12.67,12.13,11.55,12.18,18.11,20.2,19.52,19.89,23.11,32.06,25.42,16.61,26.6,21.53,17.34,17.86,15.33,19.05,19.89,25.83,34.48,31.51,28.18,29.42,38.64,34.42,30.56,36.4,32.26,28.28
....Ifugao,8.2,9.69,8.36,9.87,11.12,10.97,14.1,11.44,17.2,16.43,14.28,15.32,15.19,12.96,10.64,12.81,15.44,14.39,17.08,20.57,18.45,20.43,18.2,21.25,23.06,21.11,24.59,24.42,34.71,29.8,29.37
....Kalinga,9.19,9.4,7.19,9.99,10.99,10.03,15.33,11.85,15.2,14.74,15.54,15.79,14.11,13.38,13.76,14.1,15.99,15.61,18.47,21.01,18.17,22.52,20.85,21.39,22.59,22.44,25.15,24.6,30.36,29.14,27.54
....Mountain Province,9.14,7.36,7.77,8.08,7.12,8.41,8.06,10.37,12.02,13.49,13.24,15.38,13.75,17.07,17.33,19,18.51,19.72,21.38,22.85,21.79,25.82,29.08,29.29,28.74,33.83,36.9,38.55,41.69,39.35,38.22
....Ilocos Norte,10.47,11.22,11.48,10.43,11.27,12.33,15.48,12.47,15.39,18.95,18.26,17.97,15.75,16.32,16.64,18.62,21.48,24.37,24.17,25.25,20.56,27.03,25.08,24.63,23.7,26.7,27.09,26.88,34.5,32.72,35.44
....Ilocos Sur,12.44,13.65,12.92,12.29,11.33,12.37,16.66,14.15,15.5,20.4,17.24,18.75,18.52,15.37,15.62,15.24,18.71,18.25,21.86,23.35,19.17,24.63,23.74,22.95,21.13,26.27,26.6,27.25,34.21,34.57,31.6
....La Union,11.9,10.95,10.55,12.09,13.44,11.58,16.58,15.08,20.27,25.46,26.99,23.85,24.7,22.7,21.44,21.37,21.55,21.1,24.33,28.06,25.58,42.51,40.82,37.09,29.46,25.44,28.79,25.65,28.31,28.29,23.88
....Pangasinan,7.97,8.64,8.27,10.58,10.83,12.19,14.17,13.27,15.24,17.55,17.58,17.95,15.5,16.33,15.2,17.53,19.56,18.72,24.19,25.58,24.78,28.49,25.04,23.82,26.16,27.73,28.39,28.34,35.01,30.9,36.74
....Cagayan,8.3,8.19,7.17,7.75,8.64,8.01,11.76,8.12,12.29,12.62,11.51,16.23,12.49,13.88,12.74,16.11,16.11,12.55,15.69,18.75,14.4,20.27,17.41,15.91,17.21,19.34,23.75,24.9,31.01,27.23,23.15
....Isabela,7.04,8.35,8.39,9.38,10.29,11.73,13.02,11.85,14.91,14.69,14.71,15.41,14.83,14.41,13.28,16.3,18.34,17.94,19.53,20.73,19.25,22.47,20.29,20.78,22.8,22.02,22.62,25.82,33.04,33.33,27.33
....Nueva Vizcaya,6.51,6.86,6.58,7.32,7.69,9.75,15.78,14.89,15.94,17.33,16.19,16.34,15.06,14.54,14.83,15.01,15,15,25.29,26.79,30,22.53,19.23,21.9,20.19,20.21,22.82,22.83,26.48,27.07,24.46
....Quirino,6.7,6.9,7.16,8.95,8.63,11.57,12.31,10.42,13.26,12.2,11.58,13.51,12.3,12.1,14.31,14.12,14.4,12.77,16,17.9,14.87,18.22,17.54,18.98,20.74,23.6,25.66,25.91,29.85,35.49,31.58
....Aurora,,,,,,,,13.65,15.97,17.03,16.39,20.31,16.53,14.24,12.04,11.3,15.21,15.04,19.14,21.06,19.15,24.01,20.82,22.8,25.04,25.98,29.39,33.62,37.81,38.04,38.62
....Bataan,8.25,12.37,13.1,9.35,9.56,12.37,16.33,13.57,14.55,15.67,16.46,14.75,12.58,15.05,13.02,16.18,20,18.71,25.24,25.94,24.02,41.78,44.25,50.38,45.69,27.7,32.61,39.61,50.85,46.41,49.07
....Bulacan,14.12,10.88,9.44,12.94,13.04,15.87,19.6,17.8,22.7,35.69,24.16,27.32,23.65,25.2,25.87,24.71,25.13,22.52,27.93,27.81,27.67,31.62,32.39,30.56,33.9,30.42,37.84,37.58,46.55,37.96,32.39
....Nueva Ecija,8.06,9.23,7.83,,10.99,13.09,13.26,12.96,15.3,15.61,15.5,16.78,16.96,18.02,18.05,19.72,21.45,21.32,27.32,29.14,26.42,29.21,28.58,25.86,24.57,28.06,30.47,30.83,33.95,32.82,29.26
....Pampanga,12.69,14.97,17.18,,22.9,19.38,24.13,27.21,19.1,21.42,20.7,20.09,20.1,20.24,20.75,20.9,21.05,21.6,23.11,27.84,25.01,28.73,24.98,26.22,27.61,26.94,28.15,28.24,36.32,33.26,31.93
....Tarlac,7.78,10.9,7.73,9.46,10.76,13.69,27.47,22.21,15.52,15.96,13.61,14.64,14.02,12.13,13.31,14.54,16.59,14.37,17.21,19.75,17.81,22.1,19.11,18.9,18.54,20.76,21.39,22.75,28.43,25.4,23.11
....Zambales,10.21,10.79,10.67,10.65,14.34,15.63,18.11,14.82,18.42,23.2,21.07,21.81,20.56,19.81,19.81,19.49,19.97,20.15,24.5,27.74,27.35,31.39,36.72,35.25,35.92,35.7,27.1,29.1,41.4,41.84,34.96
....Batangas,11.92,12.18,12.58,14.7,18.25,21.74,20.65,16.1,18.43,21.69,21.71,21.78,19.31,19.26,20.24,22.57,24.58,23.98,28.65,32.42,30.05,35.62,36.98,37.37,36.82,38.61,41.06,41.7,43.47,50.67,45.02
....Cavite,11.01,10.74,9.22,9.71,13.19,14.27,18.57,15.08,20.4,25.95,17.12,20.7,19.47,20,20,20,24.05,19.97,20.92,23.7,21.03,28,25.76,23.49,24.37,23.81,25.26,24.31,29.45,29.79,25.52
....Laguna,13.21,14.87,13.32,12.34,12.45,12.65,26.12,22.74,43.61,16.7,13.66,14.7,13.22,14.36,14.38,16,18.64,19,23.84,25.29,22.43,29.47,29.51,27.56,27.32,25.35,27.52,30.65,34.78,36.38,32.75
....Quezon,10.56,10.71,11.21,12,13.98,15.51,17.43,14.32,16.68,19.83,19.4,18.4,16.84,17.3,15.83,16.03,19.22,19.76,23.14,25.6,19.55,27.21,27.97,27.77,24.62,26.1,30.55,39.22,44.91,43.65,40.08
....Marinduque,8.38,9.88,10.48,10.14,13.07,13.93,16.62,15.03,15.36,16.53,14.75,17.23,16.88,16.34,16.68,17.57,19.06,19.07,23.66,24.37,23.76,26.93,29.68,31.65,31.02,31.98,35.91,37.47,43.46,44.92,43.44
....Occidental Mindoro,8.83,9.12,9.9,10.67,14.38,14.98,16.8,15.41,17.85,20.58,21.94,25.66,23.23,21.77,20.53,22.06,20.33,26.53,29.04,32.29,26.92,30.34,31.73,27.02,29.85,24.3,25.02,22.21,26.02,25.21,25.42
....Oriental Mindoro,8.9,8.98,8.92,10.64,14.56,14.39,17.01,15.58,14.95,17.46,17.6,17.95,14.02,14.55,15.58,15.85,24.88,22.25,27.42,29,26.2,33.48,34.73,36.88,38.31,39.17,42.58,44.99,51.2,45.37,43.43
....Palawan,5.86,7.84,8.89,9.1,11.13,9.94,13.67,11.32,14.3,15,17.42,15.13,13.78,10.99,15.72,16.34,18.71,20.53,23.55,26.25,22.28,31.84,31.16,30.65,29.16,27.67,31.22,29.74,32.33,36.2,36.54
....Romblon,7.56,7.49,10.39,11.7,11.91,11.98,12.87,12.21,16.47,17.73,17.72,16.6,15.27,11.77,11.32,11.12,14.86,15.38,18.9,21.86,21.64,24.99,24.99,22.96,21.75,25.42,25.15,28.72,34.35,31.3,31.05
....Albay,5.45,,6.22,,9.8,9.68,8.69,9.21,11.63,10.74,11.32,,10.8,10.55,11.31,15.34,18.65,18.36,22.56,24.29,22.22,26.97,24.24,23.46,26.51,27.91,28.22,33.53,36.58,34.64,32.39
....Camarines Norte,5.98,7.56,8.46,7.31,12.91,12.57,14.32,8.46,12.57,24.51,17.93,17.25,15.33,10.87,14.24,25.35,23.64,15.87,19.31,19.47,15.9,28.92,24.25,24.38,26.91,35.41,32.24,39.26,43.48,35.84,33.16
....Camarines Sur,7.15,7.84,6.78,6.39,10.62,11.74,12.22,12.37,13.47,14.45,13.83,14.39,13.69,12.84,15.07,17.3,16.86,16.11,22.56,22.38,17.46,23.87,24.11,23.9,29.1,31.69,33.64,34.1,37.46,37.04,38.94
....Masbate,10.06,10.02,10.17,9.85,11.75,14.06,16.37,12.63,11.35,11.71,12.92,16.67,14.14,13.44,13.41,14.52,14.63,18.77,25.57,25.84,25.99,28.18,30.64,33.5,30.52,26.94,23.33,20,32.73,32.55,30.26
....Sorsogon,6.42,6.93,7.5,9.89,11.88,12.85,13.98,13.46,15.04,13.85,15.97,14.31,15.23,13.84,14.34,15.39,20.75,15.59,23.42,25.07,22.64,28.25,27.42,28.42,30.25,30.86,30.76,36.3,39.73,40.57,42.83
....Aklan,9.05,9,8.03,8.21,10.08,10.16,12.33,10.77,12.48,12.84,13.98,17.06,15.42,13.57,13.58,12.53,15.4,15.25,19.67,18.97,19.35,25.14,25.05,25.81,27.49,28.41,26.92,30.44,33.67,35.45,33.38
....Antique,7.45,8.35,9.01,10.58,10.51,11.37,12.07,11.86,11.2,12.44,11.54,13.9,12.55,11.91,14.15,16.11,15.79,16.02,19.27,20.87,17.65,22.88,24.11,23.59,25.12,23.8,21.4,24.32,28.53,30.78,29.05
....Capiz,6.84,7.26,6.9,8.94,12.87,9.02,15.17,17.07,12.19,15.01,13.2,11.77,17.05,16.05,11.09,10.36,16.45,13.42,15.79,19.14,15.07,22.47,20.57,19.86,21.4,23.28,21.73,24.51,26.86,28.4,27.46
....Guimaras,,,,,,,10.11,10.07,11.92,11.27,9.81,12.86,17.16,11.38,10.2,11.33,13.12,15.27,17.52,20.53,17.3,21.91,22.85,23.71,25.9,27.3,24.11,28.76,34.56,24.27,39.33
....Iloilo,8.53,7.42,8.4,9.32,12.52,13.47,13.91,13.85,15.96,18.28,17.03,20.61,17.8,19.38,17.89,18.51,20.13,20.98,23.66,25.59,22.97,28.16,24.7,26.54,31.03,29.3,33.16,37.47,47.11,49.3,39.59
....Negros Occidental,6.64,6.36,7.66,8.44,9.12,9.97,10.78,10.74,13.25,13.82,10.2,12.29,10.63,12.08,12.08,11.1,11.18,12.54,14.31,16.67,13.34,20.87,20.33,20.1,18.09,18.58,16.05,20.49,22.46,24.94,24.18
....Bohol,6.63,6.87,6.06,5.71,7.22,8.88,10.12,8.47,9.61,9.54,9.33,10.42,11.31,13.09,14.58,12.96,17.57,19.57,20.27,20.95,18.81,25.22,24.06,23.01,25.6,26.37,24.11,26.68,28.97,32.39,27.96
....Cebu,7.22,7.4,7.03,6.39,8.8,8.97,10.69,8.67,10.51,12.02,11.24,11.51,11.87,11.84,11.35,11.94,13.89,13.97,16.34,18.17,15.34,22.36,19.35,19.33,20.01,21.56,20.24,21.92,24.41,25.71,26.33
....Negros Oriental,5.73,5.96,6.44,6.21,7.06,8.46,12.61,11.14,11.07,10.79,10.95,10.81,10.49,10.79,10.91,10.58,12.74,13.38,15.41,15.19,13.36,19.91,19.13,18.45,21.01,21.2,19.27,22.52,25.02,27.26,23.29
....Siquijor,,,,,,,9.25,10.15,11.32,11.59,10.92,10.98,14.12,13.89,15.21,16.24,19.87,20.04,27.91,26.14,25.83,29.26,28.8,29.13,33.62,33.14,33.92,35.48,39.62,46.66,46.66
....Biliran,,,,,,,8.96,8.38,10.44,11.4,9.56,14.18,12.43,11.82,13.03,8.97,9.12,10.04,13.14,14.79,13.52,12.31,16.6,18.03,19.42,18.62,18.53,23.87,26.59,30.3,31.55
....Eastern Samar,7.29,6.82,5.75,6.18,9.86,9.86,13.67,9.85,9.17,10.61,10.33,13.48,10.62,8.95,11.03,12.64,18.41,17.51,21,19.92,15.34,28.61,24.72,24.64,25.04,24.49,27,32.03,34.34,32.97,32.17
....Leyte,5.03,6.31,5.37,4.45,8.15,8.17,9.65,7.94,9.91,13.66,10.96,13.57,11.53,11.12,12.35,12.69,16.43,15.38,18.38,20.31,16.22,25.64,20.33,22.85,25.08,22.53,20.52,24.8,28.45,26.83,28.28
....Northern Samar,5.77,7.85,7.34,6.05,9.6,11.02,12.98,8.55,9.36,12.58,10.29,12.55,11.08,11.09,11.64,14.26,20.06,19.52,21.02,20.02,16.77,25.29,20.62,24.22,25.33,29.23,26.81,31.34,38.76,36.16,32.36
....Samar,7.58,7.62,6.18,7.37,9.84,10.07,11.41,11.12,13.31,17.77,15.3,21.2,17.74,18.45,16.27,17,22.35,19.59,25.54,25.88,22.93,32.13,27.56,27.35,33.19,30.79,31.83,34.63,41.05,35.87,36.79
....Southern Leyte,,,,,,,9.88,8.41,8.85,11.37,10.44,10.85,10.23,10.68,11.35,12.15,16.63,16.14,18.55,18.46,14.54,24.14,18.99,19.05,20.42,21.03,20.62,27.15,31.92,30.2,30.84
....Zamboanga del Norte,7.28,6.7,5.51,5.06,6.89,8.09,10.49,10.07,11.79,12.61,12.58,11.68,9.34,11.17,11.73,12.36,14.98,13.48,15.36,15.01,13.7,22.01,20.97,23.18,24.86,23.74,22.82,25.58,32.67,32.53,30.58
....Zamboanga del Sur,4.56,4.36,4.97,5.64,5.7,5.66,8.71,6.71,7.7,9.62,7.84,9.64,11.84,11.81,13.47,13.72,17.83,15.68,17.63,15.63,14.53,19.24,21.37,19.81,19.55,21.27,21.4,25.6,30.47,25.79,23.27
....Zamboanga Sibugay,,,,,,,,,,,,,,,12.8,14.16,18.03,18.95,21.28,20.29,17.8,24.09,23.31,21.19,23.12,18.35,21.99,25.7,25.04,27.42,24.08
....City of Zamboanga,7.07,7.52,7.76,6.24,7.44,7.03,8.79,8.38,9.38,10.36,8.15,8.33,9,9.36,9.96,11.14,13.15,12.97,16.75,16.84,16.18,20.52,18.09,19.43,18.36,24.34,19.68,22.79,26.07,26.03,19.22
....Bukidnon,4.63,5.08,7.43,6.5,5.72,5.71,6.69,6.36,6.36,7.19,6.15,7.24,6.61,6.96,7.82,8.05,9.93,10.16,11.16,14.95,10.44,15.15,13.72,14.53,14.82,15.55,16.33,17.23,18.52,21.57,18.95
....Camiguin,,,,,,,10.81,10.53,13.34,10.17,10.08,10.76,11.22,11.21,11.31,13.49,19.15,19.54,20.68,20.13,20,29.79,27.27,28.45,29.65,31.48,30.97,32.6,36.22,35.59,35.63
....Lanao del Norte,4.22,4.37,4.34,5.28,6.1,5.37,7.12,8.03,7.57,8.15,10.06,8.45,8.63,11.02,11.64,12.91,16.57,13.74,15.59,15.13,14.46,19.96,21.53,22.47,26.71,26.75,25.79,26.16,27.49,21.42,21.87
....Misamis Occidental,4.83,5.61,6.44,7.02,7.77,7.93,10.8,8.73,9.32,10.83,9.85,9.78,9.97,11.04,10.49,12.01,13.94,12.74,16.68,17.69,15.84,21.46,21.24,20.92,22.8,22.68,21.99,24.24,28.47,29.86,24.16
....Misamis Oriental,5.63,4.51,6,6.9,8.52,8.29,7.42,6.95,8.28,7.85,7.68,7.36,7.59,8.88,8.74,9.34,10.57,11.24,11.36,12.67,10.68,17.81,16.11,16,16.6,18.03,17.67,19.64,22.7,25.9,21.33
....Davao de Oro,,,,,,,,,,,,,8.2,9.15,9.3,9.51,12.81,12.31,12.93,13.24,11.07,20.08,15.66,16.19,17.03,29.83,17.35,19.59,20.7,19.21,17.86
....Davao del Norte,4.03,5.88,5.7,4.4,6.5,6.21,6.4,4.95,5.89,8.75,6.74,6.2,6.3,7.9,11.21,11.18,15.82,16.53,19.25,19.72,19.5,28.45,25.71,26.43,27.9,17.66,26.33,29.87,37.22,35.11,30.7
....Davao del Sur,4.17,4.52,4.53,4.48,5.25,5.27,6.01,5.55,7.33,6.84,5.75,6.01,6.25,6.62,7.74,8.4,9.43,9.7,11.63,12.26,10.09,17,13.13,14.18,14.59,19.99,16.82,16.64,18.68,21.35,16.61
....City of Davao,5.86,6.31,7.13,9.17,8.9,7.95,7.69,7.31,10.32,11.94,10.85,9.45,9.64,10.36,10.89,11.2,13.27,13.83,15.34,16.88,14.95,21.52,18.35,19.05,20.1,17.31,21.75,24.09,28.01,30.13,25.98
....Cotabato,5.14,4.96,5.16,6.33,5.56,5.95,11.66,9.38,10.67,11.05,11.41,9.74,11.23,12.55,13.81,15.89,15.65,15.41,20.47,20.14,18.32,22.52,22.53,24.25,24.96,24.68,20.02,18.38,21.03,24.3,17.37
....Sarangani,,,,,,10.32,15.09,15.07,18.97,19.87,15.85,19.31,21.86,19.31,24.57,25.24,15.01,9.89,10.89,12.13,11.64,15.49,15.55,15.48,16.84,18.32,14.38,16.15,18.68,19.72,17.22
....Sultan Kudarat,,,6.06,6.16,7.16,7.23,9.42,9.38,9.55,11.94,13.56,12.23,11.76,10.15,8.98,8.48,9.67,9.51,9.61,9.76,10.27,22.35,18.74,12.08,13.05,16.72,13.45,14.84,16.77,17.09,11.99
....South Cotabato,5.01,5.11,4.44,4.7,5.87,9.37,11.03,12.22,15.55,14.43,11.89,13.27,14.04,15.03,15.29,18.09,17.35,15.11,15,15.01,14.65,15.54,15.89,15.07,20,14.68,11.48,14.86,18.55,17.18,14.67
....Agusan del Norte,2.93,3.94,3.18,3.76,5.61,4.74,8.57,7.84,7.7,9.42,9.82,9.49,8.38,9.24,11.44,12.17,17.55,16.59,19.9,20.58,19.81,27.98,20.49,21.86,24.41,21.68,26.16,27.87,33.55,40.17,32.32
....Agusan del Sur,4.84,5.28,4.68,5.38,6.52,5.51,7.99,5.75,8.39,9.82,9.62,10.48,9.43,10.66,10.53,11.01,14.29,15.23,18.73,19.91,19.04,27.71,22.22,21.57,22.53,24.32,25.34,25.15,27.32,27.68,25.85
....Surigao del Norte,5.32,5.2,5.02,5.13,8.14,7.68,10.24,7.05,8.6,10.54,9.69,10.71,10.04,11.2,12.64,12.88,17.4,18,20.7,20.17,18.08,27.44,22.51,24.53,25.84,26.02,22.63,26.45,34.96,32.39,27.53
....Surigao del Sur,5.52,5.95,4.72,6.15,8.15,8.69,11.89,9.69,12.14,12.61,11.38,11.56,12.36,13.81,13.58,14.39,17.86,18.52,20.64,21.34,17.94,31.41,23.66,22.22,28.61,26.01,24.9,25.29,26.57,28.29,25.96
....Basilan,5.1,5.33,7.19,7.14,11.03,11.85,11.01,12.61,12.31,12.25,11.71,12.39,13.04,13.75,13.72,13.81,14,13.88,15.56,19.4,22.85,28.83,31.65,43.14,40.89,47.45,46.45,51.37,65.43,50.8,56.12
....Lanao del Sur,,,7.01,7.07,7.13,7.26,8.37,21.6,20.82,18.11,21.1,21.42,17.39,14.76,17.15,15.68,14.58,13.77,13.86,14.61,14.72,,,,14.03,17.66,17.4,16.83,,,
....Maguindanao,3.29,4.42,3.53,5.48,7.95,5.73,12.2,12,11.95,11.63,11.37,11.71,11.07,11.79,12.96,13.11,11.1,12.52,15.2,17.22,20.77,27.02,19.34,14.91,18.46,14.06,14.79,24.04,26.69,22.62,27.79
....Sulu,11.67,13.06,14.4,15.5,15.2,15.26,8.37,7.83,10.49,11.88,11.57,12.67,13.04,13.43,13.61,12.77,12.63,12.81,11.9,16.81,15.67,24.93,24.07,23.5,58.72,65.92,65.06,70.32,69.23,62.46,51.91
....Tawi-Tawi,,,,,,,15,14.94,15.91,16.12,15.94,18.79,18.23,16.69,27.07,14.94,17.1,16.17,19.36,21.61,21.06,25.06,28.07,28.26,27.7,26.36,26.84,27.27,27.65,28.13,27.65
