Geolocation,1990 Annual,1991 Annual,1992 Annual,1993 Annual,1994 Annual,1995 Annual,1996 Annual,1997 Annual,1998 Annual,1999 Annual,2000 Annual,2001 Annual,2002 Annual,2003 Annual,2004 Annual,2005 Annual,2006 Annual,2007 Annual,2008 Annual,2009 Annual,2010 Annual,2011 Annual,2012 Annual,2013 Annual,2014 Annual,2015 Annual,2016 Annual,2017 Annual,2018 Annual,2019 Annual,2020 Annual
....Abra,,,,14.09,15.22,15.73,16.46,15.09,17.08,22.17,21.81,21.92,17.16,18.57,23.38,24.87,23.29,27.02,26.46,29.17,29.54,31.65,31.71,26.9,28.77,27,29.42,29.37,35.91,33.77,34.75
....Apayao,,,,,,,,8.58,11.53,11.24,9.17,9.99,9.62,13.06,14.13,17.26,17,16.81,17.65,14.35,15.24,18.99,22.33,17.98,14.77,16.66,20.52,19.17,23.51,19.07,24.06
....Benguet,8.43,9.47,12.42,14.69,13.73,18.23,24.32,19.11,17.5,19.21,19.02,13.43,12.69,14.78,17.12,13.85,20.02,16.75,19.44,24.59,26.72,46.49,43.17,36.48,26.28,46.96,44.98,41.91,55.45,38.13,35.39
....Ifugao,5.5,4.99,5.73,7.99,8.05,9.09,7.7,7.68,8.19,8.81,10.07,12.14,12.95,10.51,10.32,11.65,16.26,15.64,15.12,16.36,26,32.57,27.57,33.58,26.54,20.77,27.08,25.82,39.81,32.53,37.76
....Kalinga,5.99,7.2,7.13,10.75,10.32,10.15,10.08,9.05,11.28,11.64,11.64,12.88,10.38,9.38,9.7,11.02,12.06,12.57,13.15,15.59,14.34,14.62,18.92,18.19,16.23,19.06,23.89,21.02,26.67,23.88,25.69
....Mountain Province,6.23,12.38,5.77,,,13.17,15.69,13.55,16.44,15.85,15.83,22.24,16.9,18.35,24.54,25.53,23.09,25.7,25.64,27.66,23.2,23.98,30.74,30.32,,,,,,43.09,55.84
....Ilocos Norte,8.93,8.58,10.89,10.34,12.98,13.48,16.28,13.76,20.22,19.61,18.74,20.6,15.96,17.18,17.62,19.08,21.14,18.85,25.5,26.1,20.29,27.15,23.79,25.3,23.53,25.61,25.66,26.11,33.64,26.02,29.44
....Ilocos Sur,11.26,8.83,12.1,11.61,12.43,11.7,14.87,12.37,15.16,19.44,14.1,15.92,16.14,16.52,14.33,16.65,19.42,18.23,22.6,24.64,19.17,25.38,26.63,25.18,25.32,28.06,29.03,27.68,34.21,31.86,30.06
....La Union,8.71,10.46,11.47,10.45,12.3,11.34,16.18,13.6,15.85,16.31,20.25,17.94,17.08,14.29,18.09,21.22,21.19,20.6,27.36,31.62,25.09,43.82,44.5,49.26,35.29,32.06,37.71,28.22,27.53,24.08,24.4
....Pangasinan,6.68,7.9,6.7,10.33,11.38,11.19,13.18,12.13,17.56,16.82,18.59,16.16,16.43,19.33,19.7,18.08,21.15,19.26,23.81,26.72,28.92,22.74,26.1,25.96,25.91,25.26,24.16,24.97,30.57,30.21,32.6
....Cagayan,6.39,5.42,3.6,7.19,6.71,9.79,8.84,7.24,12.09,12.45,14.09,16.24,10.17,9.65,10.36,11.87,15.79,14.58,18.62,22.47,16.89,17.99,18.79,16.36,17.9,20.52,22.38,18.89,29.13,23.05,27.69
....Isabela,5.39,7.26,7.47,8.09,7.9,10.98,12.06,12.15,15.95,15.75,13.86,14.39,13.36,14.75,13.23,15.56,16.6,13.69,16.06,19.36,18.71,20.92,17.76,19.67,19.63,20.6,18.66,18.1,23.59,22.76,22.45
....Nueva Vizcaya,5.07,6.19,5.42,6.82,6.65,7.47,6.61,6.21,6.42,7.25,7.58,6.76,6.84,6.95,6.87,7.62,9.3,10.45,11.91,12.96,11.35,22.35,20.74,21.4,19.6,23.48,26.03,26.68,29.99,22.85,25.83
....Quirino,3.83,4.51,4.47,6.48,7.08,8.2,10.75,8.41,10.17,9.67,9.51,9.86,9.76,11.12,10.64,10.78,11.4,9.57,11.83,14.79,11.1,15.23,13.51,14.3,14.23,20.66,21.76,20.53,25,22.89,25.81
....Aurora,,,,,,,,8.51,16.56,8.38,10.77,9.53,9.93,9.93,9.84,11.32,10.03,12.32,16.57,19.65,17.76,13.86,19.73,22.44,16.51,24.43,23.56,23.97,28.97,27.62,32.18
....Bataan,6.54,8.55,8.21,8.55,9.88,9.35,11.56,10.28,12.43,10.91,15.33,12.77,13,11.89,14.37,18.45,19.23,10.93,17.29,21.4,23.46,48.18,37.47,41.7,38.83,27.87,33.37,35.47,42.92,41.68,42.75
....Bulacan,6.82,7.45,6.64,7.2,8.95,12.87,14.49,15.06,15,12.24,12.66,14.19,15.54,13.14,14.75,13.64,17.99,12.55,15.62,22.16,20.25,22.12,18.87,21.23,17.42,19.73,19.27,20.72,29.29,19.19,21.09
....Nueva Ecija,8.02,8.01,7.67,7.7,8.92,11.64,8.28,8.19,12.95,13.5,14.36,15.35,17.42,19.91,21.87,18.15,19.9,18.96,22.04,25.41,21.04,26.68,23.87,24.83,23.83,27.92,23.82,23.52,24.96,26.12,26.87
....Pampanga,9.89,,,,10.87,,10.64,9.11,11.66,15.38,18.06,14.79,15.12,15.23,17.64,18.17,20.88,20.13,21.66,25.35,20.38,26.35,26.21,24.81,24.14,27.09,23.59,23.34,32.46,27.96,25.85
....Tarlac,6.35,8.29,5.57,6.09,9.02,13.26,30.03,21.13,11.97,11.44,12.8,10.39,12.86,12.35,14.79,13.36,13.78,13.03,13.07,13.64,10.64,14.56,17.27,17.35,15.34,19.99,21.34,22.43,28.36,24.36,26.01
....Zambales,3.14,6.97,8.62,7.22,,13.07,9.07,10.01,13.88,14.11,13.59,14.08,13.28,13.54,14.48,14.52,16.67,17.98,18.83,22.04,19.31,24.61,22.51,22.87,28.22,30.84,28.15,25.95,34.19,32.03,29.66
....Batangas,6.8,6.91,7.9,8.74,11.65,14.27,13.21,10.79,13.09,13.53,15.92,14.81,14.71,15.08,15.9,15.78,18.73,18.86,22.68,26.15,17.94,24.09,24.78,21.88,19.52,24.22,21.81,21.51,25.58,28.28,30.94
....Cavite,4.46,4.5,4.6,4.75,7.89,11.57,11.19,12.71,18.13,15.99,15.79,11.82,11.24,10.21,11.09,10.67,12.43,11.63,14.46,18.38,15.94,16.16,15.6,15.68,14.86,14.95,21.2,16.63,18.71,19.89,23.54
....Laguna,5.26,7.57,5.99,5.87,10.37,13.38,5.88,6.86,7.6,8.58,9.43,8.42,6.89,7.95,7.9,8.55,10.17,9.78,11.28,12.45,13.78,21.85,21.28,20.8,19.61,21.74,23.53,22.87,24.97,21.83,28.85
....Quezon,7.08,8.55,9.32,9.74,11.35,12.29,12.59,10.52,12.94,15.25,11.15,13.34,11.55,12.61,14.39,13.1,16.29,14.11,16.59,19.03,15.42,18.24,16.66,20.55,19.39,19.51,18.35,21.17,25.01,22.25,25.61
....Marinduque,7.33,9.76,9.85,9.92,11.05,12.52,11.5,11.61,13.16,11.68,12.35,14.02,15.44,15.12,15.07,16.39,15.54,15.61,16.98,19.5,20.32,20.95,23.75,23.79,23.99,25.78,28.03,28.35,32.73,31.51,31.12
....Occidental Mindoro,6.84,6.99,7.03,10.75,13.1,14.84,20.76,24.9,10.69,17.28,16.08,21.5,20.2,19.92,17.47,18.86,18.71,26.55,20.38,19.32,16.99,18.57,20.88,18.87,18.21,13.57,19.9,17.32,17.25,23.52,23.94
....Oriental Mindoro,6.55,5.57,6.52,7.39,8.37,10.73,9.64,8.33,8.81,12.08,10.92,8.99,10.22,9.43,11.71,12.12,13.18,12.57,15.19,19.54,16.35,22.85,25.98,25.13,38.54,32.02,29.12,33.99,44.51,39.5,38.5
....Palawan,7.61,9.73,10.84,9.4,11.38,10.8,12.41,12.63,14.63,15.65,15.66,15.6,15.04,15.55,18.12,20.11,24.39,23.83,28.02,29.18,26.91,31.68,34.7,36.77,35.71,36.96,36.15,35.22,36.74,43.47,45.69
....Romblon,5.26,5.83,5.62,6.3,6.29,6.76,10.04,8.81,,,,,,,,7.55,14.36,11.56,11.43,12.62,13.73,15.53,17.01,17.13,17.85,18.31,18.29,18.37,21.57,25.12,28.43
....Albay,6.2,,7.12,,10.85,12.06,9.1,13.8,,,,,8.06,8.36,9.82,11.1,13.71,12.09,18.09,19.84,20.38,20.5,20.61,20.15,23.05,21.45,22.17,23.27,28.7,26.59,28.43
....Camarines Norte,4.93,6.55,6.6,6.77,8.76,15.64,14.63,6.05,9.34,20.33,21.94,19.15,21.98,9.14,6.55,11.1,11.84,8.35,12.38,13.8,15.13,21.23,25.66,22.62,21.71,22,20.8,20.63,22.82,24.25,23.24
....Camarines Sur,6.39,5.86,6.05,6.94,8.53,12.01,10.96,10.16,12.61,11.59,13.27,11.02,9.53,8.57,9.74,11.82,12.15,14.32,22.66,24.02,21.14,26.71,24.72,24.54,28.6,26.31,34.04,28.45,33.75,30.99,32.45
....Masbate,7.54,9.05,7.88,9.77,13.6,13.03,17.83,19.43,22.37,17.46,20.05,24.13,27.86,28.12,24.36,20.78,21.97,21.85,23.94,21.98,27.97,33.85,29.2,33.69,31.94,28.32,24.62,25,27.97,28.62,25.94
....Sorsogon,6.78,10.25,11.35,8.97,9.8,12.6,13.18,11.86,15.65,11.99,16.49,13.04,9.84,8.91,9.45,11.79,13.41,10.25,11.28,16.97,18.98,28.44,31.07,32.18,26.37,28.75,27.64,25.35,30.89,32.43,38.3
....Aklan,6.46,7.14,6.03,5.8,9.33,10.86,13.48,13.25,13.89,14.92,14.32,16.42,17.48,16.22,19.76,17.47,15.87,19.05,21.33,20.93,20.03,26.51,29.48,29.75,30.26,31.39,30.97,34.25,34.99,36.37,37.78
....Antique,4.24,4.13,3.96,4.41,3.67,3.94,10.15,11.4,12.25,11,17.37,18.77,18.38,13.18,17.26,16.28,14.97,13.95,14.58,16.08,16.08,17.05,17.77,19.92,20.6,23.27,27.29,25.58,27.22,28.61,33.22
....Capiz,5.99,6.25,8.25,10.9,9.02,6.8,10.51,11,11.27,14.83,16.07,11.95,12.58,9.59,10.53,12.16,14.82,17.91,18.83,25.44,21.29,24.58,24.11,24.7,21.44,23.26,22.52,24.95,25.37,25.86,28.99
....Guimaras,,,,,,,6.86,9.01,6.65,11.06,10.58,10.29,9.3,10.17,8.57,8.88,9.31,13.6,15.4,15.57,16.39,18.93,20.71,19.57,22.58,22.75,22.64,22.84,25.09,28.76,36.19
....Iloilo,9.65,6.27,7.49,9.44,10.4,12.36,11.64,13.5,11.79,16.18,13.61,17.02,13.73,13.24,15.89,17.36,20.25,17.97,21.42,23.69,24.78,32.15,27.04,26.37,33.81,30,33.76,42.24,40.9,35.17,36.33
....Negros Occidental,4.75,5.02,5.77,8.17,8.1,7.81,11.21,13.55,17.44,17.31,17.81,19.53,18.65,16.37,16.64,13.39,13.53,13.46,16.59,13.27,14.92,18.8,20.28,20.31,19.16,18.22,18.4,23.47,24.42,30.21,40.63
....Bohol,5.47,5.02,4.95,4.75,6.09,9.93,10.83,8.21,9.7,9.64,10.9,11.45,11.76,13.36,14.87,13.53,16.09,20.71,25.52,26.58,25.86,33.32,29.51,30.14,28.65,27.92,28.88,34.77,31.26,35.95,35.4
....Cebu,6.62,9.3,8.96,7.21,11.16,12.85,11.42,10.44,11.95,11.79,12.17,14.22,11.93,13.65,14.07,13.27,14.96,18.04,19.78,18.89,18.29,21.33,18.44,22.47,22.16,23.41,26.98,28.26,26.42,28.71,30.18
....Negros Oriental,5.62,5.25,6.06,6.03,6.95,7.75,10.62,10.1,10.07,10.11,12.77,13.25,13.33,13.9,13.27,13.38,14.33,16.93,18.36,20.6,18.87,19.39,26.44,27.52,27.8,30.57,25.43,27.99,39.27,39.97,37.93
....Siquijor,,,,,,,7.6,7.19,10.46,11.56,11.29,11.3,12.83,14.56,14.64,13.53,14.48,19.73,24.06,25.05,26.08,25.86,25.34,30.56,30.69,29.93,35.4,40,37.88,,
....Biliran,,,,,,,13.91,14.49,10.46,13.2,11.38,13.66,17.76,17.41,19.51,10.04,12.49,15.61,19.69,17.53,14.15,24.53,28.05,27.58,34.16,32.8,27.5,34.22,37.52,37.29,40.94
....Eastern Samar,5.79,7.19,9.85,10.29,11.7,18.47,20.87,15.7,13.78,14.46,14.13,13.21,15.13,15.2,19.06,14.66,17.89,17.05,27.45,28.78,26.61,34.08,27.12,34.91,31.5,28.81,36,38.97,41.06,47.99,49.74
....Leyte,5.5,5.97,5.17,6.14,8.11,9.87,11.88,11.12,10.88,11.43,10.62,11.71,11.84,13.77,13.17,14.2,21.16,18.36,23.73,24.73,21.54,31.19,26.28,23.48,30.3,26.32,31.22,38.78,36.09,35.59,38.57
....Northern Samar,,11.04,,8.4,10.92,10.55,10.86,10.68,14.3,16.94,18.18,15.58,15.13,16.16,18.73,15.66,20.93,18.75,23.67,21.82,20.23,28.56,28.83,31.49,33.73,29.74,36.47,30.54,49.59,40.16,45.94
....Samar,9.11,9.15,7.05,8.7,13.26,12.38,14.64,16.29,18.61,19.83,17.84,17.45,18.29,20.41,19.16,18.14,20.95,20.22,25.62,22.8,22.38,27.97,27.97,27.98,33.03,32.9,35.95,37.13,45.46,38.27,38.86
....Southern Leyte,,,,,,,,16.35,,,15.63,14.98,15.03,17.34,18.11,17.11,22.11,21.72,28.39,33.4,24.74,32.62,34.76,31.76,35.8,37.31,36.7,47.22,51.01,46.96,50.87
....Zamboanga del Norte,7.35,6.74,5.89,5.95,6.55,8.17,9.32,7.37,10.28,7.5,14.71,15,15,15,15.42,15.05,15.17,15,15,17.05,18.32,26.42,28.4,29.24,30.27,31.78,32.75,38.66,39.95,43.02,43.74
....Zamboanga del Sur,2.91,3.19,3.44,3.59,4.97,5.17,8.33,7.49,8.18,9.33,8.98,9.3,9.44,10.6,11.45,12.17,15.14,15.59,15.06,14.98,13.54,16.18,18.04,17.19,19.5,22.58,21.81,25.83,26.6,24.29,25.81
....City of Zamboanga,5.49,4.48,4.87,4.61,5.78,6.24,7.83,9.31,10.19,11.5,8.92,7.94,7.47,5.5,6.98,7.21,8.55,9.86,14.87,12.36,9.95,13.38,13.16,14.55,15.35,,19.89,17.02,18.64,21.29,20.69
....Bukidnon,4.4,5.21,7.48,7.2,7.56,7.67,9.53,6.72,8.64,9.44,10.36,10.39,13.7,15.39,13.51,15.66,15.05,15.36,14.6,16.52,16.89,21.5,21.08,25.17,29.51,34.06,26.56,30.85,30.49,31.64,30.98
....Camiguin,,,,,,,14.84,11.7,10.8,11.59,12.36,9.29,11.88,11.95,12.79,10.94,19.43,19.52,19.22,23.21,22.64,30.03,30.26,31.89,32.83,39.62,36.86,39.67,40.41,39.93,41.8
....Lanao del Norte,4.11,3.81,4.11,3.62,4.4,4.48,5.67,8.71,10.21,10.67,11.02,11.98,11.28,12.36,13.45,13.3,13.98,13.85,18.02,17.95,19.13,21.23,24.26,21.7,27.86,27.36,30.71,28.78,29.65,38.48,23.14
....Misamis Occidental,5.57,5.97,7.3,6.87,8.88,9.16,11.1,10.55,11.94,12.56,12.6,12.36,12.41,11.8,14.08,13.02,14.55,15.79,19,20.08,19.07,,,,24.59,24.36,26.51,28.05,28.81,29.95,30.74
....Misamis Oriental,3.77,3.99,4.66,4.21,4.54,6.57,7.65,8.18,13.9,15,14.31,14.99,15.2,14.99,15,14.6,15.07,14.46,17.23,15.33,17.89,21.73,20.1,20.81,23.8,24.13,27.75,28.74,29.87,37.34,39.72
....Davao de Oro,,,,,,,,,,,,,6.96,9.27,11.98,10.35,15.06,17.3,17.83,18.97,19.71,25.91,24.53,23.64,24.65,39.95,23.5,23.79,24.39,27.15,24.62
....Davao del Norte,3.61,4.07,3.72,3.85,6.36,6.71,12.57,13.66,12.45,12.79,13.42,11.49,10.95,10,13.56,11.26,13.31,17.67,20.49,25.31,32.49,33.62,37.1,37.35,39.45,23.29,28.16,35.74,42.48,37.12,36.19
....Davao del Sur,4.23,4.49,4.34,4.01,5.31,6.16,7.06,7.99,8.04,6.8,7.25,7.2,7.72,8.05,8.82,8.44,9.73,11.02,12.17,12.53,12.25,15.05,14.64,15.66,14.39,35.31,16.07,18.1,17.85,20.7,21.6
....Davao Oriental,,,,,,,7.3,8.22,9.41,9.28,10.24,10.65,11.02,10.77,14.83,13.27,13.54,13.62,17.69,19.11,21.52,25.82,26.09,36.43,37.84,30.32,27.54,29.77,27.56,30.29,34.96
....City of Davao,6.07,6.08,5.57,7.07,9.06,8.29,8.84,9.63,11.87,12.09,11.75,11.79,11.97,11.24,13.24,13.45,14.24,14.98,20.19,20.76,20.27,26.19,24.25,25.22,24.95,16.37,28.33,31.22,32.65,34.89,40.74
....Cotabato,5.01,5.27,5.98,6.03,6.22,8.09,10.79,11.84,11.04,10.04,11.92,12.11,11.99,13.74,15.52,16.47,14.02,16.45,20,16.38,14.21,16.56,21.5,23.49,24.15,22.83,26.42,27.69,33.64,32.47,30.03
....Sarangani,,,,,,,6.39,8.86,8.28,7.57,8.41,8.96,9.94,10.57,12.37,13.26,12.77,14.09,15.87,16.39,16.75,17.59,17.18,18.33,20.52,21.61,18.28,18.71,19.94,22.01,22.77
....Sultan Kudarat,,,5.16,5.88,4.18,4.81,6.03,6,4.7,6.01,8.75,9.34,10.45,13.19,16.75,17.03,12.38,9.61,17.82,17.82,15.46,18.52,17.5,13.27,11.94,15.68,17.24,20.37,20.79,23.03,24.33
....South Cotabato,4.92,4.55,4.1,3.79,3.92,3.41,3.73,5.32,5.38,6.07,6.13,5.56,4.69,4.69,5.03,4.6,4.48,4.53,5.96,6.02,5.85,6.12,15.67,17.16,18.06,16.41,16.72,19.37,22.93,22.84,18.72
....Agusan del Norte,7.34,7.51,7.52,9.38,8.27,6.54,10.35,10.1,11.61,13.98,14.92,13.15,12.1,11.4,12.69,12.34,17.25,17.18,20.33,22.03,21.11,28.02,23.79,27.16,28.2,29.13,26.25,33.99,39.66,40.71,33.98
....Agusan del Sur,5.86,7.95,4.97,6.69,6.87,6.9,13.27,7.47,6.72,11.8,13.07,14.41,13.18,13.48,15.31,14.8,18.7,19.38,23.07,24.28,25.88,27.99,28.58,28.08,30.2,34.75,31.26,35.08,34.95,39.75,39.91
....Surigao del Norte,5.24,6.21,6.66,7.02,7.18,7.85,10.03,10.59,9.83,14.9,18.6,22.5,17.81,16.03,19.25,18.21,20.47,23.97,26.03,27.8,27.12,32.13,31.02,31.45,37.17,36.3,33.47,43.2,47.32,45.8,46.06
....Surigao del Sur,4.45,6.06,6.38,6.97,9.01,9.62,11.73,8.86,11.86,13.22,11.68,11.22,13.62,14.11,13.95,14.31,16.92,18.78,20.4,23.18,25.27,28.64,26.39,23.46,33.29,36.26,30.18,32.62,32.02,37.03,38.4
....Basilan,4.88,5.8,7.51,8.56,11.6,11.63,8.16,5.25,4.87,5.67,5.4,5.24,5.53,6.63,6.56,6.86,7.35,8.24,8.76,11.24,13.13,15.89,17.83,18.42,16.9,15.74,15.71,15.41,18.19,18.55,22.19
....Maguindanao,3.03,4.45,4.11,3.93,7.15,5.97,10,10.09,9.48,8.85,9.11,9.71,9.5,10.74,12.42,11.75,9.5,11.43,14.02,12.75,16.24,20.41,21.32,22.29,22.83,21.43,22.88,23.22,24.9,31.4,38.65
....Sulu,6.68,9.4,8.65,8.6,8.49,8.51,12.36,18.89,16.46,17.4,17.91,17.61,20.94,22.9,19.14,18.71,19.29,29.93,27.43,24.33,38.19,35.14,34.82,34.22,63.95,84.76,82.17,76.68,72.45,75.95,77.46
....Tawi-Tawi,,,,,,,20,20,20.2,19.88,20.56,22.16,21.8,21.99,24.92,15.4,14.22,12.59,13.1,13.8,13.97,14.04,12.63,13.33,16.79,17.05,17.32,17.17,17.64,21.29,22.09
