Geolocation,1990 Annual,1991 Annual,1992 Annual,1993 Annual,1994 Annual,1995 Annual,1996 Annual,1997 Annual,1998 Annual,1999 Annual,2000 Annual,2001 Annual,2002 Annual,2003 Annual,2004 Annual,2005 Annual,2006 Annual,2007 Annual,2008 Annual,2009 Annual,2010 Annual,2011 Annual,2012 Annual,2013 Annual,2014 Annual,2015 Annual,2016 Annual,2017 Annual,2018 Annual,2019 Annual,2020 Annual
....Abra,8.93,9.36,9.5,11.39,12.21,14.1,17.68,16.33,,,17,18,18.42,18.71,19.26,23.25,24.6,23.82,32.83,34.2,33.98,34,34.92,36.3,44.6,45.71,44.73,44.81,46.07,44.08,43.6
....Apayao,,,,,,,,16.31,16.87,17.38,17.7,17.75,17.85,17.63,19.71,22.17,23.49,24.92,31.67,32.31,32,33.54,32.79,33.28,42.25,40.6,39.91,40.15,43.91,42.58,38.21
....Benguet,9.69,10.35,9.9,12.5,15.17,16.98,19.58,18.03,18,18,18.33,18,18.82,20,20,21.45,22,22.83,33.7,32.83,33.96,35,36.03,37.32,42.5,44.43,44.32,43.25,44.36,40.54,40.15
....Ifugao,8.52,9.07,9.5,11.08,12.42,15.73,18.56,17.27,17.29,18.25,18.58,18.8,19.52,19.27,19.64,22.52,22.98,24.22,32.58,35.1,36,,33,37.93,40,36.54,,,,41.92,42.35
....Kalinga,8.85,8.92,8.95,10.7,11.92,14.99,17.45,16.34,17.34,18.1,17.89,17.64,18.34,18.22,19.23,21.86,21.75,23.24,32.95,33.13,33.03,33.02,33.83,35.78,43.99,44.86,44.37,45.41,47.79,43.97,41.18
....Mountain Province,9.72,10.44,11.3,13.1,16.3,20.32,19.75,18.71,19.15,19.85,20.21,20.34,20.81,21.85,24.48,,,28.46,35.95,38.75,38.59,38.43,38.68,39.27,47.11,47.94,47.77,47.31,51.47,57.78,56.81
....Ilocos Norte,8.73,8.85,8.7,10.41,11.25,14.18,17.71,16.13,17.64,18.15,18.58,18.54,19.65,20.38,20.75,23.62,22.9,22.81,29.68,29.92,29.58,30.38,31.52,33.75,41.22,38.67,36.93,39.32,43.31,42.13,41.11
....Ilocos Sur,8.91,8.74,8.8,11.1,12.02,14.93,18.13,17.04,17.6,18.24,17.86,17.71,18.03,18.43,18.5,21.68,21.82,23.33,31.59,31.78,33.92,34.6,34.25,35.6,42.3,43,40.97,41.54,44.79,42.92,41.61
....La Union,8.54,9.54,9.4,10.98,12.26,16.18,19.2,18.86,18.82,19.34,19.46,20,20.29,20.65,21.45,23.17,24,26.1,34.47,34.25,35.75,35.48,35.33,35.59,40.39,36.4,37.56,40.2,45.87,41.8,42.42
....Pangasinan,9.02,9.33,9.2,11.27,12.85,16.35,19.31,19.02,19.9,21.01,21.99,21.11,20.08,20,20.93,21.58,22,22,30.1,31.98,32.63,34.8,33.94,34.08,39.64,40.43,40.76,41.42,42.44,41.79,41.31
....Cagayan,9.35,9.8,10.3,11.75,13.23,15.27,18.15,17.97,18.12,18.07,18.25,18.12,19.61,19.56,19.84,21.8,22.29,23.47,30.73,31.77,32.26,33.15,33.17,34.43,41.41,35.45,36.16,38.06,42.55,35.94,33.66
....Isabela,8.94,9.92,10.75,11.39,12.85,16.87,19.9,19.16,19.1,18.85,18.91,19.54,20.55,21.1,21.52,23.22,23.83,25.85,33.9,37.26,35.53,36.55,36.79,37.25,42.92,41.11,41.9,45.42,47.52,42.73,41.27
....Nueva Vizcaya,8.59,8.92,8.9,10.71,11.67,15.02,17.47,16.08,16.84,16.57,17.08,16.81,17.94,17.76,19.06,20.6,20.3,22.88,31.74,32.76,33,33,33,34.32,40.35,40.49,39.19,39.13,41.55,41.08,39.98
....Quirino,8.88,8.95,8.85,10.76,11.83,15.7,18.45,18,18.42,18.04,18.85,19.98,19.92,21.89,22.03,22.07,22.05,23.8,34.15,35.46,35.73,35.21,35,35.99,40.1,41.42,,,,44.23,42.29
....Aurora,8.78,8.89,9.5,11.29,12.52,15.5,17.79,17.75,18.64,19.95,19.36,19.25,19.5,18.92,20.11,22.8,24,24.42,30.97,32.33,32.5,33.5,33.64,35.35,41.86,43.9,44.82,44.89,45.44,43.06,43.28
....Bataan,9.81,10.73,11.15,12.93,14.8,17.76,21.69,19.6,21.01,21.53,20.44,20.36,20.28,20.79,22.14,22.84,24,24,30.45,32.73,31.67,32.94,33.71,35.77,41.04,40.82,41.16,40.04,42.41,40.6,40.64
....Bulacan,9.7,10.38,11,12.81,14.83,16.97,20.26,20,20.97,21.96,22.04,22,22.25,21.15,21.65,23.81,23.73,24.52,33.28,34.15,34.09,34.84,35.22,35.32,42,39.89,38.53,39.61,41.85,41.45,41.18
....Nueva Ecija,8.9,9.31,9.55,11.4,13.46,16.75,19.13,18.99,19.85,20,19.75,20.98,21.14,21,20.93,22.61,22.98,24.01,34.5,35.04,33.6,34.5,34.6,35.78,43.89,43.91,43.86,43.92,44.58,42.33,40.93
....Pampanga,10.19,11.58,12.1,12.97,14.54,16.98,20.82,19.54,19.93,20,20.24,20.59,21.2,22.39,22.88,23.68,24.47,25.25,32.93,38.43,38.88,36.83,36.85,35.98,40.08,39.69,36.75,37.41,42.7,40.38,41.35
....Tarlac,9.5,10.41,10.05,11.96,13.5,17.23,19.55,18.24,18.04,18.25,18.17,19.03,19.08,19.45,20.57,22.45,22.13,22.73,32.39,34.93,34,34,33.5,34.51,39.02,40.78,39.79,38.85,41.83,41.21,40.28
....Zambales,9,9.75,9.7,11.79,12.96,16.13,19.34,18.55,18.25,18.65,18.97,19.2,19.85,19.75,19.91,21.49,21.29,21.94,31.34,33.75,32.69,34.43,35.88,35.82,41.11,39.19,37.48,40.13,43.06,40.37,39.07
....Batangas,9.52,10.08,11.55,13.13,14.42,18.34,21.07,20.63,20.91,21.97,22.6,22.04,22,21.83,22,22.7,23,24.04,32.57,34.5,35,35,35,35.66,41.86,42.45,43.41,44.52,45.62,42.87,41.42
....Cavite,10.19,10.54,13.3,15.1,16,18.96,23.04,22,22.88,23.7,22.26,21.75,22.67,22.69,21,22.76,23.27,24.98,32.42,33.27,33.02,33.47,34.23,36.08,43.44,42.91,43.04,43.84,46.12,41.47,40.5
....Laguna,10.28,11.38,11.4,13.31,14.58,18.61,19.8,20.73,20.33,18.96,19.25,19.95,20.04,21.81,21,21.79,22.47,24.06,31.57,33.58,33.06,34,34.04,35.1,40.59,40.25,39.6,41.66,44.75,44.42,43.22
....Quezon,9.86,11.38,11.4,13.06,14.63,18.44,22.1,22.15,22.69,21.92,23.43,22.93,22.75,22.78,20.12,21.69,22,24.12,32.15,33.63,34.46,32.78,33.82,37.44,41.73,40.43,40.18,40.74,44.11,43.02,42.17
....Rizal,,,,,14,16.83,19.96,20,20.25,20,20.08,20,20.69,20.45,21.02,22.75,23,22.86,31.89,34.83,35.12,35,35.02,35.98,41.08,41.35,41.92,41.31,42.32,40.52,41.37
....Marinduque,9.57,10.22,11,12.73,14.67,17.45,19.97,20,20,20,20,20.42,21.03,21.78,21.82,24.36,26,26.44,33.33,34.56,33.33,33.88,34.27,37.52,44.43,43.92,43.93,41.95,45.5,41.89,41.98
....Occidental Mindoro,8.86,9.38,9.4,10.56,12.25,16.68,20.23,19.16,18.98,19.43,19.66,20.07,19.85,20,21.11,22.75,23.58,24.17,31.9,33.08,34.84,34.28,34.46,35.76,41.85,37.45,35.46,37.74,40.74,38.43,39.15
....Oriental Mindoro,9,9.35,9.4,11.19,12.71,15.68,18.02,17.65,18.02,18.02,18.12,18.14,18.72,19.21,19.4,22.38,23.93,25.28,34.03,33,33.36,33.43,33.68,35.43,42.42,40.57,39.87,40.79,45.79,41.45,40.66
....Palawan,9.52,10.79,10.75,11.9,12.79,17.98,19.01,20.78,21.98,22,21.44,21.99,21.53,20.55,20.92,22.52,22.63,24.4,30.87,32.33,32.96,34.48,34.48,35.05,39.17,37.55,37.53,37.79,43.85,41.43,42.97
....Romblon,10,10,10,11.11,12.93,16.69,20.5,20.18,20.4,19.82,19.95,20,20.73,,,,,,34.88,34.15,34.35,33,34.2,36.55,41.93,41.19,39.56,39.88,44.82,48.79,42.45
....Albay,9.1,9.08,9.5,11.29,12.71,17.13,18.87,17.36,18.05,18.27,19.26,19.07,19.27,19.24,19.44,21.7,22.65,24.59,31.45,32.96,33.83,33.77,33.75,35.65,41.42,39.58,38.4,39.1,43.11,41.89,41.76
....Camarines Norte,9.04,10.21,10.2,11.94,13.5,17.52,19.41,18.13,18.06,18.37,18.72,18.54,18.98,19.42,20.63,22.4,23.79,24.59,31.68,33.14,33.6,34.48,33.96,36.24,42.51,40.56,39.25,39.23,43.12,41.11,40.1
....Camarines Sur,9.35,9.41,9.45,11.19,13.2,16.48,18.18,17.88,17.74,18.38,18.88,19.83,20.06,18.9,19,22.53,23.88,24.92,31.05,33.33,31.91,32.54,32.8,34.67,40.61,40.22,38.41,38.62,40.95,42.07,42.23
....Catanduanes,9.36,9.64,9.9,12.38,14.38,18.71,21.08,19.59,18.05,17.03,17.6,18.59,19.31,19.08,19.48,22.96,22.15,22.4,31.91,32.59,32.68,33.4,34,35.8,41.44,39.59,38.93,39.52,44.59,40.66,40.37
....Masbate,9.28,10.06,10.4,12,13.42,17.93,20.63,19.38,20,19.5,19.53,19.79,19.9,20.21,20.6,22.41,22,24.08,33.25,35.79,36.78,35.93,35.41,35.82,41.47,38.5,38.4,39.97,43.82,46.41,44.31
....Sorsogon,9.04,9.76,10,12.48,13.44,16.29,18.87,18.34,18.38,18.98,18.59,19.12,19.4,20.12,20.8,22.99,24.13,25.84,31.08,31.96,33.05,33.77,33,34.66,41.55,41.99,38.4,38.63,45.04,41.59,40.74
....Aklan,9.45,9.43,9.5,10.96,12.1,15.63,16.88,17.4,17.71,16.51,18.13,17.74,18.46,19.02,19.08,22.34,23.47,24.02,29.67,31.13,31.75,32.48,32.88,34.24,39.06,39.26,37.86,36.3,43,42.15,42.15
....Antique,8.95,8.79,8.95,10.38,11.25,15.33,16.82,16.99,17.84,17.5,18.64,18.48,19.18,18.33,18.38,22.22,21.84,23.9,30.51,31.9,33,32.38,34.02,35.25,40.87,38.72,38.58,38.8,44.89,41.64,39.85
....Capiz,9.51,9.3,9.6,11,11.75,15.84,17.96,17.89,18.88,18.07,19.6,19.04,19.33,19.73,19.97,23.86,24.26,26.16,34.51,38.96,38,38,37.7,39.18,43.12,43.48,43.69,44.33,46.56,42.35,42.31
....Guimaras,,,,,,,18.21,19.64,19.85,18.21,19.38,19.42,19.99,20.59,20.89,23.59,24.75,25.89,33.31,35.58,35.48,35.31,36.35,38.17,43.55,44.92,44.49,44.31,47.55,44.35,44.76
....Iloilo,9.38,9.69,10.1,11.54,13,16.51,18.54,18.99,21,20.84,21.79,21.75,22.21,22.45,22.74,25.12,26.3,28.14,35.84,38.16,37.41,37.99,39.6,40.55,44.99,46.68,46.52,46.36,50.56,49.58,45.03
....Negros Occidental,10.02,10.28,10.8,11.81,12.79,17.63,20.58,19.12,18.94,20.2,20.65,20.08,21.58,22,21.92,24.14,25.8,27.5,34.73,37.95,37.71,37,37,37.38,43.09,44.34,42.31,42.51,46.99,42.57,41.49
....Bohol,,10.37,11.1,12.96,13.75,16.87,20.96,18.75,18.67,18.43,18.68,18.14,20.44,20.82,21.03,22.58,23.65,24.99,31.48,32.59,32.72,33.05,34.27,36.48,41.57,40.75,40.77,42.39,47.79,42.3,42.11
....Cebu,11.34,12.58,12.3,13.4,14.63,17.51,19.73,19.16,19.47,19.02,20.05,19.12,19.84,20.09,21.3,23.43,24.17,25.08,33.9,34.53,34.35,33.17,33.96,36.53,42.39,41.43,40.58,42.18,45.87,45.47,45.55
....Negros Oriental,11.34,12.51,12.4,13.42,15.15,18.89,23.39,20.53,20.81,20.41,20.8,21.82,20.11,20.12,21.46,23.45,24,25.08,33.3,32.42,32.66,33.27,34.51,37.09,42.5,40.68,39.28,40.67,44.49,39.88,39.66
....Siquijor,10.56,13,,,,,19.31,19.07,20.1,21.69,22.25,21.57,22.19,22.24,22.65,25.18,26.06,27.56,36.8,36.02,36.44,36.92,38.01,40.31,46.73,46.1,44.78,46.14,49.58,48.85,45.8
....Eastern Samar,,10.7,11.3,12.54,13.65,17.17,19.73,18.88,18.61,18.85,20.03,21.53,20.92,21.71,22.14,23.96,25.1,25,33.2,34.08,34.35,35.42,35.64,38.21,44.78,43.24,42.4,43.15,44.57,44.26,41.72
....Leyte,9.25,9.49,10.35,11.79,12.94,15.99,18.42,18.08,18.54,18.9,19,19,19.39,20,21.1,22.02,24,24,33.68,36.95,35.04,35.47,35.05,36.8,44.1,42.87,42.13,43.35,45.46,42.38,41.92
....Northern Samar,,,9,,13,13.25,18.77,17.67,17.59,17.98,19.2,18.9,19.4,19.83,20.28,22.35,23,23,31.87,35.97,36.1,37,36.6,40.04,45.92,43.97,42.12,40.25,44.04,39.96,39.18
....Samar,,10.55,11.2,12.17,13.75,17.63,19.91,20,21.35,21.27,21.02,20.21,21.06,22.08,21.73,22.64,23.31,24.56,33.74,34.98,35,35.28,35.5,36.87,42.84,43.6,43.1,41.79,50.29,43.28,41.34
....Southern Leyte,,9.58,10.35,11.64,13.06,16.18,18.78,17.78,19.38,19.47,19.9,19.71,21.59,20.56,22.51,23.99,24.63,26.25,33.85,35.38,35.01,35.29,35.75,38.93,43.74,43.37,43.16,46.69,46.82,45.72,43.84
....Zamboanga del Norte,9.15,10.03,11.1,11.95,13.39,16.1,18.45,18.3,19.04,19.41,19.7,20,20.02,20,20.83,23.25,24.96,25.48,35.26,37.87,38.1,38.63,38.39,39.7,44.74,45.06,45.09,45.62,49.62,47.41,45.94
....Zamboanga del Sur,9.46,10.03,10.45,11.08,13.19,15.37,17.72,17.75,18.49,18.42,18.85,18.59,19.37,19.63,21.47,23.13,24.2,26.05,33.86,35.06,35.4,35.47,36.83,38.62,43.48,43.17,44.3,42.22,47.06,45.4,40.72
.City of Zamboanga,9.57,9.73,10.6,11.99,13.23,16.44,18.87,18.28,18.63,19.05,18.76,18,18.09,18.71,21.41,23.35,24.24,26.4,33.27,35.48,34.82,34.8,35.62,36.3,37.05,37.03,38.34,38.45,42.28,42.65,38.46
....Bukidnon,9.63,10.19,10.95,11.7,13.5,16.46,18.79,18.96,19.45,20.08,20.3,20,20.57,20.7,21.36,23.24,24.28,24.98,33.36,34.24,34.34,33.44,35.1,36.56,39.82,42.36,42.98,43.11,44.5,42.28,41.68
....Camiguin,9.6,10.14,9.8,,,,18,18.7,20.93,22.22,21.94,22,23.44,24.03,24.25,25.57,26.08,27.54,35.33,37.63,37.94,38.14,38.13,40.69,47.29,47.18,47.05,47.11,49.15,46.45,45.65
....Lanao del Norte,9.65,10.29,11.3,12.13,13.56,16.37,19.2,19.13,20.77,20,19.8,19.56,20.19,21.52,21.91,22.65,23.12,25.11,34.56,34.47,34.86,35.21,35.89,38.19,42.23,45.11,43.68,43.49,46.3,43.28,40.53
....Misamis Occidental,10.12,10.57,11.25,12.13,13.58,16.28,18.54,18.58,18.8,18.33,18.74,19.43,20.74,21.37,22.25,23.63,24.88,26.01,33.97,34.59,33.63,33.54,34,36.91,42.23,42.99,42.17,42.81,43.48,42.7,41.5
....Misamis Oriental,9.82,10.85,11.3,12.87,13.92,17.32,19.58,19.42,18.99,19.27,19.61,19.37,20.8,22.06,22.74,24.17,25,25.57,33.99,35.93,35.96,35.93,36,37.58,41.98,42.44,42.42,42.45,44.87,42.77,43.21
....Davao de Oro,,,,,,,,,,,,,19.85,19.27,21.53,23.44,23.31,24.16,32.4,32.33,32.77,34.21,35.02,37.68,43.61,44.41,44.79,44.02,47.13,42.19,41.34
....Davao del Norte,9.01,8.99,10,10.8,12.14,14.55,16.34,16.05,16.63,17.05,17.95,17.37,18.51,18.52,20.75,22.46,23.2,24.53,31.08,32.95,33.39,34.62,36.37,38.53,45.64,44.54,45.78,46.94,49.73,41.78,40.41
....Davao del Sur,9.18,9.44,10.3,10.54,12.64,15.42,17.23,17.33,17.79,17.48,18.06,17.55,18.74,19.16,21.22,23.2,23.58,25.46,32.22,33,33.94,34.62,35.93,38.41,44.39,45.28,45.66,46.25,49.77,41.29,39.86
....Davao Oriental,9.25,9.84,10.9,12.01,13.42,16.35,18.72,18.65,19.31,19.23,19.58,19.39,20.13,20.38,23.22,25.29,25.58,25.99,34.46,35.39,35,35.79,37.04,40.72,44.38,47.06,46.79,47.39,49.14,43.29,43.43
....City of Davao,9.33,9.53,10.4,11.67,13.4,16.37,18.76,18.88,19.11,18.87,19.04,18.98,19.95,19.68,21.98,24.04,24.43,25.48,33.89,34.62,35.13,35.95,37.21,39.2,44.6,45.08,46.2,46.9,48.53,43.83,41.55
....Cotabato,9.21,9.52,10.4,10.92,12.35,15.02,17.14,16.99,17.73,17.63,17.58,16.99,17.86,17.99,19.84,21.32,21.6,23.47,29.14,31.26,32.48,32.97,34.72,36.2,41.28,40.76,42.41,43.72,46.53,39.83,39.51
....Sarangani,,,,12,12.91,15.76,17.31,17.47,17.89,17.98,18.24,18.21,19.36,19.34,20.35,21.71,22.38,23.88,30.32,32.04,32.9,33.78,34.76,37.85,42.17,41.29,40.73,41.22,45.85,41.86,39.29
....Sultan Kudarat,9.43,9.83,10.95,11.69,13.12,15.5,16.17,16.13,18.11,18.61,18.64,18.47,19.83,20.64,21.95,23.75,24.08,25.41,32.19,32.84,33.06,31.54,33.87,33.12,37.95,,,,,,35.6
....South Cotabato,9.65,10.23,10.95,11.83,13.11,15.58,17.44,17.6,17.76,17.61,18.29,17.43,18.38,18.54,20.4,21.54,22,24.49,29.79,31.89,32.58,33.64,35.54,36.95,41.55,40.58,41.51,42.04,46.06,40.38,40.03
....Agusan del Norte,9.18,9.94,10.6,11.65,13.31,15.58,17.43,17.61,18.07,18.17,18.78,18.38,18.36,19.34,20.93,22.85,22.98,23.58,33.54,34.24,35.03,34.92,35,37.11,42.86,44.88,44.79,44.6,44.52,42.43,41.8
....Agusan del Sur,9.26,9.51,10.55,11.49,12.78,15.6,17.37,17.52,18.52,18.3,18.84,18.96,19.68,19.7,22.03,23.88,24.65,25.78,32.93,33.55,33.43,33,34.31,38.01,42.81,43.21,43.26,43.67,45.46,41.85,42.24
....Surigao del Norte,9.21,9.91,11,11.92,13.11,14.01,18.35,17.94,18.21,18.31,18.92,18.53,19.67,19.77,21.85,23.6,24.59,25.52,34.66,34.05,35.13,35.83,37.1,39.57,44.67,43.43,44.72,44.94,48.36,40.71,41.25
....Surigao del Sur,9.14,9.69,10.1,11.2,12.15,14.47,16.5,16.6,17.02,17.2,17.99,17.99,19.56,19.21,21.57,23.56,24.02,25.07,32.83,34.08,35,35.24,36.43,39.09,44.12,42.43,42,42.17,45.74,40.76,41.87
....Basilan,7.5,10.58,10.75,12.03,13.22,16.81,19.62,19.05,19.17,19.5,19.36,18.62,18.52,18.97,19.96,22.96,24.26,25.82,33.82,35.81,35.38,38.03,39.44,40.12,44.59,42.09,43.26,42.38,47.3,43.45,41.54
....Lanao del Sur,9.4,10.15,11.2,11.5,14.18,16.1,18.9,18.88,19.49,19.65,20.21,20.13,22.3,23.48,24.75,25.38,27.35,26.94,33.28,39.71,44.86,45.98,46,46,45.67,43.78,44.27,44.44,,,
....Maguindanao,10.1,10.15,11.2,12.08,13.31,16.21,18.09,17.42,18.87,19,19.26,19.55,19.51,20.64,21.63,21.72,22.26,22.66,29.32,31.63,32.66,34.08,36.26,38.19,43.18,41,41.4,42.44,45.85,42.4,40.22
....Sulu,10.28,11.02,11.75,12.58,13.85,17.13,20.1,19.77,20.46,20.15,19.94,19.87,19.43,16.54,18.67,20,21.84,23.65,32.68,31,32.52,33.67,34.5,34.67,35.68,34.84,36.72,35.91,45.07,59.28,
....Tawi-Tawi,,,,,,,19.2,18.33,18.71,19.92,18.55,18.55,17.58,17.42,21.37,20.51,20.46,23.49,30.28,28.6,28.64,30.04,30.32,29.13,31.99,29.89,36.42,33.03,40.79,38.03,
